{
    "_id": "I1ffBVISxLr2gC4u",
    "data": {
        "active": true,
        "alsoApplies": {
            "linked": [],
            "unlinked": []
        },
        "base": "Unfriendly",
        "description": {
            "chat": "",
            "unidentified": "",
            "value": "<p>This condition reflects a creature's disposition toward a particular character, and only supernatural effects (like a spell) can impose this condition on a PC. A creature that is unfriendly to a character dislikes and specifically distrusts that character. The unfriendly creature won't accept @Compendium[pf2e.actionspf2e.Request]{Requests} from the character.</p>"
        },
        "duration": {
            "perpetual": true,
            "text": "",
            "value": 0
        },
        "group": "attitudes",
        "hud": {
            "img": {
                "useStatusName": true,
                "value": "systems/pf2e/icons/conditions-2/unfriendly.webp"
            },
            "selectable": true,
            "statusName": "unfriendly"
        },
        "modifiers": [],
        "overrides": [
            "Helpful",
            "Friendly",
            "Indifferent",
            "Hostile"
        ],
        "references": {
            "children": [],
            "immunityFrom": [],
            "overriddenBy": [],
            "overrides": []
        },
        "removable": true,
        "rules": [],
        "source": {
            "value": ""
        },
        "sources": {
            "hud": false
        },
        "traits": {
            "custom": "",
            "rarity": {
                "value": "common"
            },
            "value": []
        },
        "value": {
            "immutable": false,
            "isValued": false,
            "modifiers": [],
            "value": null
        }
    },
    "effects": [],
    "flags": {
        "pf2e": {
            "condition": true
        }
    },
    "img": "systems/pf2e/icons/conditions/unfriendly.webp",
    "name": "Unfriendly",
    "permission": {
        "default": 0
    },
    "type": "condition"
}
