{
    "_id": "irDibuV3Wi7T43sL",
    "data": {
        "boosts": {
            "0": {
                "value": [
                    "dex",
                    "int"
                ]
            },
            "1": {
                "value": [
                    "cha",
                    "con",
                    "dex",
                    "int",
                    "str",
                    "wis"
                ]
            }
        },
        "description": {
            "chat": "",
            "unidentified": "",
            "value": "<p><strong>Prerequisite</strong>: Region - Absalom and Starstone Isle</p>\n<hr />\n<p>You grew up in the soggy, squalid quarter of Absalom known as the Puddles. You're at home in tightly packed urban environments.</p>\n<p>Choose two ability boosts. One must be to <strong>Dexterity</strong> or <strong>Intelligence</strong>, and one is a free ability boost.</p>\n<p>You're trained in the Acrobatics skill, and the Absalom Lore skill. You gain the @Compendium[pf2e.feats-srd.Steady Balance]{Steady Balance} skill feat.</p>"
        },
        "items": {
            "bqp05": {
                "id": "CnqMJR8e9jqJR7MM",
                "img": "systems/pf2e/icons/features/feats/feats.webp",
                "level": "1",
                "name": "Steady Balance",
                "pack": "pf2e.feats-srd"
            }
        },
        "rules": [],
        "source": {
            "value": ""
        },
        "trainedLore": "Absalom Lore",
        "trainedSkills": {
            "value": [
                "acr"
            ]
        },
        "traits": {
            "custom": "",
            "rarity": {
                "value": "common"
            },
            "value": []
        }
    },
    "effects": [],
    "flags": {},
    "folder": null,
    "img": "systems/pf2e/icons/default-icons/mystery-man.svg",
    "name": "Child of the Puddles",
    "permission": {
        "default": 0
    },
    "type": "background"
}
