{
    "_id": "iPuclSXdCEAVfTZ0",
    "data": {
        "boosts": {
            "0": {
                "value": []
            },
            "1": {
                "value": []
            }
        },
        "description": {
            "value": "<p>This is a blank background for homebrew. <span style=\"color: var(--body);\">This provides no inherent automation but can be used as a drag and drop template on an actor.</span></p>"
        },
        "items": {},
        "rules": [],
        "source": {
            "value": ""
        },
        "trainedLore": "",
        "trainedSkills": {
            "value": []
        },
        "traits": {
            "custom": "",
            "rarity": {
                "value": "common"
            },
            "value": []
        }
    },
    "effects": [],
    "flags": {},
    "folder": null,
    "img": "systems/pf2e/icons/default-icons/background.svg",
    "name": "[Empty Background]",
    "permission": {
        "default": 0
    },
    "type": "background"
}
