{
    "_id": "AJ41zFEYwlOUghXp",
    "data": {
        "boosts": {
            "0": {
                "value": [
                    "con",
                    "int"
                ]
            },
            "1": {
                "value": [
                    "cha",
                    "con",
                    "dex",
                    "int",
                    "str",
                    "wis"
                ]
            }
        },
        "description": {
            "chat": "",
            "unidentified": "",
            "value": "<p><strong>Prerequisite</strong>: Region - Golden Road</p>\n<hr />\n<p>Whether you're a fascinated outsider or a local proud of your nation's storied past, you're a devoted student of Osirion's history. You might be a traveling professor, a member of a society like the Pathfinders or the Esoteric Order of the Palatine Eye, or even a simple tomb robber cashing in on the glories of the past.</p>\n<p>Choose two ability boosts. One must be to <strong>Constitution</strong> or <strong>Intelligence</strong>, and one is a free ability boost.</p>\n<p>You're trained in the Occultism skill and the Ancient Osirion Lore skill. You gain the @Compendium[pf2e.feats-srd.Oddity Identification]{Oddity Identification} skill feat.</p>"
        },
        "items": {
            "mbaxt": {
                "id": "hDGosy2ZTwnyctEP",
                "img": "systems/pf2e/icons/features/feats/feats.webp",
                "level": "1",
                "name": "Oddity Identification",
                "pack": "pf2e.feats-srd"
            }
        },
        "rules": [],
        "source": {
            "value": ""
        },
        "trainedLore": "Ancient Osirion Lore",
        "trainedSkills": {
            "value": [
                "occ"
            ]
        },
        "traits": {
            "custom": "",
            "rarity": {
                "value": "common"
            },
            "value": []
        }
    },
    "effects": [],
    "flags": {},
    "folder": null,
    "img": "systems/pf2e/icons/default-icons/mystery-man.svg",
    "name": "Osirionologist",
    "permission": {
        "default": 0
    },
    "type": "background"
}
