{
    "_id": "b9EPEY09dYOVzdue",
    "data": {
        "boosts": {
            "0": {
                "value": [
                    "cha",
                    "wis"
                ]
            },
            "1": {
                "value": [
                    "cha",
                    "con",
                    "dex",
                    "int",
                    "str",
                    "wis"
                ]
            }
        },
        "description": {
            "chat": "",
            "unidentified": "",
            "value": "<p>Countless factions have fought for influence in Absalom for millennia, and for decades these groups worked through the Pathfinder Society to better control the City at the Center of the World. Perhaps you were ones of these agents who clashed with other operatives during the so-called Shadow War. Or you might have been an unintended victim of these clandestine clashes, inspiring you to join the Society and stop the conflict from within. Whatever the reason, navigating the Shadow War has left you politically savvy and informed.</p>\n<p>Choose two ability boosts. One must be to <strong>Wisdom</strong> or <strong>Charisma</strong>, and one is a free ability boost.</p>\n<p>You're trained in the Society skill and the Absalom Lore skill. You gain the @Compendium[pf2e.feats-srd.Streetwise]{Streetwise} skill feat.</p>\n<hr />\n<p><strong>Special</strong>: You can select this background only if you have earned credit for at least 5 First Edition scenarios from Season 1 of the Pathfinder Society organized play campaign.</p>"
        },
        "items": {
            "sziit": {
                "id": "X2jGFfLU5qI5XVot",
                "img": "systems/pf2e/icons/features/feats/feats.webp",
                "level": "1",
                "name": "Streetwise",
                "pack": "pf2e.feats-srd"
            }
        },
        "rules": [],
        "source": {
            "value": ""
        },
        "trainedLore": "Absalom Lore",
        "trainedSkills": {
            "value": [
                "soc"
            ]
        },
        "traits": {
            "custom": "",
            "rarity": {
                "value": "common"
            },
            "value": []
        }
    },
    "effects": [],
    "flags": {},
    "folder": null,
    "img": "systems/pf2e/icons/default-icons/mystery-man.svg",
    "name": "Shadow War Survivor",
    "permission": {
        "default": 0
    },
    "type": "background"
}
