{
    "_id": "LwAu4r3uocYfpKA8",
    "data": {
        "boosts": {
            "0": {
                "value": [
                    "con",
                    "wis"
                ]
            },
            "1": {
                "value": [
                    "cha",
                    "con",
                    "dex",
                    "int",
                    "str",
                    "wis"
                ]
            }
        },
        "description": {
            "chat": "",
            "unidentified": "",
            "value": "<p>Uncharted realms have always intrigued you, and you've explored and mapped large territories in service to merchants, governments, or your own curiosity. Where some see a blank spot on a map, you see the potential for something new and undiscovered.</p>\n<p>Choose two ability boosts. One must be to <strong>Constitution</strong> or <strong>Wisdom</strong>, and one is a free ability boost.</p>\n<p>You're trained in the Survival skill and the Cartography Lore skill. You gain the @Compendium[pf2e.feats-srd.Terrain Expertise]{Terrain Expertise} skill feat with one terrain you've explored (such as forest or underground).</p>"
        },
        "items": {
            "hszl0": {
                "id": "4tTkRyOQ0VuRBac3",
                "img": "systems/pf2e/icons/features/feats/feats.webp",
                "level": "1",
                "name": "Terrain Expertise",
                "pack": "pf2e.feats-srd"
            }
        },
        "rules": [],
        "source": {
            "value": ""
        },
        "trainedLore": "Cartography Lore",
        "trainedSkills": {
            "value": [
                "sur"
            ]
        },
        "traits": {
            "custom": "",
            "rarity": {
                "value": "common"
            },
            "value": []
        },
        "usage": {
            "value": "held-in-one-hand"
        }
    },
    "effects": [],
    "flags": {},
    "folder": null,
    "img": "systems/pf2e/icons/default-icons/mystery-man.svg",
    "name": "Trailblazer",
    "permission": {
        "default": 0
    },
    "type": "background"
}
