{
    "_id": "eQjibJl41aQpQ47d",
    "data": {
        "baseItem": null,
        "brokenThreshold": {
            "value": 0
        },
        "bulkCapacity": {
            "value": ""
        },
        "collapsed": {
            "value": false
        },
        "containerId": {
            "value": ""
        },
        "description": {
            "chat": "",
            "unidentified": "",
            "value": "<p>Weapons made from cold iron are deadly to demons and fey alike. Cold iron looks like normal iron but is mined from particularly pure sources and shaped with little or no heat. This process is extremely difficult, especially for high-grade cold iron items.</p>\n<h2>Cold Iron Items</h2>\n<table class=\"pf2-table\">\n<thead>\n<tr>\n<th>Cold Iron Items</th>\n<th><strong>Hardness</strong></th>\n<th>HP</th>\n<th>BT</th>\n</tr>\n</thead>\n<tbody>\n<tr>\n<td><strong>Thin Items</strong></td>\n<td> </td>\n<td> </td>\n<td> </td>\n</tr>\n<tr>\n<td>Low-grade</td>\n<td>5</td>\n<td>20</td>\n<td>10</td>\n</tr>\n<tr>\n<td>Standard-grade</td>\n<td>7</td>\n<td>28</td>\n<td>14</td>\n</tr>\n<tr>\n<td>High-grade</td>\n<td>10</td>\n<td>40</td>\n<td>20</td>\n</tr>\n<tr>\n<td><strong>Items</strong></td>\n<td> </td>\n<td> </td>\n<td> </td>\n</tr>\n<tr>\n<td>Low-grade</td>\n<td>9</td>\n<td>36</td>\n<td>18</td>\n</tr>\n<tr>\n<td>Standard-grade</td>\n<td>11</td>\n<td>44</td>\n<td>22</td>\n</tr>\n<tr>\n<td>High-grade</td>\n<td>14</td>\n<td>56</td>\n<td>28</td>\n</tr>\n<tr>\n<td><strong>Structure</strong></td>\n<td> </td>\n<td> </td>\n<td> </td>\n</tr>\n<tr>\n<td>Low-grade</td>\n<td>18</td>\n<td>72</td>\n<td>36</td>\n</tr>\n<tr>\n<td>Standard-grade</td>\n<td>22</td>\n<td>88</td>\n<td>44</td>\n</tr>\n<tr>\n<td>High-grade</td>\n<td>28</td>\n<td>112</td>\n<td>56</td>\n</tr>\n</tbody>\n</table>"
        },
        "equipped": {
            "value": false
        },
        "equippedBulk": {
            "value": ""
        },
        "hardness": {
            "value": 0
        },
        "hp": {
            "value": 0
        },
        "identification": {
            "misidentified": {},
            "status": "identified",
            "unidentified": {
                "data": {
                    "description": {
                        "value": ""
                    }
                },
                "img": "",
                "name": ""
            }
        },
        "invested": {
            "value": false
        },
        "level": {
            "value": 0
        },
        "maxHp": {
            "value": 0
        },
        "negateBulk": {
            "value": "0"
        },
        "preciousMaterial": {
            "value": ""
        },
        "preciousMaterialGrade": {
            "value": ""
        },
        "price": {
            "value": "100 gp"
        },
        "quantity": {
            "value": 1
        },
        "rules": [],
        "size": {
            "value": "med"
        },
        "source": {
            "value": ""
        },
        "stackGroup": {
            "value": ""
        },
        "traits": {
            "custom": "",
            "rarity": {
                "value": "common"
            },
            "usage": {
                "value": "held-in-one-hand"
            },
            "value": [
                "precious"
            ]
        },
        "usage": {
            "value": "held-in-one-hand"
        },
        "weight": {
            "value": "1"
        }
    },
    "effects": [],
    "flags": {},
    "folder": null,
    "img": "systems/pf2e/icons/equipment/materials/cold-iron-ingot.webp",
    "name": "Cold Iron Ingot",
    "permission": {
        "default": 0
    },
    "type": "equipment"
}
