{
    "_id": "lKMSAlp0ZoFUK4FV",
    "data": {
        "baseItem": null,
        "brokenThreshold": {
            "value": 0
        },
        "bulkCapacity": {
            "value": ""
        },
        "collapsed": {
            "value": false
        },
        "containerId": {
            "value": ""
        },
        "description": {
            "chat": "",
            "unidentified": "",
            "value": "<p><strong>Activate</strong> <span class=\"pf2-icon\">F</span> envision (fortune)</p>\n<p><strong>Trigger</strong> You attack a concealed or hidden creature and haven't attempted the flat check yet</p>\n<p><strong>Effect</strong> You can roll the flat check for the concealed or hidden condition twice and use the higher result.</p>\n<p>Adherents of @Compendium[pf2e.deities.Erastil]{Erastil}, god of the hunt, create these magical eye patches. An eye of fortune has a jeweled eye symbol on its front, allowing you to magically see through the eye patch as though it were transparent.<br /><br /></p>"
        },
        "equipped": {
            "value": false
        },
        "equippedBulk": {
            "value": ""
        },
        "hardness": {
            "value": 0
        },
        "hp": {
            "value": 0
        },
        "identification": {
            "misidentified": {},
            "status": "identified",
            "unidentified": {
                "data": {
                    "description": {
                        "value": ""
                    }
                },
                "img": "",
                "name": ""
            }
        },
        "invested": {
            "value": false
        },
        "level": {
            "value": 13
        },
        "maxHp": {
            "value": 0
        },
        "negateBulk": {
            "value": "0"
        },
        "preciousMaterial": {
            "value": ""
        },
        "preciousMaterialGrade": {
            "value": ""
        },
        "price": {
            "value": "2,700 gp"
        },
        "quantity": {
            "value": 1
        },
        "rules": [],
        "size": {
            "value": "med"
        },
        "source": {
            "value": ""
        },
        "stackGroup": {
            "value": ""
        },
        "traits": {
            "custom": "",
            "rarity": {
                "value": "common"
            },
            "value": [
                "divination",
                "invested",
                "magical"
            ]
        },
        "usage": {
            "value": "worneyepiece"
        },
        "weight": {
            "value": "-"
        }
    },
    "effects": [],
    "flags": {},
    "folder": null,
    "img": "systems/pf2e/icons/equipment/worn-items/other-worn-items/eye-of-fortune.webp",
    "name": "Eye of Fortune",
    "permission": {
        "default": 0
    },
    "type": "equipment"
}
