{
    "_id": "iUOcC9vFboSFI8fU",
    "data": {
        "activation": {
            "condition": "",
            "cost": 0,
            "type": ""
        },
        "autoDestroy": {
            "_deprecated": true,
            "value": true
        },
        "autoUse": {
            "_deprecated": true,
            "value": true
        },
        "baseItem": null,
        "brokenThreshold": {
            "value": 0
        },
        "bulkCapacity": {
            "value": ""
        },
        "charges": {
            "_deprecated": true,
            "max": 1,
            "value": 1
        },
        "collapsed": {
            "value": false
        },
        "consumableType": {
            "value": "potion"
        },
        "consume": {
            "_deprecated": true,
            "value": ""
        },
        "containerId": {
            "value": ""
        },
        "description": {
            "chat": "",
            "unidentified": "",
            "value": "<p>Typically used to fake one's death, this poison swiftly causes the imbiber to lose consciousness and suppresses vital signs. A creature examining the unconscious target must succeed at a Medicine check against the imbiber's Deception DC + 4 to determine that the target is alive, and a critical success allows the examiner to determine that a toxin is causing the effect. The false death toxin has an extremely bitter taste (Perception DC 10 to detect), making it difficult to trick a creature into consuming the poison against its wishes.</p>\n<hr />\n<p><strong>Activate</strong> <span class=\"pf2-icon\">A</span> Interact</p>\n<p><strong>Saving Throw</strong> DC 18 Fortitude</p>\n<p><strong>Onset</strong> 10 minutes</p>\n<p><strong>Maximum Duration</strong> 5 days</p>\n<p><strong>Stage 1</strong><strong>clumsy 2</strong> (1 round)</p>\n<p><strong>Stage 2</strong> unconscious (1 hour)</p>\n<p><strong>Stage 3</strong> unconscious (1 day)</p>"
        },
        "duration": {
            "units": "",
            "value": null
        },
        "equipped": {
            "value": false
        },
        "equippedBulk": {
            "value": ""
        },
        "hardness": {
            "value": 0
        },
        "hp": {
            "value": 0
        },
        "identification": {
            "misidentified": {},
            "status": "identified",
            "unidentified": {
                "data": {
                    "description": {
                        "value": ""
                    }
                },
                "img": "",
                "name": ""
            }
        },
        "invested": {
            "value": false
        },
        "level": {
            "value": 5
        },
        "maxHp": {
            "value": 0
        },
        "negateBulk": {
            "value": "0"
        },
        "preciousMaterial": {
            "value": ""
        },
        "preciousMaterialGrade": {
            "value": ""
        },
        "price": {
            "value": "25 gp"
        },
        "quantity": {
            "value": 1
        },
        "range": {
            "long": null,
            "units": "",
            "value": null
        },
        "rules": [],
        "size": {
            "value": "med"
        },
        "source": {
            "value": "Pathfinder #149: Against the Scarlet Triad"
        },
        "spell": {
            "data": null,
            "heightenedLevel": null
        },
        "stackGroup": {
            "value": ""
        },
        "target": {
            "type": "",
            "units": "",
            "value": null
        },
        "traits": {
            "custom": "",
            "rarity": {
                "value": "uncommon"
            },
            "usage": {
                "value": "held-in-one-hand"
            },
            "value": [
                "alchemical",
                "consumable",
                "ingested",
                "poison"
            ]
        },
        "usage": {
            "value": "held-in-one-hand"
        },
        "uses": {
            "autoDestroy": true,
            "autoUse": true,
            "max": 0,
            "per": null,
            "value": 0
        },
        "weight": {
            "value": "L"
        }
    },
    "effects": [],
    "flags": {},
    "folder": null,
    "img": "systems/pf2e/icons/equipment/alchemical-items/alchemical-poisons/false-death.webp",
    "name": "False Death",
    "permission": {
        "default": 0
    },
    "type": "consumable"
}
