{
    "_id": "mH3LImCgJAkfKAA3",
    "data": {
        "baseItem": null,
        "brokenThreshold": {
            "value": 0
        },
        "bulkCapacity": {
            "value": ""
        },
        "collapsed": {
            "value": false
        },
        "containerId": {
            "value": ""
        },
        "description": {
            "chat": "",
            "unidentified": "",
            "value": "<p><span>This bizarre machine is a complex arrangement of flasks, tubes, and other alchemical equipment. The <em>philosopher's extractor</em> is designed to create the ultimate alchemical concoctions. The extractor functions as an exceptional set of alchemist's tools, granting a +4 item bonus to Crafting checks related to alchemy. When using the extractor to Craft an alchemical item or with infused reagents as part of your daily preparations, you can create impeccable alchemical items. An impeccable alchemical item always uses the maximum numerical value possible for any rolls it requires, such as dealing maximum damage with alchemist's fire or restoring the maximum number of Hit Points with an elixir of life. If the impeccable item has a duration, it lasts twice as long as normal. Finally, an impeccable alchemical item never has a drawback.</span></p>\n<p><span><strong>Activate</strong> <span class=\"pf2-icon\">T</span> Interact; <strong>Frequency</strong> once per minute; <strong>Effect</strong> You use the extractor to produce an alchemical item of your level or lower whose formula you know. The extractor can create 56 levels' worth of items per day in this way. For example, the extractor could create two true elixirs of life (19th level) and two moderate elixirs of life (9th level), or eight comprehension elixirs (7th level), and so on.</span></p>\n<p><span><strong>Activate</strong> 1 hour (Interact); <strong>Effect</strong> You take a sizable portion of a creature (at least two-thirds of its original mass) and filter it through the mechanisms of the extractor. After the end of the process, the philosopher's extractor creates a transmogrifying mutagen that imparts the essence of the creature to the drinker. The extractor can make several transmogrifying mutagens simultaneously using the same activation if enough mass is provided at once, up to a maximum of 10 concurrent mutagens. Drinking a transmogrifying mutagen imparts you with one of the creature's unique abilities for 1 hour. This could grant one of several abilities such as a dragon's Breath Weapon, darkvision, flight, frightful presence, or immunity to sleep. The ability functions as it did for the original creature, except it uses your class DC or your spell DC (whichever is higher) instead of the creature's DC. The mutagen grants only abilities based on a creature's physiology and never grants magic-related abilities such as innate spells or spellcasting ability. The GM ultimately decides what ability a transmogrifying mutagen grants.<br /></span></p>\n<p><span>Unlike normal for mutagens and effects, you can drink multiple transmogrifying mutagens and gain benefits from each. When you drink transmogrifying mutagens made from different creatures, you receive abilities from each creature. When you drink multiple transmogrifying mutagens made from the same type of creature, such as multiple mutagens made from trolls, you gain an additional ability for each transmogrifying mutagen you drink, and the duration of the abilities from that creature type increases by 1 hour for each additional concoction you drink.<br /></span></p>\n<p><span>However, these additional benefits come with a risk; if you drink a transmogrifying mutagen while at least one other is active, after drinking it, you must succeed at a flat check with a DC equal to the total number of active transmogrifying mutagens you've consumed. On a failure, you fully transform into a member of the species of the latest transmogrifying mutagen you drank, and you almost always go berserk from your change. The transformation may leave some amount of your personality and memories intact, at the GM's discretion.<br /></span></p>\n<p><span><strong>Destruction</strong> Simultaneously feeding the philosopher's extractor sizable portions of an aeon, angel, archon, azata, daemon, demon, devil, protean, and psychopomp, each of at least 14th level, along with a philosopher's stone causes the device to jam, overheat, and explode. Creatures within 60 feet of the explosion must succeed at a DC 55 Reflex save or become covered in an alchemical slurry that transforms them into a horrifying amalgam of at least two of the creatures used to destroy the machine.</span></p>"
        },
        "equipped": {
            "value": false
        },
        "equippedBulk": {
            "value": ""
        },
        "hardness": {
            "value": 0
        },
        "hp": {
            "value": 0
        },
        "identification": {
            "misidentified": {},
            "status": "identified",
            "unidentified": {
                "data": {
                    "description": {
                        "value": ""
                    }
                },
                "img": "",
                "name": ""
            }
        },
        "invested": {
            "value": false
        },
        "level": {
            "value": 28
        },
        "maxHp": {
            "value": 0
        },
        "negateBulk": {
            "value": ""
        },
        "preciousMaterial": {
            "value": ""
        },
        "preciousMaterialGrade": {
            "value": ""
        },
        "price": {
            "value": "0 gp"
        },
        "quantity": {
            "value": 1
        },
        "rules": [],
        "size": {
            "value": "med"
        },
        "source": {
            "value": ""
        },
        "stackGroup": {
            "value": ""
        },
        "traits": {
            "custom": "",
            "rarity": {
                "value": "rare"
            },
            "usage": {
                "value": "held-in-two-hands"
            },
            "value": [
                "artifact",
                "evocation",
                "magical",
                "transmutation"
            ]
        },
        "usage": {
            "value": "held-in-one-hand"
        },
        "weight": {
            "value": "8"
        }
    },
    "effects": [],
    "flags": {},
    "folder": null,
    "img": "systems/pf2e/icons/equipment/artifacts/philosophers-extractor.webp",
    "name": "Philosopher's Extractor",
    "permission": {
        "default": 0
    },
    "type": "equipment"
}
