{
    "_id": "iPEuJ3rnGsrje66q",
    "data": {
        "attributes": {
            "ac": {
                "value": 20
            },
            "hardness": 8,
            "hasHealth": true,
            "hp": {
                "details": "",
                "max": 44,
                "temp": 0,
                "tempmax": 0,
                "value": 44
            },
            "stealth": {
                "details": "(trained)",
                "value": 12
            }
        },
        "creatureType": "",
        "details": {
            "description": "Compartments in the ceiling are rigged to drop a freezing alchemical liquid into the entire room if the door is opened without using the key.",
            "disable": "Thievery DC 20 (trained) on the door allows it to be opened without springing the trap.",
            "isComplex": false,
            "level": 4,
            "reset": "",
            "routine": ""
        },
        "recallKnowledgeText": "",
        "saves": {
            "fortitude": {
                "rank": 0,
                "saveDetail": "",
                "value": 11
            },
            "reflex": {
                "rank": 0,
                "saveDetail": "",
                "value": 7
            },
            "will": {
                "rank": 0,
                "saveDetail": "",
                "value": 0
            }
        },
        "schema": {
            "version": {
                "value": ""
            }
        },
        "source": {
            "value": "Pathfinder Adventure: The Fall of Plaguestone"
        },
        "statusEffects": [],
        "traits": {
            "ci": [],
            "di": {
                "custom": "",
                "selected": {},
                "value": [
                    "critical-hits",
                    "object-immunities",
                    "precision"
                ]
            },
            "dr": [],
            "dv": [],
            "rarity": {
                "value": "common"
            },
            "size": {
                "value": "med"
            },
            "traits": {
                "custom": "",
                "value": [
                    "mechanical"
                ]
            }
        }
    },
    "effects": [],
    "flags": {},
    "folder": null,
    "img": "systems/pf2e/icons/default-icons/hazard.svg",
    "items": [
        {
            "_id": "ctDUZ8gUdfvuUQoM",
            "data": {
                "actionCategory": {
                    "value": ""
                },
                "actionType": {
                    "value": "reaction"
                },
                "actions": {
                    "value": ""
                },
                "description": {
                    "chat": "",
                    "unidentified": "",
                    "value": "<p><strong>Trigger</strong> The door is attacked or opened without using the key.</p>\n<p><strong>Effect</strong> A freezing alchemical slurry is dumped into the room, dealing [[/r 4d6 #cold]] damage to everyone in the area (<span data-pf2-saving-throw=\"reflex\" data-pf2-dc=\"20\" data-pf2-traits=\"damaging-effect\" data-pf2-label=\"Ice Fall DC\" data-pf2-show-dc=\"gm\">basic Reflex</span> save).</p>"
                },
                "requirements": {
                    "value": ""
                },
                "rules": [],
                "slug": null,
                "source": {
                    "value": ""
                },
                "traits": {
                    "custom": "",
                    "rarity": {
                        "value": "common"
                    },
                    "value": []
                },
                "trigger": {
                    "value": ""
                },
                "usage": {
                    "value": "held-in-one-hand"
                },
                "weapon": {
                    "value": ""
                }
            },
            "effects": [],
            "flags": {},
            "folder": null,
            "img": "systems/pf2e/icons/actions/Reaction.webp",
            "name": "Ice Fall",
            "permission": {
                "default": 0
            },
            "sort": 100000,
            "type": "action"
        }
    ],
    "name": "Ice Fall Trap",
    "permission": {
        "default": 0
    },
    "token": {
        "actorId": "iPEuJ3rnGsrje66q",
        "actorLink": false,
        "alpha": 1,
        "bar1": {
            "attribute": null
        },
        "bar2": {
            "attribute": null
        },
        "brightLight": 0,
        "brightSight": 0,
        "dimLight": 0,
        "dimSight": 0,
        "displayBars": 20,
        "displayName": 20,
        "disposition": 0,
        "flags": {},
        "height": 1,
        "img": "systems/pf2e/icons/default-icons/hazard.svg",
        "lightAlpha": 1,
        "lightAngle": 0,
        "lightAnimation": {
            "intensity": 5,
            "speed": 5
        },
        "lockRotation": false,
        "mirrorX": false,
        "mirrorY": false,
        "name": "Ice Fall Trap",
        "randomImg": false,
        "rotation": 0,
        "scale": 1,
        "sightAngle": 0,
        "tint": null,
        "vision": false,
        "width": 1
    },
    "type": "hazard"
}
