{
    "_id": "o4EYJEBi2YwYzGov",
    "data": {
        "actionCategory": {
            "value": ""
        },
        "actionType": {
            "value": "passive"
        },
        "actions": {
            "value": ""
        },
        "description": {
            "value": "<p>The divine warden selects two of its patron deity’s domains. The divine warden can cast the basic domain spell for its chosen domains. The divine warden has a focus pool of 1 Focus Point. It can’t Refocus, but its focus pool automatically refills 24 hours after it last used a Focus Point. If the divine warden is at least 10th level, it also gains the advanced domain spells for its chosen domains, and its focus pool increases to 2 Focus Points.</p>"
        },
        "requirements": {
            "value": ""
        },
        "rules": [],
        "source": {
            "value": ""
        },
        "traits": {
            "custom": "",
            "rarity": {
                "value": "common"
            },
            "value": []
        },
        "trigger": {
            "value": ""
        },
        "weapon": {
            "value": ""
        }
    },
    "effects": [],
    "flags": {},
    "folder": null,
    "img": "systems/pf2e/icons/default-icons/mystery-man.svg",
    "name": "Divine Domain Spells (Divine Warden)",
    "permission": {
        "default": 0
    },
    "type": "action"
}
