{
    "_id": "z3zWW4jLADAei1uo",
    "data": {
        "attributes": {
            "ac": {
                "value": 28
            },
            "hardness": 0,
            "hasHealth": true,
            "hp": {
                "details": "",
                "max": 100,
                "temp": 0,
                "tempmax": 0,
                "value": 100
            },
            "stealth": {
                "details": "(expert)",
                "value": 21
            }
        },
        "creatureType": "",
        "details": {
            "description": "This dangerous sooty black mold readily releases its toxic spores when disturbed. The entire swath of fungus in area B2 is a single organism. There are nine 10-foot-square patches to remove, but the whole organism dies once it takes enough damage.",
            "disable": "Survival DC 27 (expert) to remove a 10-foot-square patch of ash web without triggering the spores.",
            "isComplex": false,
            "level": 10,
            "reset": "",
            "routine": ""
        },
        "recallKnowledgeText": "",
        "saves": {
            "fortitude": {
                "rank": 0,
                "saveDetail": "",
                "value": 22
            },
            "reflex": {
                "rank": 0,
                "saveDetail": "",
                "value": 14
            },
            "will": {
                "rank": 0,
                "saveDetail": "",
                "value": null
            }
        },
        "schema": {
            "version": {
                "value": ""
            }
        },
        "source": {
            "value": ""
        },
        "statusEffects": [],
        "traits": {
            "ci": [],
            "di": {
                "custom": "",
                "selected": {},
                "value": [
                    "acid",
                    "critical-hits",
                    "electricity",
                    "fire",
                    "object-immunities",
                    "precision"
                ]
            },
            "dr": [],
            "dv": [],
            "rarity": {
                "value": "common"
            },
            "size": {
                "value": "med"
            },
            "traits": {
                "custom": "Fungus",
                "value": [
                    "environmental",
                    "custom"
                ]
            }
        }
    },
    "effects": [],
    "flags": {},
    "folder": null,
    "img": "systems/pf2e/icons/default-icons/hazard.svg",
    "items": [
        {
            "_id": "eV1zBAr9CgzQ2C5X",
            "data": {
                "actionCategory": {
                    "value": ""
                },
                "actionType": {
                    "value": "reaction"
                },
                "actions": {
                    "value": ""
                },
                "description": {
                    "chat": "",
                    "unidentified": "",
                    "value": "<p><strong>Trigger</strong>: A creature moves into the ash web's space or damages the web with any type of damage other than cold damage.</p>\n<p><strong>Requirements</strong>: The ash web is not in direct sunlight.</p>\n<p><strong>Effect</strong>: The triggering creature and all creatures within 10 feet of that creature are exposed to ash web spores.</p>"
                },
                "requirements": {
                    "value": ""
                },
                "rules": [],
                "slug": null,
                "source": {
                    "value": ""
                },
                "traits": {
                    "custom": "",
                    "rarity": {
                        "value": "common"
                    },
                    "selected": {},
                    "value": []
                },
                "trigger": {
                    "value": ""
                },
                "usage": {
                    "value": "held-in-one-hand"
                },
                "weapon": {
                    "value": ""
                }
            },
            "effects": [],
            "flags": {},
            "folder": null,
            "img": "systems/pf2e/icons/actions/Reaction.webp",
            "name": "Spore Explosion",
            "permission": {
                "default": 0
            },
            "sort": 100000,
            "type": "action"
        },
        {
            "_id": "0tHs3BRTN0UIM4j7",
            "data": {
                "actionCategory": {
                    "value": ""
                },
                "actionType": {
                    "value": "passive"
                },
                "actions": {
                    "value": ""
                },
                "description": {
                    "chat": "",
                    "unidentified": "",
                    "value": "<p>The @Compendium[pf2e.conditionitems.Enfeebled]{Enfeebled} condition from ash web remains even after the poison's duration ends. The condition's value reduces by 1 per hour. Gugs are immune to this poison; instead, they have vivid and strange dreams when they sleep after ingesting ash web.</p>\n<p>Saving Throw <span data-pf2-saving-throw=\"fortitude\" data-pf2-dc=\"29\" data-pf2-traits=\"poison,inhaled\" data-pf2-label=\"Ash Web Spores DC\" data-pf2-show-dc=\"gm\">Fortitude</span></p>\n<p><strong>Maximum Duration</strong>: 6 rounds;</p>\n<p><strong>Stage 1</strong>: [[/r 2d6 #poison]] poison damage and @Compendium[pf2e.conditionitems.Enfeebled]{Enfeebled} 1 (1 round);</p>\n<p><strong>Stage 2</strong>: [[/r 4d6 #posion]] poison damage and @Compendium[pf2e.conditionitems.Enfeebled]{Enfeebled} 2 (1 round);</p>\n<p><strong>Stage 3</strong>: [[/r 6d6 #posion]] poison and @Compendium[pf2e.conditionitems.Enfeebled]{Enfeebled} 3 (1 round).</p>"
                },
                "requirements": {
                    "value": ""
                },
                "rules": [],
                "slug": null,
                "source": {
                    "value": ""
                },
                "traits": {
                    "custom": "",
                    "rarity": {
                        "value": "common"
                    },
                    "selected": {
                        "inhaled": "Inhaled",
                        "poison": "Poison"
                    },
                    "value": [
                        "poison",
                        "inhaled"
                    ]
                },
                "trigger": {
                    "value": ""
                },
                "usage": {
                    "value": "held-in-one-hand"
                },
                "weapon": {
                    "value": ""
                }
            },
            "effects": [],
            "flags": {},
            "folder": null,
            "img": "systems/pf2e/icons/default-icons/action.svg",
            "name": "Ash Web Spores",
            "permission": {
                "default": 0
            },
            "sort": 200000,
            "type": "action"
        }
    ],
    "name": "Ash Web",
    "permission": {
        "default": 0
    },
    "token": {
        "actorId": "z3zWW4jLADAei1uo",
        "actorLink": false,
        "alpha": 1,
        "bar1": {
            "attribute": null
        },
        "bar2": {
            "attribute": null
        },
        "brightLight": 0,
        "brightSight": 0,
        "dimLight": 0,
        "dimSight": 0,
        "displayBars": 20,
        "displayName": 20,
        "disposition": 0,
        "flags": {},
        "height": 1,
        "img": "systems/pf2e/icons/default-icons/hazard.svg",
        "lightAlpha": 1,
        "lightAngle": 0,
        "lightAnimation": {
            "intensity": 5,
            "speed": 5
        },
        "lockRotation": false,
        "mirrorX": false,
        "mirrorY": false,
        "name": "Ash Web",
        "randomImg": false,
        "rotation": 0,
        "scale": 1,
        "sightAngle": 0,
        "tint": null,
        "vision": false,
        "width": 1
    },
    "type": "hazard"
}
