{
    "_id": "zNIjGSxkG8xyDLgR",
    "data": {
        "attributes": {
            "ac": {
                "value": 24
            },
            "hardness": 14,
            "hasHealth": true,
            "hp": {
                "details": "",
                "max": 56,
                "temp": 0,
                "tempmax": 0,
                "value": 56
            },
            "stealth": {
                "details": "+0 or Detect Magic",
                "value": 0
            }
        },
        "creatureType": "",
        "customModifiers": {},
        "details": {
            "description": "A 10-foot-tall wooden pole topped by a wooden carving of Dahak's head. Each dragon pillar's head has been treated with something to give it a distinct color, as indicated in the specific encounter, but regardless of color, plumes of smoke waft up from the mouth.",
            "disable": "Athletics DC 26 (expert) to push the pillar over, or Thievery DC 26 (expert) on the pillar to erase the magic runes that power it, or dispel magic (4th level; counteract DC 22) to dispel the pillar's magic.",
            "isComplex": false,
            "level": 6,
            "reset": "The dragon pillar deactivates and resets as soon as it perceives no appropriate targets in range.",
            "routine": "(1 action) On its initiative, the dragon pillar fires an eye beam at the closest target within 120 feet."
        },
        "recallKnowledgeText": "",
        "saves": {
            "fortitude": {
                "rank": 0,
                "saveDetail": "",
                "value": 17
            },
            "reflex": {
                "rank": 0,
                "saveDetail": "",
                "value": 8
            },
            "will": {
                "rank": 0,
                "saveDetail": "",
                "value": null
            }
        },
        "schema": {
            "version": {
                "value": ""
            }
        },
        "source": {
            "value": ""
        },
        "statusEffects": [],
        "traits": {
            "ci": [],
            "di": {
                "custom": "",
                "selected": {},
                "value": [
                    "critical-hits",
                    "fire",
                    "object-immunities",
                    "precision"
                ]
            },
            "dr": [],
            "dv": [],
            "rarity": {
                "value": "common"
            },
            "size": {
                "value": "med"
            },
            "traits": {
                "custom": "Rare",
                "value": [
                    "magical",
                    "custom"
                ]
            }
        }
    },
    "effects": [],
    "flags": {},
    "folder": null,
    "img": "systems/pf2e/icons/default-icons/hazard.svg",
    "items": [
        {
            "_id": "HSs8knjTJuMzsAQr",
            "data": {
                "actionCategory": {
                    "value": ""
                },
                "actionType": {
                    "value": "passive"
                },
                "actions": {
                    "value": ""
                },
                "description": {
                    "chat": "",
                    "unidentified": "",
                    "value": "<p>A dragon pillar can see through its empty eye sockets, and it can recognize Cinderclaws and their allies. A character disguised as a Cinderclaw can trick a dragon pillar into perceiving it as a Cinderclaw ally by using Deception to @Compendium[pf2e.actionspf2e.Impersonate]{Impersonate}. A dragon pillar always uses Perception for initiative.</p>"
                },
                "requirements": {
                    "value": ""
                },
                "rules": [],
                "slug": null,
                "source": {
                    "value": ""
                },
                "traits": {
                    "custom": "",
                    "rarity": {
                        "value": "common"
                    },
                    "selected": {},
                    "value": []
                },
                "trigger": {
                    "value": ""
                },
                "usage": {
                    "value": "held-in-one-hand"
                },
                "weapon": {
                    "value": ""
                }
            },
            "effects": [],
            "flags": {},
            "folder": null,
            "img": "systems/pf2e/icons/default-icons/action.svg",
            "name": "Recognize Ally",
            "permission": {
                "default": 0
            },
            "sort": 100000,
            "type": "action"
        },
        {
            "_id": "jZsVGuNQlvV5TkQ9",
            "data": {
                "actionCategory": {
                    "value": ""
                },
                "actionType": {
                    "value": "passive"
                },
                "actions": {
                    "value": ""
                },
                "description": {
                    "chat": "",
                    "unidentified": "",
                    "value": "<p>+16 Perception, Darkvision (60 feet)</p>"
                },
                "requirements": {
                    "value": ""
                },
                "rules": [],
                "slug": null,
                "source": {
                    "value": ""
                },
                "traits": {
                    "custom": "",
                    "rarity": {
                        "value": "common"
                    },
                    "selected": {},
                    "value": []
                },
                "trigger": {
                    "value": ""
                },
                "usage": {
                    "value": "held-in-one-hand"
                },
                "weapon": {
                    "value": ""
                }
            },
            "effects": [],
            "flags": {},
            "folder": null,
            "img": "systems/pf2e/icons/default-icons/action.svg",
            "name": "Perception and Vision",
            "permission": {
                "default": 0
            },
            "sort": 200000,
            "type": "action"
        },
        {
            "_id": "i7B8yhwnUu48ZFdz",
            "data": {
                "actionCategory": {
                    "value": ""
                },
                "actionType": {
                    "value": "reaction"
                },
                "actions": {
                    "value": ""
                },
                "description": {
                    "chat": "",
                    "unidentified": "",
                    "value": "<p><strong>Trigger</strong>: The dragon pillar sees a creature within 120 feet who isn't a recognized Cinderclaw or Cinderclaw ally.</p>\n<p><strong>Effect</strong>: The dragon pillar makes an eye beam @Compendium[pf2e.actionspf2e.Strike]{Strike} against the triggering creature, then rolls initiative.</p>"
                },
                "requirements": {
                    "value": ""
                },
                "rules": [],
                "slug": null,
                "source": {
                    "value": ""
                },
                "traits": {
                    "custom": "",
                    "rarity": {
                        "value": "common"
                    },
                    "selected": {},
                    "value": []
                },
                "trigger": {
                    "value": ""
                },
                "usage": {
                    "value": "held-in-one-hand"
                },
                "weapon": {
                    "value": ""
                }
            },
            "effects": [],
            "flags": {},
            "folder": null,
            "img": "systems/pf2e/icons/actions/Reaction.webp",
            "name": "Dragon Pillar Glance",
            "permission": {
                "default": 0
            },
            "sort": 1200000,
            "type": "action"
        },
        {
            "_id": "HPLwJZH8RwLW9c13",
            "data": {
                "actionCategory": {
                    "value": ""
                },
                "actionType": {
                    "value": "passive"
                },
                "actions": {
                    "value": ""
                },
                "description": {
                    "chat": "",
                    "unidentified": "",
                    "value": "<p><span data-pf2-saving-throw=\"fortitude\" data-pf2-dc=\"24\" data-pf2-traits=\"divine,evocation,incapacitation,custom\" data-pf2-label=\"Black Eye Beam DC\" data-pf2-show-dc=\"gm\">Fortitude</span> save.</p>\n<hr />\n<p><strong>Critical Success</strong> The target is unaffected.</p>\n<p><strong>Success</strong> The target is @Compendium[pf2e.conditionitems.Blinded]{Blinded} for 1 round.</p>\n<p><strong>Failure</strong> The target is @Compendium[pf2e.conditionitems.Blinded]{Blinded} for 1 hour.</p>\n<p><strong>Critical Failure</strong> The target is @Compendium[pf2e.conditionitems.Blinded]{Blinded} for 24 hours.</p>"
                },
                "requirements": {
                    "value": ""
                },
                "rules": [],
                "slug": null,
                "source": {
                    "value": ""
                },
                "traits": {
                    "custom": "Range 120 feet",
                    "rarity": {
                        "value": "common"
                    },
                    "selected": {
                        "custom": "Range 120 feet",
                        "divine": "Divine",
                        "evocation": "Evocation",
                        "incapacitation": "Incapacitation"
                    },
                    "value": [
                        "divine",
                        "evocation",
                        "incapacitation",
                        "custom"
                    ]
                },
                "trigger": {
                    "value": ""
                },
                "usage": {
                    "value": "held-in-one-hand"
                },
                "weapon": {
                    "value": ""
                }
            },
            "effects": [],
            "flags": {},
            "folder": null,
            "img": "systems/pf2e/icons/default-icons/action.svg",
            "name": "Black Eye Beam",
            "permission": {
                "default": 0
            },
            "sort": 1300000,
            "type": "action"
        },
        {
            "_id": "uapfpdQSjUz13nBn",
            "data": {
                "attack": {
                    "value": ""
                },
                "attackEffects": {
                    "custom": "",
                    "value": [
                        "Black Eye Beam",
                        "Blue Eye Beam",
                        "Green Eye Beam",
                        "Indigo Eye Beam",
                        "Orange Eye Beam",
                        "Red Eye Beam",
                        "Violet Eye Beam",
                        "Yellow Eye Beam"
                    ]
                },
                "bonus": {
                    "value": 20
                },
                "damageRolls": {},
                "description": {
                    "chat": "",
                    "unidentified": "",
                    "value": "<p><strong>Range</strong>: 120 feet.</p>\n<p><strong>Effect</strong>: The target is subjected to an effect determined by the pillar's color and summarized in the passive actions. On a critical hit, the target's save result is one degree worse.</p>"
                },
                "rules": [],
                "slug": null,
                "source": {
                    "value": ""
                },
                "traits": {
                    "custom": "Divine, Range 120 feet",
                    "rarity": {
                        "value": "common"
                    },
                    "selected": {
                        "custom": "Divine, Range 120 feet",
                        "evocation": "Evocation"
                    },
                    "value": [
                        "evocation",
                        "custom"
                    ]
                },
                "weaponType": {
                    "value": "ranged"
                }
            },
            "effects": [],
            "flags": {},
            "folder": null,
            "img": "systems/pf2e/icons/default-icons/melee.svg",
            "name": "Eye Beam",
            "permission": {
                "default": 0
            },
            "sort": 1400000,
            "type": "melee"
        },
        {
            "_id": "Od7nphkGvQM8Iv5L",
            "data": {
                "actionCategory": {
                    "value": ""
                },
                "actionType": {
                    "value": "passive"
                },
                "actions": {
                    "value": ""
                },
                "description": {
                    "chat": "",
                    "unidentified": "",
                    "value": "<p><span data-pf2-saving-throw=\"fortitude\" data-pf2-dc=\"24\" data-pf2-traits=\"divine,evocation,incapacitation,custom\" data-pf2-label=\"Blue Eye Beam DC\" data-pf2-show-dc=\"gm\">Fortitude</span> save.</p>\n<hr />\n<p><strong>Critical Success</strong>: The target is unaffected.</p>\n<p><strong>Success</strong>: The target is @Compendium[pf2e.conditionitems.Petrified]{Petrified} for 1 round.</p>\n<p><strong>Failure</strong>: The target is @Compendium[pf2e.conditionitems.Petrified]{Petrified} for 1 hour.</p>\n<p><strong>Critical Failure</strong>: The target is @Compendium[pf2e.conditionitems.Petrified]{Petrified} permanently.</p>"
                },
                "requirements": {
                    "value": ""
                },
                "rules": [],
                "slug": null,
                "source": {
                    "value": ""
                },
                "traits": {
                    "custom": "Range 120 feet",
                    "rarity": {
                        "value": "common"
                    },
                    "selected": {
                        "custom": "Range 120 feet",
                        "divine": "Divine",
                        "evocation": "Evocation",
                        "incapacitation": "Incapacitation"
                    },
                    "value": [
                        "divine",
                        "evocation",
                        "incapacitation",
                        "custom"
                    ]
                },
                "trigger": {
                    "value": ""
                },
                "usage": {
                    "value": "held-in-one-hand"
                },
                "weapon": {
                    "value": ""
                }
            },
            "effects": [],
            "flags": {},
            "folder": null,
            "img": "systems/pf2e/icons/default-icons/action.svg",
            "name": "Blue Eye Beam",
            "permission": {
                "default": 0
            },
            "sort": 1500000,
            "type": "action"
        },
        {
            "_id": "SHZi101TqFOYWlIL",
            "data": {
                "actionCategory": {
                    "value": ""
                },
                "actionType": {
                    "value": "passive"
                },
                "actions": {
                    "value": ""
                },
                "description": {
                    "chat": "",
                    "unidentified": "",
                    "value": "<p>[[/r 6d6 #poison]] poison damage.</p>\n<p><span data-pf2-saving-throw=\"reflex\" data-pf2-dc=\"24\" data-pf2-traits=\"divine,evocation,poison,custom,damaging-effect\" data-pf2-label=\"Green Eye Beam DC\" data-pf2-show-dc=\"gm\">basic Reflex</span> save.</p>"
                },
                "requirements": {
                    "value": ""
                },
                "rules": [],
                "slug": null,
                "source": {
                    "value": ""
                },
                "traits": {
                    "custom": "Range 120 feet",
                    "rarity": {
                        "value": "common"
                    },
                    "selected": {
                        "custom": "Range 120 feet",
                        "divine": "Divine",
                        "evocation": "Evocation",
                        "poison": "Poison"
                    },
                    "value": [
                        "divine",
                        "evocation",
                        "poison",
                        "custom"
                    ]
                },
                "trigger": {
                    "value": ""
                },
                "usage": {
                    "value": "held-in-one-hand"
                },
                "weapon": {
                    "value": ""
                }
            },
            "effects": [],
            "flags": {},
            "folder": null,
            "img": "systems/pf2e/icons/default-icons/action.svg",
            "name": "Green Eye Beam",
            "permission": {
                "default": 0
            },
            "sort": 1600000,
            "type": "action"
        },
        {
            "_id": "jI9GCbJaB0b3F4Kw",
            "data": {
                "actionCategory": {
                    "value": ""
                },
                "actionType": {
                    "value": "passive"
                },
                "actions": {
                    "value": ""
                },
                "description": {
                    "chat": "",
                    "unidentified": "",
                    "value": "<p><span data-pf2-saving-throw=\"will\" data-pf2-dc=\"24\" data-pf2-traits=\"divination,evocation,incapacitation,custom\" data-pf2-label=\"Indigo Eye Beam DC\" data-pf2-show-dc=\"gm\">Will</span> save.</p>\n<hr />\n<p><strong>Critical Success</strong>: The target is unaffected.</p>\n<p><strong>Success</strong>: The target is @Compendium[pf2e.conditionitems.Slowed]{Slowed} 1 for 1 round.</p>\n<p><strong>Failure</strong>: The target is @Compendium[pf2e.conditionitems.Confused]{Confused} for 1 round.</p>\n<p><strong>Critical Failure</strong>: The target is @Compendium[pf2e.conditionitems.Controlled]{Controlled} by the dragon pillar and remains within 60 feet of it at all times, defending the dragon pillar from all non-Cinderclaws. While a target is @Compendium[pf2e.conditionitems.Controlled]{Controlled}, it is treated as a Cinderclaw ally by the dragon pillar. The dragon pillar can control up to 3 targets at a time; any targets in excess who critically fail this saving throw are instead @Compendium[pf2e.conditionitems.Confused]{Confused} for [[/r1d4+1]] rounds. A @Compendium[pf2e.conditionitems.Controlled]{Controlled} creature can attempt a new Will save once every 24 hours to escape control, but doing so automatically causes the dragon pillar to attack it with a new eye beam to attempt to re-establish control. The control ends if the pillar is destroyed.</p>"
                },
                "requirements": {
                    "value": ""
                },
                "rules": [],
                "slug": null,
                "source": {
                    "value": ""
                },
                "traits": {
                    "custom": "Range 120 feet",
                    "rarity": {
                        "value": "common"
                    },
                    "selected": {
                        "custom": "Range 120 feet",
                        "divination": "Divination",
                        "evocation": "Evocation",
                        "incapacitation": "Incapacitation"
                    },
                    "value": [
                        "divination",
                        "evocation",
                        "incapacitation",
                        "custom"
                    ]
                },
                "trigger": {
                    "value": ""
                },
                "usage": {
                    "value": "held-in-one-hand"
                },
                "weapon": {
                    "value": ""
                }
            },
            "effects": [],
            "flags": {},
            "folder": null,
            "img": "systems/pf2e/icons/default-icons/action.svg",
            "name": "Indigo Eye Beam",
            "permission": {
                "default": 0
            },
            "sort": 1700000,
            "type": "action"
        },
        {
            "_id": "Ari4IpvWQTIYV64K",
            "data": {
                "actionCategory": {
                    "value": ""
                },
                "actionType": {
                    "value": "passive"
                },
                "actions": {
                    "value": ""
                },
                "description": {
                    "chat": "",
                    "unidentified": "",
                    "value": "<p>[[/r 6d6 #electricity]] electricity damage.</p>\n<p><span data-pf2-saving-throw=\"reflex\" data-pf2-dc=\"24\" data-pf2-traits=\"divine,electricity,evocation,custom,damaging-effect\" data-pf2-label=\"Yellow Eye Beam DC\" data-pf2-show-dc=\"gm\">basic Reflex</span> save.</p>"
                },
                "requirements": {
                    "value": ""
                },
                "rules": [],
                "slug": null,
                "source": {
                    "value": ""
                },
                "traits": {
                    "custom": "Range 120 feet",
                    "rarity": {
                        "value": "common"
                    },
                    "selected": {
                        "custom": "Range 120 feet",
                        "divine": "Divine",
                        "electricity": "Electricity",
                        "evocation": "Evocation"
                    },
                    "value": [
                        "divine",
                        "electricity",
                        "evocation",
                        "custom"
                    ]
                },
                "trigger": {
                    "value": ""
                },
                "usage": {
                    "value": "held-in-one-hand"
                },
                "weapon": {
                    "value": ""
                }
            },
            "effects": [],
            "flags": {},
            "folder": null,
            "img": "systems/pf2e/icons/default-icons/action.svg",
            "name": "Yellow Eye Beam",
            "permission": {
                "default": 0
            },
            "sort": 1800000,
            "type": "action"
        },
        {
            "_id": "sXWZxvJlU7LZrpHC",
            "data": {
                "actionCategory": {
                    "value": ""
                },
                "actionType": {
                    "value": "passive"
                },
                "actions": {
                    "value": ""
                },
                "description": {
                    "chat": "",
                    "unidentified": "",
                    "value": "<p>[[/r 6d6 #acid]] acid damage.</p>\n<p><span data-pf2-saving-throw=\"reflex\" data-pf2-dc=\"24\" data-pf2-traits=\"acid,divine,evocation,custom,damaging-effect\" data-pf2-label=\"Orange Eye Beam DC\" data-pf2-show-dc=\"gm\">basic Reflex</span> save.</p>"
                },
                "requirements": {
                    "value": ""
                },
                "rules": [],
                "slug": null,
                "source": {
                    "value": ""
                },
                "traits": {
                    "custom": "range 120 feet",
                    "rarity": {
                        "value": "common"
                    },
                    "selected": {
                        "acid": "Acid",
                        "custom": "range 120 feet",
                        "divine": "Divine",
                        "evocation": "Evocation"
                    },
                    "value": [
                        "acid",
                        "divine",
                        "evocation",
                        "custom"
                    ]
                },
                "trigger": {
                    "value": ""
                },
                "usage": {
                    "value": "held-in-one-hand"
                },
                "weapon": {
                    "value": ""
                }
            },
            "effects": [],
            "flags": {},
            "folder": null,
            "img": "systems/pf2e/icons/default-icons/action.svg",
            "name": "Orange Eye Beam",
            "permission": {
                "default": 0
            },
            "sort": 1900000,
            "type": "action"
        },
        {
            "_id": "jNcUglLORusRcA4f",
            "data": {
                "actionCategory": {
                    "value": ""
                },
                "actionType": {
                    "value": "passive"
                },
                "actions": {
                    "value": ""
                },
                "description": {
                    "chat": "",
                    "unidentified": "",
                    "value": "<p>[[/r 6d6 #fire]] fire damage.</p>\n<p><span data-pf2-saving-throw=\"reflex\" data-pf2-dc=\"24\" data-pf2-traits=\"divine,evocation,fire,custom,damaging-effect\" data-pf2-label=\"Red Eye Beam DC\" data-pf2-show-dc=\"gm\">basic Reflex</span> save.</p>"
                },
                "requirements": {
                    "value": ""
                },
                "rules": [],
                "slug": null,
                "source": {
                    "value": ""
                },
                "traits": {
                    "custom": "range 120 feet",
                    "rarity": {
                        "value": "common"
                    },
                    "selected": {
                        "custom": "range 120 feet",
                        "divine": "Divine",
                        "evocation": "Evocation",
                        "fire": "Fire"
                    },
                    "value": [
                        "divine",
                        "evocation",
                        "fire",
                        "custom"
                    ]
                },
                "trigger": {
                    "value": ""
                },
                "usage": {
                    "value": "held-in-one-hand"
                },
                "weapon": {
                    "value": ""
                }
            },
            "effects": [],
            "flags": {},
            "folder": null,
            "img": "systems/pf2e/icons/default-icons/action.svg",
            "name": "Red Eye Beam",
            "permission": {
                "default": 0
            },
            "sort": 2000000,
            "type": "action"
        },
        {
            "_id": "w5Yk889pfRGklcLm",
            "data": {
                "actionCategory": {
                    "value": ""
                },
                "actionType": {
                    "value": "passive"
                },
                "actions": {
                    "value": ""
                },
                "description": {
                    "chat": "",
                    "unidentified": "",
                    "value": "<p><span data-pf2-saving-throw=\"will\" data-pf2-dc=\"24\" data-pf2-traits=\"divine,evocation,incapacitation,custom\" data-pf2-label=\"Violet Eye Beam DC\" data-pf2-show-dc=\"gm\">Will</span> save.</p>\n<hr />\n<p><strong>Critical Success:</strong> The target is unaffected.</p>\n<p><strong>Success</strong>: The target is @Compendium[pf2e.conditionitems.Stunned]{Stunned} 1.</p>\n<p><strong>Failure</strong>: The target is @Compendium[pf2e.conditionitems.Stunned]{Stunned} 3.</p>\n<p><strong>Critical Failure</strong>: The target is @Compendium[pf2e.conditionitems.Stunned]{Stunned} 7.</p>"
                },
                "requirements": {
                    "value": ""
                },
                "rules": [],
                "slug": null,
                "source": {
                    "value": ""
                },
                "traits": {
                    "custom": "range 120 feet",
                    "rarity": {
                        "value": "common"
                    },
                    "selected": {
                        "custom": "range 120 feet",
                        "divine": "Divine",
                        "evocation": "Evocation",
                        "incapacitation": "Incapacitation"
                    },
                    "value": [
                        "divine",
                        "evocation",
                        "incapacitation",
                        "custom"
                    ]
                },
                "trigger": {
                    "value": ""
                },
                "usage": {
                    "value": "held-in-one-hand"
                },
                "weapon": {
                    "value": ""
                }
            },
            "effects": [],
            "flags": {},
            "folder": null,
            "img": "systems/pf2e/icons/default-icons/action.svg",
            "name": "Violet Eye Beam",
            "permission": {
                "default": 0
            },
            "sort": 2100000,
            "type": "action"
        }
    ],
    "name": "Dragon Pillar",
    "permission": {
        "default": 0
    },
    "token": {
        "actorId": "zNIjGSxkG8xyDLgR",
        "actorLink": false,
        "alpha": 1,
        "bar1": {
            "attribute": null
        },
        "bar2": {
            "attribute": null
        },
        "brightLight": 0,
        "brightSight": 0,
        "dimLight": 0,
        "dimSight": 0,
        "displayBars": 20,
        "displayName": 20,
        "disposition": 0,
        "flags": {},
        "height": 1,
        "img": "systems/pf2e/icons/default-icons/hazard.svg",
        "lightAlpha": 1,
        "lightAngle": 0,
        "lightAnimation": {
            "intensity": 5,
            "speed": 5
        },
        "lockRotation": false,
        "mirrorX": false,
        "mirrorY": false,
        "name": "Dragon Pillar",
        "randomImg": false,
        "rotation": 0,
        "scale": 1,
        "sightAngle": 0,
        "tint": null,
        "vision": false,
        "width": 1
    },
    "type": "hazard"
}
