{
    "_id": "SjmKHgI7a5Z9JzBx",
    "data": {
        "actionCategory": {
            "value": ""
        },
        "actionType": {
            "value": "action"
        },
        "actions": {
            "value": "1"
        },
        "description": {
            "chat": "",
            "unidentified": "",
            "value": "<p>Using your body, a lever, or some other tool, you attempt to forcefully open a door, window, container or heavy gate. With a high enough result, you can even smash through walls. Without a crowbar, prying something open takes a -2 item penalty to the <span data-pf2-action=\"forceOpen\" data-pf2-glyph=\"A\">Athletics</span> check to Force Open.</p>\n<hr />\n<p><strong>Critical Success</strong> You open the door, window, container, or gate and can avoid damaging it in the process.</p>\n<p><strong>Success</strong> You break the door, window, container, or gate open, and it gains the @Compendium[pf2e.conditionitems.Broken]{Broken} condition.</p>\n<p><strong>Critical Failure</strong> Your attempt jams the door, window, container, or gate shut, imposing a -2 circumstance penalty on future attempts to Force it Open.</p>\n<h2>Sample Force Open Tasks</h2>\n<ul>\n<li><strong>Untrained</strong> fabric, flimsy glass</li>\n<li><strong>Trained</strong> ice, sturdy glass</li>\n<li><strong>Expert</strong> flimsy wooden door, wooden portcullis</li>\n<li><strong>Master</strong> sturdy wooden door, iron portcullis, metal bar</li>\n<li><strong>Legendary</strong> stone or iron door</li>\n</ul>"
        },
        "requirements": {
            "value": ""
        },
        "rules": [],
        "source": {
            "value": ""
        },
        "traits": {
            "custom": "",
            "rarity": {
                "value": "common"
            },
            "value": [
                "attack",
                "skill"
            ]
        },
        "trigger": {
            "value": ""
        },
        "weapon": {
            "value": ""
        }
    },
    "effects": [],
    "flags": {},
    "folder": null,
    "img": "systems/pf2e/icons/actions/OneAction.webp",
    "name": "Force Open",
    "permission": {
        "default": 0
    },
    "type": "action"
}
