{
    "_id": "sn2hIy1iIJX9Vpgj",
    "data": {
        "actionCategory": {
            "value": ""
        },
        "actionType": {
            "value": "action"
        },
        "actions": {
            "value": "1"
        },
        "description": {
            "chat": "",
            "unidentified": "",
            "value": "<p><strong>Requirements</strong> A creature is undetected by one or more of your allies but isn't undetected by you</p>\n<hr />\n<p>You indicate a creature that you can see to one or more allies, gesturing in a direction and describing the distance verbally. That creature is @Compendium[pf2e.conditionitems.Hidden]{Hidden} to your allies, rather than @Compendium[pf2e.conditionitems.Undetected]{Undetected}. This works only for allies who can see you and are in a position where they could potentially detect the target. If your allies can't hear or understand you, they must succeed at a Perception check against the creature's Stealth DC or they misunderstand and believe the target is in a different location.</p>"
        },
        "requirements": {
            "value": ""
        },
        "rules": [],
        "source": {
            "value": ""
        },
        "traits": {
            "custom": "",
            "rarity": {
                "value": "common"
            },
            "value": [
                "manipulate",
                "auditory",
                "visual"
            ]
        },
        "trigger": {
            "value": ""
        },
        "weapon": {
            "value": ""
        }
    },
    "effects": [],
    "flags": {},
    "folder": null,
    "img": "systems/pf2e/icons/actions/OneAction.webp",
    "name": "Point Out",
    "permission": {
        "default": 0
    },
    "type": "action"
}
