{
    "_id": "9MeHc072G4L8AJkp",
    "data": {
        "description": {
            "chat": "",
            "unidentified": "",
            "value": "<p>Granted by @Compendium[pf2e.equipment-srd.Elixir of Life (True)]{Elixir of Life (True)}</p>\n<p>Implemented effects:</p>\n<ul>\n<li>+4 item bonus to saving throws against diseases and poisons</li>\n</ul>\n<p>Unimplemented effects:</p>\n<ul>\n<li>Heal [[/r 10d6+27]] Hit Points</li>\n</ul>"
        },
        "duration": {
            "expiry": "turn-start",
            "sustained": false,
            "unit": "minutes",
            "value": 10
        },
        "level": {
            "value": 19
        },
        "rules": [
            {
                "key": "PF2E.RuleElement.FlatModifier",
                "label": "Elixir of Life, True (vs. disease & poison)",
                "predicate": {
                    "any": [
                        "disease",
                        "poison"
                    ]
                },
                "selector": "saving-throw",
                "type": "item",
                "value": 4
            },
            {
                "key": "PF2E.RuleElement.TokenEffectIcon"
            }
        ],
        "source": {
            "value": ""
        },
        "start": {
            "initiative": null,
            "value": 0
        },
        "target": null,
        "traits": {
            "custom": "",
            "rarity": {
                "value": "common"
            },
            "value": []
        }
    },
    "effects": [],
    "flags": {},
    "img": "systems/pf2e/icons/equipment/alchemical-items/alchemical-elixirs/elixir-of-life.webp",
    "name": "Effect: Elixir of Life (True)",
    "permission": {
        "default": 0
    },
    "type": "effect"
}
