{
    "_id": "5N6rLz4mdJg0NrQH",
    "data": {
        "actionCategory": {
            "value": ""
        },
        "actionType": {
            "value": "passive"
        },
        "actions": {
            "value": null
        },
        "description": {
            "chat": "",
            "unidentified": "",
            "value": "<p>Using your extensive knowledge of ambush tactics, you keep watch for any hidden creatures or dangerous sites, moving at half your travel speed.</p>\n<p>If you're Anticipating an Ambush at the start of an encounter, you roll a Perception check for initiative, and all enemies rolling Stealth for initiative take a -2 circumstance penalty to their Stealth checks.</p>"
        },
        "featType": {
            "value": "class"
        },
        "level": {
            "value": 6
        },
        "prerequisites": {
            "value": [
                {
                    "value": "expert in Stealth"
                }
            ]
        },
        "rules": [],
        "source": {
            "value": ""
        },
        "traits": {
            "custom": "",
            "rarity": {
                "value": "common"
            },
            "value": [
                "exploration",
                "rogue"
            ]
        }
    },
    "effects": [],
    "flags": {},
    "img": "systems/pf2e/icons/features/feats/feats.webp",
    "name": "Anticipate Ambush",
    "permission": {
        "default": 0
    },
    "type": "feat"
}
