{
    "_id": "pewPAMlURmTqBqJx",
    "data": {
        "actionCategory": {
            "value": ""
        },
        "actionType": {
            "value": "passive"
        },
        "actions": {
            "value": ""
        },
        "description": {
            "chat": "",
            "unidentified": "",
            "value": "<p><strong>Archetype</strong> @Compendium[pf2e.archetypes.Turpin Rowe Lumberjack]{Turpin Rowe Lumberjack}</p>\n<hr />\n<p>You have mastered the weight and balance of a variety of axes and can lob them with ease. Any one-handed axe weapon you wield has the thrown trait with a range of 10 feet. For axes that already have the thrown trait, the range increases by 10 feet. When you critically succeed at an attack roll with a thrown axe weapon, you apply the axe's critical specialization effect.</p>"
        },
        "featType": {
            "value": "archetype"
        },
        "level": {
            "value": 6
        },
        "prerequisites": {
            "value": [
                {
                    "value": "Turpin Rowe Lumberjack Dedication"
                }
            ]
        },
        "rules": [],
        "source": {
            "value": "Pathfinder #153: Life's Long Shadows"
        },
        "traits": {
            "custom": "",
            "rarity": {
                "value": "common"
            },
            "value": [
                "archetype"
            ]
        }
    },
    "effects": [],
    "flags": {},
    "img": "systems/pf2e/icons/features/feats/feats.webp",
    "name": "Axe Thrower",
    "permission": {
        "default": 0
    },
    "type": "feat"
}
