{
    "_id": "cCv9pgyXzZ0TQmZg",
    "data": {
        "actionCategory": {
            "value": ""
        },
        "actionType": {
            "value": "passive"
        },
        "actions": {
            "value": ""
        },
        "description": {
            "chat": "",
            "unidentified": "",
            "value": "<p>Your cheek pouches are especially stretchy. Instead of storing up to four items of Light Bulk in your cheek pouches, you can store up to 1 Bulk worth of items. The maximum size of a given item is unchanged.</p>"
        },
        "featType": {
            "value": "ancestry"
        },
        "level": {
            "value": 9
        },
        "prerequisites": {
            "value": [
                {
                    "value": "Cheek Pouches"
                }
            ]
        },
        "rules": [],
        "source": {
            "value": ""
        },
        "traits": {
            "custom": "",
            "rarity": {
                "value": "common"
            },
            "value": [
                "ratfolk"
            ]
        }
    },
    "effects": [],
    "flags": {},
    "img": "systems/pf2e/icons/features/feats/feats.webp",
    "name": "Big Mouth",
    "permission": {
        "default": 0
    },
    "type": "feat"
}
