{
    "_id": "WO23FvCo8IYVB5RF",
    "data": {
        "actionCategory": {
            "value": ""
        },
        "actionType": {
            "value": "action"
        },
        "actions": {
            "value": "2"
        },
        "description": {
            "chat": "",
            "unidentified": "",
            "value": "<p>You call upon the Crimson Oath to smite undead and then make a weapon or unarmed Strike against an undead foe. The Strike deals two extra weapon damage dice, and you can convert all the physical damage from the attack into positive damage.</p>"
        },
        "featType": {
            "value": "archetype"
        },
        "level": {
            "value": 12
        },
        "prerequisites": {
            "value": [
                {
                    "value": "Knight Reclaimant Dedication"
                }
            ]
        },
        "rules": [],
        "source": {
            "value": ""
        },
        "traits": {
            "custom": "",
            "rarity": {
                "value": "common"
            },
            "value": [
                "archetype"
            ]
        }
    },
    "effects": [],
    "flags": {},
    "img": "systems/pf2e/icons/features/feats/feats.webp",
    "name": "Blade of the Crimson Oath",
    "permission": {
        "default": 0
    },
    "type": "feat"
}
