{
    "_id": "a9zzu4kb7vstq0HQ",
    "data": {
        "actionCategory": {
            "value": ""
        },
        "actionType": {
            "value": "action"
        },
        "actions": {
            "value": "1"
        },
        "description": {
            "chat": "",
            "unidentified": "",
            "value": "<p><strong>Frequency</strong> once per minute</p>\n<hr />\n<p>You call out a quick cadence, guiding your allies into a more efficient rhythm.</p>\n<p>Each willing ally within your marshal's aura is @Compendium[pf2e.conditionitems.Quickened]{Quickened} until the end of their next turn, and they can use the extra action only to @Compendium[pf2e.actionspf2e.Stride]{Stride}.</p>\n<p>At the end of each ally's turn, if they used the extra action, they then become @Compendium[pf2e.conditionitems.Slowed]{Slowed} 1 until the end of their following turn.</p>"
        },
        "featType": {
            "value": "archetype"
        },
        "level": {
            "value": 6
        },
        "prerequisites": {
            "value": [
                {
                    "value": "Marshal Dedication"
                }
            ]
        },
        "rules": [],
        "source": {
            "value": ""
        },
        "traits": {
            "custom": "",
            "rarity": {
                "value": "common"
            },
            "value": [
                "archetype",
                "auditory",
                "flourish"
            ]
        }
    },
    "effects": [],
    "flags": {},
    "img": "systems/pf2e/icons/features/feats/feats.webp",
    "name": "Cadence Call",
    "permission": {
        "default": 0
    },
    "type": "feat"
}
