{
    "_id": "AXXlinOc2lq08NPH",
    "data": {
        "actionCategory": {
            "value": ""
        },
        "actionType": {
            "value": "passive"
        },
        "actions": {
            "value": ""
        },
        "description": {
            "chat": "",
            "unidentified": "",
            "value": "<p>Your steed gains incredible celestial powers granted by your deity. It gains darkvision, its maximum Hit Points increase by 40, and it gains weakness 10 to evil damage. Additionally, it grows wings appropriate to a servitor of your deity (such as metallic wings for an archon), granting it a fly Speed equal to its Speed. It gains the celestial trait and the trait appropriate to the type of servitor it has become (archon, angel, or azata, for example).</p>"
        },
        "featType": {
            "value": "class"
        },
        "level": {
            "value": 20
        },
        "prerequisites": {
            "value": [
                {
                    "value": "Divine Ally (Steed)"
                },
                {
                    "value": "tenets of good"
                }
            ]
        },
        "rules": [],
        "source": {
            "value": ""
        },
        "traits": {
            "custom": "",
            "rarity": {
                "value": "common"
            },
            "value": [
                "champion"
            ]
        }
    },
    "effects": [],
    "flags": {},
    "img": "systems/pf2e/icons/features/feats/feats.webp",
    "name": "Celestial Mount",
    "permission": {
        "default": 0
    },
    "type": "feat"
}
