{
    "_id": "X7wFUWjYjYhzpejU",
    "data": {
        "actionCategory": {
            "value": ""
        },
        "actionType": {
            "value": "action"
        },
        "actions": {
            "value": "2"
        },
        "description": {
            "chat": "",
            "unidentified": "",
            "value": "<p>By moving your clan dagger with rapid precision, you can protect yourself more effectively. Make two clan dagger @Compendium[pf2e.actionspf2e.Strike]{Strike}s against different targets. Your multiple attack penalty applies normally to these Strikes. You then use an @Compendium[pf2e.actionspf2e.Interact]{Interact} action to gain the +1 circumstance bonus to your AC from your clan dagger's parrying trait.</p>"
        },
        "featType": {
            "value": "ancestry"
        },
        "level": {
            "value": 1
        },
        "location": "",
        "prerequisites": {
            "value": [
                {
                    "value": "trained in clan daggers"
                }
            ]
        },
        "rules": [],
        "source": {
            "value": ""
        },
        "traits": {
            "custom": "",
            "rarity": {
                "value": "common"
            },
            "value": [
                "dwarf"
            ]
        }
    },
    "effects": [],
    "flags": {},
    "img": "systems/pf2e/icons/features/feats/feats.webp",
    "name": "Clan's Edge",
    "permission": {
        "default": 0
    },
    "type": "feat"
}
