{
    "_id": "RN5aZCzEnmlYmBf5",
    "data": {
        "actionCategory": {
            "value": ""
        },
        "actionType": {
            "value": "passive"
        },
        "actions": {
            "value": ""
        },
        "description": {
            "chat": "",
            "unidentified": "",
            "value": "<p>When you use @Compendium[pf2e.feats-srd.Crystalline Dust]{Crystalline Dust}, you can spend one additional action to disperse the motes as a 10-foot-radius cloud centered on you instead of as haze; the activity gains the concentrate trait.</p>\n<p>All creatures within the cloud become @Compendium[pf2e.conditionitems.Concealed]{Concealed}, and all creatures outside the cloud become concealed to creatures within it.</p>"
        },
        "featType": {
            "value": "ancestry"
        },
        "level": {
            "value": 9
        },
        "location": "",
        "prerequisites": {
            "value": [
                {
                    "value": "Crystalline Dust"
                }
            ]
        },
        "rules": [],
        "source": {
            "value": ""
        },
        "traits": {
            "custom": "",
            "rarity": {
                "value": "common"
            },
            "value": [
                "aphorite"
            ]
        },
        "usage": {
            "value": ""
        }
    },
    "effects": [],
    "flags": {},
    "folder": null,
    "img": "systems/pf2e/icons/features/feats/feats.webp",
    "name": "Crystalline Cloud",
    "permission": {
        "default": 0
    },
    "type": "feat"
}
