{
    "_id": "O9z1MJpEaf6Y1Acd",
    "data": {
        "actionCategory": {
            "value": ""
        },
        "actionType": {
            "value": "passive"
        },
        "actions": {
            "value": ""
        },
        "description": {
            "chat": "",
            "unidentified": "",
            "value": "<p>You dart under the legs of your enemies in combat. You can end a successful @Compendium[pf2e.actionspf2e.Tumble Through]{Tumble Through} action in a Large or larger enemy's space.</p>\n<p>Also, when using the Step Lively feat, you can @Compendium[pf2e.actionspf2e.Step]{Step} into the triggering enemy's space. The enemy must have limbs or otherwise leave you enough room for this maneuver, as determined by the GM. For instance, you could share space with a giant or dragon, but not an ooze.</p>"
        },
        "featType": {
            "value": "ancestry"
        },
        "level": {
            "value": 9
        },
        "prerequisites": {
            "value": [
                {
                    "value": "Step Lively"
                }
            ]
        },
        "rules": [],
        "source": {
            "value": ""
        },
        "traits": {
            "custom": "",
            "rarity": {
                "value": "common"
            },
            "value": [
                "halfling"
            ]
        }
    },
    "effects": [],
    "flags": {},
    "img": "systems/pf2e/icons/features/feats/feats.webp",
    "name": "Dance Underfoot",
    "permission": {
        "default": 0
    },
    "type": "feat"
}
