{
    "_id": "AYXherMu9gFTyXjp",
    "data": {
        "actionCategory": {
            "value": ""
        },
        "actionType": {
            "value": "passive"
        },
        "actions": {
            "value": ""
        },
        "description": {
            "chat": "",
            "unidentified": "",
            "value": "<p>Your poisons are devastatingly potent. When you apply a simple poison with @Compendium[pf2e.feats-srd.Poison Weapon]{Poison Weapon}, the poison deals [[/r 4d4 #poison]] poison damage instead of 1d4 poison damage.</p>\n<p>When you apply an injury poison to your weapon, the DC to resist that poison increases by 2, to a maximum of your class DC.</p>\n<p>@Compendium[pf2e.feat-effects.Effect: Deadly Poison Weapon]{Effect: Deadly Poison Weapon}</p>"
        },
        "featType": {
            "value": "class"
        },
        "level": {
            "value": 12
        },
        "location": "",
        "prerequisites": {
            "value": [
                {
                    "value": "Improved Poison Weapon"
                }
            ]
        },
        "rules": [],
        "source": {
            "value": "Pathfinder #149: Against the Scarlet Triad"
        },
        "traits": {
            "custom": "",
            "rarity": {
                "value": "uncommon"
            },
            "value": [
                "rogue"
            ]
        }
    },
    "effects": [],
    "flags": {},
    "folder": null,
    "img": "systems/pf2e/icons/features/feats/feats.webp",
    "name": "Deadly Poison Weapon",
    "permission": {
        "default": 0
    },
    "type": "feat"
}
