{
    "_id": "0NRIP8cDv9Opl5Ls",
    "data": {
        "actionCategory": {
            "value": ""
        },
        "actionType": {
            "value": "passive"
        },
        "actions": {
            "value": ""
        },
        "description": {
            "chat": "",
            "unidentified": "",
            "value": "<p>You've sworn an oath to banish the corruption of fiends to the dark planes they call home. Add the following tenet to your champion's code after the other tenets: \"You must banish or slay fiends you come across as long as you have a reasonable chance of success; in the incredibly unlikely event you find a good fiend, you don't have to banish or kill it.\"</p>\n<p>Your @Compendium[pf2e.actionspf2e.Retributive Strike]{Retributive Strike} gains a +4 circumstance bonus to damage against a fiend, or a +6 circumstance bonus if you have master proficiency with the weapon you used.</p>\n<p>You don't consider fiends to be legitimate authorities, even in nations ruled by fiends.</p>"
        },
        "featType": {
            "value": "class"
        },
        "level": {
            "value": 2
        },
        "location": "",
        "prerequisites": {
            "value": [
                {
                    "value": "tenets of good"
                },
                {
                    "value": "paladin cause"
                }
            ]
        },
        "rules": [
            {
                "key": "PF2E.RuleElement.ToggleProperty",
                "label": "Retributive Strike against a fiend",
                "property": "flags.pf2e.rollOptions.damage-roll.fiendsbane-oath"
            },
            {
                "key": "PF2E.RuleElement.FlatModifier",
                "label": "Fiendsbane Oath",
                "name": "fiendsbane-not-master",
                "predicate": {
                    "all": [
                        "fiendsbane-oath"
                    ],
                    "not": [
                        "proficiency:master",
                        "proficiency:legendary"
                    ]
                },
                "selector": "damage",
                "value": 4
            },
            {
                "key": "PF2E.RuleElement.FlatModifier",
                "label": "Fiendsbane Oath",
                "name": "fiendsbane-master",
                "predicate": {
                    "all": [
                        "fiendsbane-oath"
                    ],
                    "any": [
                        "proficiency:master",
                        "proficiency:legendary"
                    ]
                },
                "selector": "damage",
                "value": 6
            }
        ],
        "source": {
            "value": ""
        },
        "traits": {
            "custom": "",
            "rarity": {
                "value": "common"
            },
            "value": [
                "champion",
                "oath"
            ]
        }
    },
    "effects": [],
    "flags": {},
    "img": "systems/pf2e/icons/features/feats/feats.webp",
    "name": "Fiendsbane Oath (Paladin)",
    "permission": {
        "default": 0
    },
    "type": "feat"
}
