{
    "_id": "pD1oDbUDkNtHadGY",
    "data": {
        "actionCategory": {
            "value": ""
        },
        "actionType": {
            "value": "passive"
        },
        "actions": {
            "value": ""
        },
        "description": {
            "chat": "",
            "unidentified": "",
            "value": "<p>You can magically hurl your weapon at your foe. You gain the @Compendium[pf2e.spells-srd.Hand of the Apprentice]{Hand of the Apprentice} universalist spell. Universalist spells are a type of focus spell, much like school spells. You start with a focus pool of 1 Focus Point.</p>\n<p>See Arcane Schools for more information about focus spells.</p>"
        },
        "featType": {
            "value": "class"
        },
        "level": {
            "value": 1
        },
        "location": "",
        "prerequisites": {
            "value": [
                {
                    "value": "universalist wizard"
                }
            ]
        },
        "rules": [],
        "source": {
            "value": ""
        },
        "traits": {
            "custom": "",
            "rarity": {
                "value": "common"
            },
            "value": [
                "wizard"
            ]
        }
    },
    "effects": [],
    "flags": {},
    "folder": null,
    "img": "systems/pf2e/icons/features/feats/feats.webp",
    "name": "Hand of the Apprentice",
    "permission": {
        "default": 0
    },
    "type": "feat"
}
