{
    "_id": "LVTquA3DpqCJDika",
    "data": {
        "actionCategory": {
            "value": ""
        },
        "actionType": {
            "value": "action"
        },
        "actions": {
            "value": "2"
        },
        "description": {
            "chat": "",
            "unidentified": "",
            "value": "<p>You trust your instincts and your sense of smell, using all of your senses to pinpoint your opponent's location.</p>\n<p>Make a melee @Compendium[pf2e.actionspf2e.Strike]{Strike} against an opponent that isn't hiding its scent with an effect like @Compendium[pf2e.spells-srd.Negate Aroma]{Negate Aroma}. This attack ignores any flat check required due to the target being @Compendium[pf2e.conditionitems.Concealed]{Concealed} or @Compendium[pf2e.conditionitems.Hidden]{Hidden}.</p>"
        },
        "featType": {
            "value": "class"
        },
        "level": {
            "value": 8
        },
        "prerequisites": {
            "value": [
                {
                    "value": "Acute Scent or precise or imprecise scent"
                }
            ]
        },
        "rules": [],
        "source": {
            "value": ""
        },
        "traits": {
            "custom": "",
            "rarity": {
                "value": "common"
            },
            "value": [
                "barbarian",
                "manipulate",
                "rage"
            ]
        }
    },
    "effects": [],
    "flags": {},
    "img": "systems/pf2e/icons/features/feats/feats.webp",
    "name": "Instinctive Strike",
    "permission": {
        "default": 0
    },
    "type": "feat"
}
