{
    "_id": "i98NcWSAbWmNmBik",
    "data": {
        "actionCategory": {
            "value": ""
        },
        "actionType": {
            "value": "passive"
        },
        "actions": {
            "value": ""
        },
        "description": {
            "chat": "",
            "unidentified": "",
            "value": "<p>Your blade ally thirsts for the blood of your foes.</p>\n<p>Whenever you critically hit an enemy with the weapon inhabited by your blade ally while dealing extra damage from your champion's reaction, the target takes persistent bleed damage equal to two of the weapon's damage dice.</p>"
        },
        "featType": {
            "value": "class"
        },
        "level": {
            "value": 16
        },
        "location": "",
        "prerequisites": {
            "value": [
                {
                    "value": "divine ally (blade)"
                },
                {
                    "value": "tenets of evil"
                }
            ]
        },
        "rules": [
            {
                "key": "PF2E.RuleElement.Note",
                "predicate": {
                    "any": [
                        "destructive-vengeance-negative",
                        "destructive-vengeance-evil",
                        "selfish-shield-negative",
                        "selfish-shield-evil",
                        "iron-command-negative",
                        "iron-command-evil"
                    ]
                },
                "selector": "damage",
                "text": "<p class='compact-text'><strong>{item|name}</strong> Whenever you critically hit an enemy with the weapon inhabited by your blade ally while dealing extra damage from your champion's reaction, the target takes persistent bleed damage equal to two of the weapon's damage dice.</p>"
            }
        ],
        "source": {
            "value": ""
        },
        "traits": {
            "custom": "",
            "rarity": {
                "value": "uncommon"
            },
            "value": [
                "champion"
            ]
        }
    },
    "effects": [],
    "flags": {},
    "img": "systems/pf2e/icons/features/feats/feats.webp",
    "name": "Instrument Of Slaughter",
    "permission": {
        "default": 0
    },
    "type": "feat"
}
