{
    "_id": "vdowlFFknihiz5pm",
    "data": {
        "actionCategory": {
            "value": ""
        },
        "actionType": {
            "value": "action"
        },
        "actions": {
            "value": "1"
        },
        "description": {
            "chat": "",
            "unidentified": "",
            "value": "<p><strong>Frequency</strong> once per day</p>\n<p><strong>Requirements</strong> You’re afflicted by a disease or poison, or are taking persistent damage.</p>\n<hr />\n<p>Your ordered physiology rejects unwelcome elements. Choose one.</p>\n<ul>\n<li><strong>Disease or Poison</strong> Attempt a saving throw against the affliction at its current stage. On a failure, the affliction’s stage doesn’t increase, but you suffer the effects of the stage you were already on. On a critical failure, the stage only increases by 1.</li>\n<li><strong>Persistent Damage</strong> Attempt a DC 10 flat check to recover from the persistent damage.</li>\n</ul>"
        },
        "featType": {
            "value": "ancestry"
        },
        "level": {
            "value": 5
        },
        "location": "",
        "prerequisites": {
            "value": []
        },
        "rules": [],
        "source": {
            "value": ""
        },
        "traits": {
            "custom": "",
            "rarity": {
                "value": "common"
            },
            "value": [
                "aphorite"
            ]
        },
        "usage": {
            "value": ""
        }
    },
    "effects": [],
    "flags": {},
    "folder": null,
    "img": "systems/pf2e/icons/features/feats/feats.webp",
    "name": "Intercorporate",
    "permission": {
        "default": 0
    },
    "type": "feat"
}
