{
    "_id": "5iULRBRDOryuWX6t",
    "data": {
        "actionCategory": {
            "value": ""
        },
        "actionType": {
            "value": "passive"
        },
        "actions": {
            "value": ""
        },
        "description": {
            "chat": "",
            "unidentified": "",
            "value": "<p>You make the most of your iruxi unarmed attacks. Whenever you score a critical hit with a claw or an unarmed attack you gained from a lizardfolk ancestry feat, you apply the unarmed attack's critical specialization effect.</p>"
        },
        "featType": {
            "value": "ancestry"
        },
        "level": {
            "value": 5
        },
        "prerequisites": {
            "value": []
        },
        "rules": [],
        "source": {
            "value": ""
        },
        "traits": {
            "custom": "",
            "rarity": {
                "value": "common"
            },
            "value": [
                "lizardfolk"
            ]
        }
    },
    "effects": [],
    "flags": {},
    "img": "systems/pf2e/icons/features/feats/feats.webp",
    "name": "Iruxi Unarmed Cunning",
    "permission": {
        "default": 0
    },
    "type": "feat"
}
