{
    "_id": "DTU4jrz9YNr7e62e",
    "data": {
        "actionCategory": {
            "value": ""
        },
        "actionType": {
            "value": "passive"
        },
        "actions": {
            "value": ""
        },
        "description": {
            "chat": "",
            "unidentified": "",
            "value": "<p>Your tail’s chaotic and independent nature causes it to perform mischief even when you don’t intend it, and it can somehow steal things it shouldn’t be able to handle. You can use your tail to Steal an object, though your tail still can’t hold onto it at the end of your action. If you have a hand free, you can transfer the stolen object to your hand. Otherwise, your tail surreptitiously drops it on the ground in your space, where you can grab it later. Observers other than your target who haven’t witnessed you stealing something with your tail are usually distracted, meaning the GM will usually decrease their Perception DCs, as normal for Stealing something.</p>"
        },
        "featType": {
            "value": "ancestry"
        },
        "level": {
            "value": 9
        },
        "location": "",
        "prerequisites": {
            "value": [
                {
                    "value": "Skillful Tail"
                }
            ]
        },
        "rules": [],
        "source": {
            "value": ""
        },
        "traits": {
            "custom": "",
            "rarity": {
                "value": "common"
            },
            "value": [
                "ganzi"
            ]
        },
        "usage": {
            "value": ""
        }
    },
    "effects": [],
    "flags": {},
    "img": "systems/pf2e/icons/features/feats/feats.webp",
    "name": "Larcenous Tail",
    "permission": {
        "default": 0
    },
    "type": "feat"
}
