{
    "_id": "oqoftwLB6tvoLjnL",
    "data": {
        "actionCategory": {
            "value": ""
        },
        "actionType": {
            "value": "passive"
        },
        "actions": {
            "value": ""
        },
        "description": {
            "chat": "",
            "unidentified": "",
            "value": "<p>Your body is almost as flexible as your shadow. When you critically fail at Squeezing, you get a failure instead. Additionally, when you roll a success at an Escape check, you get a critical success instead; if you roll a critical success, you can Step instead of Striding up to 5 feet.</p>"
        },
        "featType": {
            "value": "ancestry"
        },
        "level": {
            "value": 5
        },
        "location": "",
        "prerequisites": {
            "value": []
        },
        "rules": [],
        "source": {
            "value": ""
        },
        "traits": {
            "custom": "",
            "rarity": {
                "value": "common"
            },
            "value": [
                "fetchling"
            ]
        },
        "usage": {
            "value": ""
        }
    },
    "effects": [],
    "flags": {},
    "img": "systems/pf2e/icons/features/feats/feats.webp",
    "name": "Lightless Litheness",
    "permission": {
        "default": 0
    },
    "type": "feat"
}
