{
    "_id": "chmQgMamyaZX90Tc",
    "data": {
        "actionCategory": {
            "value": ""
        },
        "actionType": {
            "value": "passive"
        },
        "actions": {
            "value": ""
        },
        "description": {
            "chat": "",
            "unidentified": "",
            "value": "<p>You've learned those tidbits of magic that are most conducive to furthering your acquisition and transmission of knowledge. You gain @Compendium[pf2e.spells-srd.Guidance]{Guidance}, @Compendium[pf2e.spells-srd.Message]{Message}<em>,</em> and @Compendium[pf2e.spells-srd.Sigil]{Sigil} as innate occult cantrips.</p>"
        },
        "featType": {
            "value": "archetype"
        },
        "level": {
            "value": 4
        },
        "prerequisites": {
            "value": [
                {
                    "value": "Loremaster Dedication"
                }
            ]
        },
        "rules": [],
        "source": {
            "value": ""
        },
        "traits": {
            "custom": "",
            "rarity": {
                "value": "common"
            },
            "value": [
                "archetype"
            ]
        }
    },
    "effects": [],
    "flags": {},
    "img": "systems/pf2e/icons/features/feats/feats.webp",
    "name": "Magical Edification",
    "permission": {
        "default": 0
    },
    "type": "feat"
}
