{
    "_id": "eSP2938INGUG9b3w",
    "data": {
        "actionCategory": {
            "value": ""
        },
        "actionType": {
            "value": "passive"
        },
        "actions": {
            "value": ""
        },
        "description": {
            "chat": "",
            "unidentified": "",
            "value": "<p>Your blood sings with the liberating power of the azatas, living embodiments of freedom from the wild realm of Elysium.</p>\n<p>You gain a +1 circumstance bonus to @Compendium[pf2e.actionspf2e.Escape]{Escape}. When you roll a critical failure on a check to Escape, you get a failure instead, and when you roll a success, you get a critical success instead.</p>"
        },
        "featType": {
            "value": "ancestry"
        },
        "level": {
            "value": 1
        },
        "location": "",
        "prerequisites": {
            "value": []
        },
        "rules": [
            {
                "key": "PF2E.RuleElement.FlatModifier",
                "label": "Musetouched (to Escape)",
                "predicate": {
                    "all": [
                        "action:escape"
                    ]
                },
                "selector": "attack",
                "type": "circumstance",
                "value": 1
            },
            {
                "key": "PF2E.RuleElement.FlatModifier",
                "label": "Musetouched (to Escape)",
                "predicate": {
                    "all": [
                        "action:escape"
                    ]
                },
                "selector": "athletics",
                "type": "circumstance",
                "value": 1
            },
            {
                "key": "PF2E.RuleElement.FlatModifier",
                "label": "Musetouched (to Escape)",
                "predicate": {
                    "all": [
                        "action:escape"
                    ]
                },
                "selector": "acrobatics",
                "type": "circumstance",
                "value": 1
            },
            {
                "adjustment": {
                    "criticalFailure": "one-degree-better",
                    "success": "one-degree-better"
                },
                "key": "PF2E.RuleElement.AdjustDegreeOfSuccess",
                "predicate": {
                    "all": [
                        "action:escape"
                    ]
                },
                "selector": "attack-roll"
            },
            {
                "key": "PF2E.RuleElement.Note",
                "predicate": {
                    "all": [
                        "action:escape"
                    ]
                },
                "selector": "attack",
                "text": "<p class='compact-text'><strong>{item|name}</strong> When you roll a critical failure on a check to Escape, you get a failure instead, and when you roll a success, you get a critical success instead.</p>"
            },
            {
                "adjustment": {
                    "criticalFailure": "one-degree-better",
                    "success": "one-degree-better"
                },
                "key": "PF2E.RuleElement.AdjustDegreeOfSuccess",
                "predicate": {
                    "all": [
                        "action:escape"
                    ]
                },
                "selector": "athletics"
            },
            {
                "key": "PF2E.RuleElement.Note",
                "predicate": {
                    "all": [
                        "action:escape"
                    ]
                },
                "selector": "athletics",
                "text": "<p class='compact-text'><strong>{item|name}</strong> When you roll a critical failure on a check to Escape, you get a failure instead, and when you roll a success, you get a critical success instead.</p>"
            },
            {
                "adjustment": {
                    "criticalFailure": "one-degree-better",
                    "success": "one-degree-better"
                },
                "key": "PF2E.RuleElement.AdjustDegreeOfSuccess",
                "predicate": {
                    "all": [
                        "action:escape"
                    ]
                },
                "selector": "acrobatics"
            },
            {
                "key": "PF2E.RuleElement.Note",
                "predicate": {
                    "all": [
                        "action:escape"
                    ]
                },
                "selector": "acrobatics",
                "text": "<p class='compact-text'><strong>{item|name}</strong> When you roll a critical failure on a check to Escape, you get a failure instead, and when you roll a success, you get a critical success instead.</p>"
            }
        ],
        "source": {
            "value": ""
        },
        "traits": {
            "custom": "",
            "rarity": {
                "value": "common"
            },
            "value": [
                "aasimar",
                "lineage"
            ]
        }
    },
    "effects": [],
    "flags": {},
    "folder": null,
    "img": "systems/pf2e/icons/features/feats/feats.webp",
    "name": "Musetouched",
    "permission": {
        "default": 0
    },
    "type": "feat"
}
