{
    "_id": "6erzXaxxvcXYnL9H",
    "data": {
        "actionCategory": {
            "value": ""
        },
        "actionType": {
            "value": "action"
        },
        "actions": {
            "value": "1"
        },
        "description": {
            "chat": "",
            "unidentified": "",
            "value": "<p>You pour negative energy into your undead subject to empower its attacks.</p>\n<p>If the next action you use is to cast @Compendium[pf2e.spells-srd.Harm]{Harm} to restore Hit Points to a single undead creature, the target then deals an additional 1d6 negative damage with its melee weapons and unarmed attacks until the end of its next turn. If the <em>harm</em> spell is at least 5th level, this damage increases to 2d6, and if the <em>harm</em> spell is at least 8th level, the damage increases to 3d6.</p>\n<p>@Compendium[pf2e.feat-effects.Effect: Necrotic Infusion]{Effect: Necrotic Infusion}</p>"
        },
        "featType": {
            "value": "class"
        },
        "level": {
            "value": 4
        },
        "location": "",
        "prerequisites": {
            "value": [
                {
                    "value": "harmful font"
                },
                {
                    "value": "evil alignment"
                }
            ]
        },
        "rules": [],
        "source": {
            "value": ""
        },
        "traits": {
            "custom": "",
            "rarity": {
                "value": "common"
            },
            "value": [
                "concentrate",
                "cleric",
                "metamagic"
            ]
        }
    },
    "effects": [],
    "flags": {},
    "img": "systems/pf2e/icons/features/feats/feats.webp",
    "name": "Necrotic Infusion",
    "permission": {
        "default": 0
    },
    "type": "feat"
}
