{
    "_id": "cvo3DIL0BIRrDkQ6",
    "data": {
        "actionCategory": {
            "value": ""
        },
        "actionType": {
            "value": "passive"
        },
        "actions": {
            "value": ""
        },
        "description": {
            "chat": "",
            "unidentified": "",
            "value": "<p>You learn the @Compendium[pf2e.spells-srd.Ode to Ouroboros]{Ode to Ouroboros} composition spell, which enables you to temporarily spare your allies from death.</p>"
        },
        "featType": {
            "value": "class"
        },
        "level": {
            "value": 10
        },
        "prerequisites": {
            "value": []
        },
        "rules": [],
        "source": {
            "value": ""
        },
        "traits": {
            "custom": "",
            "rarity": {
                "value": "common"
            },
            "value": [
                "bard"
            ]
        }
    },
    "effects": [],
    "flags": {},
    "img": "systems/pf2e/icons/features/feats/feats.webp",
    "name": "Ode To Ouroboros",
    "permission": {
        "default": 0
    },
    "type": "feat"
}
