{
    "_id": "tXNfWDa6P7bCKrCt",
    "data": {
        "actionCategory": {
            "value": ""
        },
        "actionType": {
            "value": "action"
        },
        "actions": {
            "value": "1"
        },
        "description": {
            "chat": "",
            "unidentified": "",
            "value": "<p>(Druid) With a complex gesture, you call upon the primal power of your spell to overcome enemies' resistances.</p>\n<p>(Sorcerer) You alter your spells to overcome resistances.</p>\n<p>(Wizard) With a complex gesture, you alter the energy of your spell to overcome resistances.</p>\n<hr />\n<p>If the next action you use is to Cast a Spell, the spell ignores an amount of the target's resistance to acid, cold, electricity, fire, or sonic damage equal to your level. This applies to all damage the spell deals, including persistent damage and damage caused by an ongoing effect of the spell, such as the wall created by wall of fire. A creature's immunities are unaffected.</p>"
        },
        "featType": {
            "value": "class"
        },
        "level": {
            "value": 10
        },
        "prerequisites": {
            "value": []
        },
        "rules": [],
        "source": {
            "value": ""
        },
        "traits": {
            "custom": "",
            "rarity": {
                "value": "common"
            },
            "value": [
                "druid",
                "manipulate",
                "metamagic",
                "sorcerer",
                "wizard"
            ]
        }
    },
    "effects": [],
    "flags": {},
    "img": "systems/pf2e/icons/features/feats/feats.webp",
    "name": "Overwhelming Energy",
    "permission": {
        "default": 0
    },
    "type": "feat"
}
