{
    "_id": "iCsHR5tdSXDHGjCv",
    "data": {
        "actionCategory": {
            "value": ""
        },
        "actionType": {
            "value": "passive"
        },
        "actions": {
            "value": ""
        },
        "description": {
            "chat": "",
            "unidentified": "",
            "value": "<p>You can sniff out the pungent tang of disease. When you detect a creature by scent, you can also detect if that creature is suffering from a disease at a non-carrier state. If the disease is particularly subtle, you might need to attempt a Perception check against the disease’s DC (subject to the GM’s discretion).</p>"
        },
        "featType": {
            "value": "ancestry"
        },
        "level": {
            "value": 5
        },
        "location": "",
        "prerequisites": {
            "value": [
                {
                    "value": "longsnout rat heritage"
                }
            ]
        },
        "rules": [],
        "source": {
            "value": ""
        },
        "traits": {
            "custom": "",
            "rarity": {
                "value": "common"
            },
            "value": [
                "ratfolk"
            ]
        },
        "usage": {
            "value": ""
        }
    },
    "effects": [],
    "flags": {},
    "img": "systems/pf2e/icons/features/feats/feats.webp",
    "name": "Plague Sniffer",
    "permission": {
        "default": 0
    },
    "type": "feat"
}
