{
    "_id": "6dymMIqs3dAFqnyR",
    "data": {
        "actionCategory": {
            "value": ""
        },
        "actionType": {
            "value": "passive"
        },
        "actions": {
            "value": ""
        },
        "description": {
            "value": "<p>Your blood soars with the power of the magnificent garuda, proud and stoic avian warriors. You only take half the normal damage from falling and gain a +2 circumstance bonus to saving throws against effects with the air trait.</p>"
        },
        "featType": {
            "value": "ancestry"
        },
        "level": {
            "value": 1
        },
        "location": "",
        "prerequisites": {
            "value": []
        },
        "rules": [
            {
                "key": "PF2E.RuleElement.FlatModifier",
                "label": "Plumekith (vs. air effects)",
                "predicate": {
                    "all": [
                        "air"
                    ]
                },
                "selector": "saving-throw",
                "type": "circumstance",
                "value": 2
            }
        ],
        "source": {
            "value": ""
        },
        "traits": {
            "custom": "",
            "rarity": {
                "value": "common"
            },
            "value": [
                "aasimar",
                "lineage"
            ]
        }
    },
    "effects": [],
    "flags": {},
    "folder": null,
    "img": "systems/pf2e/icons/features/feats/feats.webp",
    "name": "Plumekith",
    "permission": {
        "default": 0
    },
    "type": "feat"
}
