{
    "_id": "R00qiDE5pBctgtyU",
    "data": {
        "actionCategory": {
            "value": ""
        },
        "actionType": {
            "value": "passive"
        },
        "actions": {
            "value": ""
        },
        "description": {
            "chat": "",
            "unidentified": "",
            "value": "<p>You become trained in Survival; if you were already trained in Survival, you instead become trained in another skill of your choice. You become trained in ranger class DC. You can use the @Compendium[pf2e.actionspf2e.Hunt Prey]{Hunt Prey} action.</p>\n<hr />\n<p><strong>Special</strong> You cannot select another dedication feat until you have gained two other feats from the ranger archetype.</p>"
        },
        "featType": {
            "value": "archetype"
        },
        "level": {
            "value": 2
        },
        "prerequisites": {
            "value": [
                {
                    "value": "Dexterity 14"
                }
            ]
        },
        "rules": [],
        "source": {
            "value": ""
        },
        "traits": {
            "custom": "",
            "rarity": {
                "value": "common"
            },
            "value": [
                "archetype",
                "dedication",
                "multiclass"
            ]
        }
    },
    "effects": [],
    "flags": {},
    "img": "systems/pf2e/icons/features/feats/feats.webp",
    "name": "Ranger Dedication",
    "permission": {
        "default": 0
    },
    "type": "feat"
}
