{
    "_id": "xmccXo6U7P0IMM3z",
    "data": {
        "actionCategory": {
            "value": ""
        },
        "actionType": {
            "value": "passive"
        },
        "actions": {
            "value": ""
        },
        "description": {
            "chat": "",
            "unidentified": "",
            "value": "<p>Your skill and fervor allow you to pierce undead defenses and exploit their weaknesses. When you make an attack using a weapon with which you have master proficiency and hit an undead creature, you ignore 5 points of the creature's resistances, and the undead's weaknesses are 2 higher against your attack.</p>"
        },
        "featType": {
            "value": "archetype"
        },
        "level": {
            "value": 12
        },
        "prerequisites": {
            "value": [
                {
                    "value": "Knight Reclaimant Dedfication"
                },
                {
                    "value": "master proficiency in a weapon"
                }
            ]
        },
        "rules": [],
        "source": {
            "value": ""
        },
        "traits": {
            "custom": "",
            "rarity": {
                "value": "common"
            },
            "value": [
                "archetype"
            ]
        }
    },
    "effects": [],
    "flags": {},
    "img": "systems/pf2e/icons/features/feats/feats.webp",
    "name": "Reaper of Repose",
    "permission": {
        "default": 0
    },
    "type": "feat"
}
