{
    "_id": "CuyuwFht0rVbGMca",
    "data": {
        "actionCategory": {
            "value": ""
        },
        "actionType": {
            "value": "passive"
        },
        "actions": {
            "value": ""
        },
        "description": {
            "chat": "",
            "unidentified": "",
            "value": "<p>Your wings are now a permanent part of your physiology. You gain the effects of Fiendish Wings at all times, rather than just once per day for 10 minutes.</p>"
        },
        "featType": {
            "value": "ancestry"
        },
        "level": {
            "value": 17
        },
        "prerequisites": {
            "value": [
                {
                    "value": "Fiendish Wings"
                }
            ]
        },
        "rules": [],
        "source": {
            "value": ""
        },
        "traits": {
            "custom": "",
            "rarity": {
                "value": "common"
            },
            "value": [
                "tiefling"
            ]
        }
    },
    "effects": [],
    "flags": {},
    "img": "systems/pf2e/icons/features/feats/feats.webp",
    "name": "Relentless Wings",
    "permission": {
        "default": 0
    },
    "type": "feat"
}
