{
    "_id": "0idzh4dww7B7cbnW",
    "data": {
        "actionCategory": {
            "value": ""
        },
        "actionType": {
            "value": "passive"
        },
        "actions": {
            "value": ""
        },
        "description": {
            "value": "<p><strong>Frequency</strong> once per round</p>\n<p><strong>Requirements</strong> You’re holding an unloaded hand crossbow.</p>\n<hr />\n<p>You can fire off a single shot even when unprepared. You Interact to reload your hand crossbow and Strike with it.</p>\n<p><strong>Special</strong> If you have the @Compendium[pf2e.feats-srd.Repeating Hand Crossbow Training]{Repeating Hand Crossbow Training} feat, you can use this feat with a @Compendium[pf2e.equipment-srd.Repeating Hand Crossbow]{Repeating Hand Crossbow} to load either a @Compendium[pf2e.equipment-srd.Bolts]{Bolt} or a @Compendium[pf2e.equipment-srd.Magazine with 5 Bolts]{Magazine}, but the speed means you can fire only one bolt, then the magazine jams. You must spend a 3-action Interact activity to remove the jammed magazine and clear it before it can be used again.</p>"
        },
        "featType": {
            "value": "archetype"
        },
        "level": {
            "value": 6
        },
        "location": "",
        "prerequisites": {
            "value": [
                {
                    "value": "Drow Shootist Dedication"
                }
            ]
        },
        "rules": [],
        "source": {
            "value": ""
        },
        "traits": {
            "custom": "",
            "rarity": {
                "value": "common"
            },
            "value": [
                "archetype",
                "manipulate"
            ]
        }
    },
    "effects": [],
    "flags": {},
    "img": "systems/pf2e/icons/default-icons/feats.webp",
    "name": "Reloading Trick",
    "permission": {
        "default": 0
    },
    "type": "feat"
}
