{
    "_id": "6CE1nVGxt192AUGk",
    "data": {
        "actionCategory": {
            "value": ""
        },
        "actionType": {
            "value": "action"
        },
        "actions": {
            "value": "2"
        },
        "description": {
            "chat": "",
            "unidentified": "",
            "value": "<p>You meander around unpredictably, and then ambush your opponents without warning.</p>\n<p>Choose one enemy. @Compendium[pf2e.actionspf2e.Stride]{Stride}, @Compendium[pf2e.actionspf2e.Feint]{Feint} against that opponent, and then make a @Compendium[pf2e.actionspf2e.Strike]{Strike} against that foe. For your Feint, you can attempt a Stealth check instead of the Deception check that's usually required, because you use the terrain around you to catch your foe off-guard.</p>"
        },
        "featType": {
            "value": "archetype"
        },
        "level": {
            "value": 4
        },
        "prerequisites": {
            "value": [
                {
                    "value": "Scout Dedication"
                }
            ]
        },
        "rules": [],
        "source": {
            "value": ""
        },
        "traits": {
            "custom": "",
            "rarity": {
                "value": "common"
            },
            "value": [
                "archetype",
                "flourish"
            ]
        }
    },
    "effects": [],
    "flags": {},
    "img": "systems/pf2e/icons/features/feats/feats.webp",
    "name": "Scout's Charge",
    "permission": {
        "default": 0
    },
    "type": "feat"
}
