{
    "_id": "7YvOqcdp9Z0RALMp",
    "data": {
        "actionCategory": {
            "value": ""
        },
        "actionType": {
            "value": "passive"
        },
        "actions": {
            "value": ""
        },
        "description": {
            "chat": "",
            "unidentified": "",
            "value": "<p><strong>Frequency</strong>: Once per hour.</p>\n<p><strong>Trigger</strong> You successfully use Stealth to @Compendium[pf2e.actionspf2e.Hide]{Hide} and become @Compendium[pf2e.conditionitems.Hidden]{Hidden} from all your current foes, or use Stealth to @Compendium[pf2e.actionspf2e.Sneak]{Sneak} and become @Compendium[pf2e.conditionitems.Undetected]{Undetected} to all your current foes.</p>\n<hr />\n<p>With a powerful talent for misdirection, you slip from your adversaries' notice so thoroughly you appear to be somewhere else. You become @Compendium[pf2e.conditionitems.Invisible]{Invisible} for 1 minute or until you take a hostile action, whichever comes first.</p>\n<p>Choose a location within 10 feet of you. Until your invisibility ends, you appear to be hidden in that location to anyone trying to find you. If the searcher gets clear evidence that you're not there, they no longer think you're hidden there, but they don't discover your actual location.</p>"
        },
        "featType": {
            "value": "ancestry"
        },
        "level": {
            "value": 17
        },
        "prerequisites": {
            "value": [
                {
                    "value": "legendary Stealth"
                }
            ]
        },
        "rules": [],
        "source": {
            "value": ""
        },
        "traits": {
            "custom": "",
            "rarity": {
                "value": "common"
            },
            "value": [
                "halfling"
            ]
        }
    },
    "effects": [],
    "flags": {},
    "img": "systems/pf2e/icons/features/feats/feats.webp",
    "name": "Shadow Self",
    "permission": {
        "default": 0
    },
    "type": "feat"
}
