{
    "_id": "AvN95M5eVLLEu2qk",
    "data": {
        "actionCategory": {
            "value": ""
        },
        "actionType": {
            "value": "passive"
        },
        "actions": {
            "value": ""
        },
        "description": {
            "chat": "",
            "unidentified": "",
            "value": "<p>Your animal companion continues to develop. It becomes a nimble or savage animal companion (your choice), gaining abilities determined by its type. Increase its proficiency rank in Performance to master instead of Athletics or Acrobatics.</p>"
        },
        "featType": {
            "value": "archetype"
        },
        "level": {
            "value": 12
        },
        "prerequisites": {
            "value": [
                {
                    "value": "Mature Trained Companion"
                }
            ]
        },
        "rules": [],
        "source": {
            "value": ""
        },
        "traits": {
            "custom": "",
            "rarity": {
                "value": "common"
            },
            "value": [
                "archetype"
            ]
        }
    },
    "effects": [],
    "flags": {},
    "img": "systems/pf2e/icons/features/feats/feats.webp",
    "name": "Splendid Companion",
    "permission": {
        "default": 0
    },
    "type": "feat"
}
