{
    "_id": "9t4x8vRmQikEl4vP",
    "data": {
        "actionCategory": {
            "value": ""
        },
        "actionType": {
            "value": "passive"
        },
        "actions": {
            "value": ""
        },
        "description": {
            "chat": "",
            "unidentified": "",
            "value": "<p>You have seen people from so many walks of life in your travels that you naturally adopt a pleasant and affable demeanor when meeting others. You are trained in Diplomacy. If you would automatically become trained in Diplomacy (from your background or class, for example), you instead become trained in a skill of your choice.<br />In addition, you gain the @Compendium[pf2e.feats-srd.Hobnobber]{Hobnobber} skill feat.</p>"
        },
        "featType": {
            "value": "ancestry"
        },
        "level": {
            "value": 1
        },
        "prerequisites": {
            "value": []
        },
        "rules": [],
        "source": {
            "value": ""
        },
        "traits": {
            "custom": "",
            "rarity": {
                "value": "common"
            },
            "value": [
                "catfolk"
            ]
        }
    },
    "effects": [],
    "flags": {},
    "img": "systems/pf2e/icons/features/feats/feats.webp",
    "name": "Well-Met Traveler",
    "permission": {
        "default": 0
    },
    "type": "feat"
}
