{
    "_id": "1hdWNyedYvuZgtPr",
    "data": {
        "actionCategory": {
            "value": ""
        },
        "actionType": {
            "value": "passive"
        },
        "actions": {
            "value": ""
        },
        "description": {
            "chat": "",
            "unidentified": "",
            "value": "<p><strong>Moderate Curse (Daily)</strong>: Fate turns against you and reveals dire portents. Divinations such as @Compendium[pf2e.spells-srd.Augury]{Augury} cast by you or that involve you always suggest woe. Once per day after you attempt a check, the GM can make the result of the roll a natural 1.</p>"
        },
        "featType": {
            "value": "curse"
        },
        "level": {
            "value": 0
        },
        "prerequisites": {
            "value": []
        },
        "rules": [],
        "source": {
            "value": ""
        },
        "traits": {
            "custom": "",
            "rarity": {
                "value": "common"
            },
            "selected": {},
            "value": []
        }
    },
    "effects": [],
    "flags": {},
    "img": "systems/pf2e/icons/deity/Pharasma.webp",
    "name": "Pharasma - Moderate Curse",
    "permission": {
        "default": 0
    },
    "type": "feat"
}
