{
    "_id": "zjFN1cJEl3AMKiVs",
    "data": {
        "description": {
            "value": "<p>Granted by holding the token created by @Compendium[pf2e.spells-srd.Nymph's Token]{Nymph's Token}</p>"
        },
        "duration": {
            "expiry": "turn-start",
            "sustained": false,
            "unit": "minutes",
            "value": 1
        },
        "level": {
            "value": 1
        },
        "rules": [
            {
                "key": "PF2E.RuleElement.FlatModifier",
                "selector": "performance",
                "type": "status",
                "value": 1
            },
            {
                "key": "PF2E.RuleElement.FlatModifier",
                "selector": "will",
                "type": "status",
                "value": 1
            }
        ],
        "source": {
            "value": ""
        },
        "start": {
            "initiative": null,
            "value": 0
        },
        "target": null,
        "tokenIcon": {
            "show": true
        },
        "traits": {
            "custom": "",
            "rarity": {
                "value": "common"
            },
            "value": []
        }
    },
    "effects": [],
    "flags": {},
    "folder": null,
    "img": "systems/pf2e/icons/spells/nymphs-token.webp",
    "name": "Spell Effect: Nymph's Token",
    "permission": {
        "default": 0
    },
    "type": "effect"
}
