{
    "_id": "EGQgqBfV80ll3pcf",
    "data": {
        "abilities": {
            "cha": {
                "mod": -5,
                "value": 10
            },
            "con": {
                "mod": 10,
                "value": 10
            },
            "dex": {
                "mod": 0,
                "value": 10
            },
            "int": {
                "mod": -5,
                "value": 10
            },
            "str": {
                "mod": 11,
                "value": 10
            },
            "wis": {
                "mod": 0,
                "value": 10
            }
        },
        "attributes": {
            "ac": {
                "base": 46,
                "check": 0,
                "details": "",
                "dex": 0,
                "item": 0,
                "min": 0,
                "value": 46
            },
            "allSaves": {
                "value": ""
            },
            "bonusEncumbranceBulk": 0,
            "bonusLimitBulk": 0,
            "flatbonushp": 0,
            "flatbonussp": 0,
            "hp": {
                "details": "",
                "max": 400,
                "temp": 0,
                "value": 400
            },
            "init": {
                "bonus": 0,
                "value": 0
            },
            "initiative": {
                "ability": "",
                "circumstance": 0,
                "status": 0
            },
            "levelbonushp": 0,
            "levelbonussp": 0,
            "perception": {
                "ability": "wis",
                "item": 0,
                "rank": 0,
                "value": 35
            },
            "resolve": {
                "value": 0
            },
            "shield": {
                "ac": 0,
                "brokenThreshold": 0,
                "hardness": 0,
                "max": 0,
                "min": 0,
                "value": 0
            },
            "sp": {
                "details": "",
                "max": 0,
                "min": 0,
                "value": 0
            },
            "speed": {
                "otherSpeeds": [],
                "value": "40"
            }
        },
        "customModifiers": {},
        "details": {
            "alignment": {
                "value": "CN"
            },
            "ancestry": {
                "value": ""
            },
            "biography": {
                "public": "",
                "value": ""
            },
            "class": {
                "value": ""
            },
            "creatureType": "",
            "deity": {
                "image": "systems/pf2e/assets/sheet/deity.webp",
                "value": ""
            },
            "flavourText": "",
            "heritage": {
                "value": ""
            },
            "keyability": {
                "value": "str"
            },
            "level": {
                "min": 1,
                "value": 21
            },
            "recallKnowledgeText": "",
            "sidebarText": "",
            "source": {
                "value": "Pathfinder #162: Ruins of the Radiant Siege"
            }
        },
        "martial": {
            "advanced": {
                "rank": 0,
                "value": 0
            },
            "heavy": {
                "rank": 0,
                "value": 0
            },
            "light": {
                "rank": 0,
                "value": 0
            },
            "martial": {
                "rank": 0,
                "value": 0
            },
            "medium": {
                "rank": 0,
                "value": 0
            },
            "simple": {
                "rank": 0,
                "value": 0
            },
            "unarmed": {
                "rank": 0,
                "value": 0
            },
            "unarmored": {
                "rank": 0,
                "value": 0
            }
        },
        "saves": {
            "fortitude": {
                "ability": "con",
                "item": 0,
                "rank": 0,
                "saveDetail": "",
                "value": 39
            },
            "reflex": {
                "ability": "dex",
                "item": 0,
                "rank": 0,
                "saveDetail": "",
                "value": 29
            },
            "will": {
                "ability": "wis",
                "item": 0,
                "rank": 0,
                "saveDetail": "",
                "value": 29
            }
        },
        "schema": {
            "version": {
                "value": ""
            }
        },
        "spells": {
            "spell0": {
                "max": 0
            },
            "spell1": {
                "max": 0
            },
            "spell10": {
                "max": 0
            },
            "spell11": {
                "max": 0
            },
            "spell2": {
                "max": 0
            },
            "spell3": {
                "max": 0
            },
            "spell4": {
                "max": 0
            },
            "spell5": {
                "max": 0
            },
            "spell6": {
                "max": 0
            },
            "spell7": {
                "max": 0
            },
            "spell8": {
                "max": 0
            },
            "spell9": {
                "max": 0
            }
        },
        "statusEffects": [],
        "traits": {
            "ci": [],
            "di": {
                "custom": "",
                "value": [
                    "doomed",
                    "drained",
                    "fatigued",
                    "paralyzed",
                    "sickened",
                    "unconscious",
                    "bleed",
                    "mental",
                    "poison",
                    "death effects",
                    "disease",
                    "healing",
                    "necromancy",
                    "nonlethal attacks"
                ]
            },
            "dr": [
                {
                    "exceptions": "",
                    "label": "Cold",
                    "type": "cold",
                    "value": "15"
                },
                {
                    "exceptions": "",
                    "label": "Electricity",
                    "type": "electricity",
                    "value": "15"
                },
                {
                    "exceptions": "",
                    "label": "Fire",
                    "type": "fire",
                    "value": "15"
                },
                {
                    "exceptions": "except adamantine",
                    "label": "Physical",
                    "type": "physical",
                    "value": "20"
                }
            ],
            "dv": [],
            "languages": {
                "custom": "",
                "selected": [],
                "value": []
            },
            "rarity": {
                "value": "unique"
            },
            "senses": {
                "value": "darkvision"
            },
            "size": {
                "value": "grg"
            },
            "traits": {
                "custom": "",
                "value": [
                    "construct",
                    "mindless"
                ]
            }
        }
    },
    "effects": [],
    "flags": {},
    "folder": null,
    "img": "systems/pf2e/icons/default-icons/npc.svg",
    "items": [
        {
            "_id": "wvGApQMwNilwaRG1",
            "data": {
                "attack": {
                    "value": ""
                },
                "attackEffects": {
                    "value": []
                },
                "baseItem": null,
                "bonus": {
                    "total": 38,
                    "value": 38
                },
                "brokenThreshold": {
                    "value": 0
                },
                "bulkCapacity": {
                    "value": ""
                },
                "collapsed": {
                    "value": false
                },
                "containerId": {
                    "value": ""
                },
                "damage": {
                    "damageType": "slashing",
                    "die": "4d10+19"
                },
                "damageRolls": {
                    "0": {
                        "damage": "4d10+19",
                        "damageType": "slashing"
                    }
                },
                "description": {
                    "value": ""
                },
                "equipped": {
                    "value": false
                },
                "equippedBulk": {
                    "value": ""
                },
                "hardness": {
                    "value": 0
                },
                "hp": {
                    "value": 0
                },
                "identification": {
                    "misidentified": {},
                    "status": "identified",
                    "unidentified": {
                        "data": {
                            "description": {
                                "value": ""
                            }
                        },
                        "img": "",
                        "name": ""
                    }
                },
                "invested": {
                    "value": false
                },
                "maxHp": {
                    "value": 0
                },
                "negateBulk": {
                    "value": "0"
                },
                "preciousMaterial": {
                    "value": ""
                },
                "preciousMaterialGrade": {
                    "value": ""
                },
                "price": {
                    "value": 0
                },
                "quantity": {
                    "value": 1
                },
                "rules": [],
                "size": {
                    "value": "med"
                },
                "slug": null,
                "source": {
                    "value": ""
                },
                "stackGroup": {
                    "value": ""
                },
                "traits": {
                    "custom": "",
                    "rarity": {
                        "value": "common"
                    },
                    "value": [
                        "adamantine",
                        "deadly-4d10",
                        "magical",
                        "reach-25",
                        "trip"
                    ]
                },
                "weaponType": {
                    "value": "melee"
                },
                "weight": {
                    "value": 0
                }
            },
            "effects": [],
            "flags": {},
            "folder": null,
            "img": "systems/pf2e/icons/default-icons/melee.svg",
            "name": "Massive Scythe",
            "permission": {
                "default": 0
            },
            "sort": 100000,
            "type": "melee"
        },
        {
            "_id": "b1QZ33BjtQXdUVJj",
            "data": {
                "attack": {
                    "value": ""
                },
                "attackEffects": {
                    "value": []
                },
                "baseItem": null,
                "bonus": {
                    "total": 38,
                    "value": 38
                },
                "brokenThreshold": {
                    "value": 0
                },
                "bulkCapacity": {
                    "value": ""
                },
                "collapsed": {
                    "value": false
                },
                "containerId": {
                    "value": ""
                },
                "damage": {
                    "damageType": "bludgeoning",
                    "die": "4d10+19"
                },
                "damageRolls": {
                    "0": {
                        "damage": "4d10+19",
                        "damageType": "bludgeoning"
                    },
                    "1": {
                        "damage": "1d6",
                        "damageType": "chaotic"
                    },
                    "2": {
                        "damage": "1d6",
                        "damageType": "fire"
                    }
                },
                "description": {
                    "value": ""
                },
                "equipped": {
                    "value": false
                },
                "equippedBulk": {
                    "value": ""
                },
                "hardness": {
                    "value": 0
                },
                "hp": {
                    "value": 0
                },
                "identification": {
                    "misidentified": {},
                    "status": "identified",
                    "unidentified": {
                        "data": {
                            "description": {
                                "value": ""
                            }
                        },
                        "img": "",
                        "name": ""
                    }
                },
                "invested": {
                    "value": false
                },
                "maxHp": {
                    "value": 0
                },
                "negateBulk": {
                    "value": "0"
                },
                "preciousMaterial": {
                    "value": ""
                },
                "preciousMaterialGrade": {
                    "value": ""
                },
                "price": {
                    "value": 0
                },
                "quantity": {
                    "value": 1
                },
                "rules": [],
                "size": {
                    "value": "med"
                },
                "slug": null,
                "source": {
                    "value": ""
                },
                "stackGroup": {
                    "value": ""
                },
                "traits": {
                    "custom": "",
                    "rarity": {
                        "value": "common"
                    },
                    "value": [
                        "adamantine",
                        "chaotic",
                        "magical",
                        "reach-20"
                    ]
                },
                "weaponType": {
                    "value": "melee"
                },
                "weight": {
                    "value": 0
                }
            },
            "effects": [],
            "flags": {},
            "folder": null,
            "img": "systems/pf2e/icons/default-icons/melee.svg",
            "name": "Cannon Arm",
            "permission": {
                "default": 0
            },
            "sort": 200000,
            "type": "melee"
        },
        {
            "_id": "OdVJynq0IATGWujh",
            "data": {
                "attack": {
                    "value": ""
                },
                "attackEffects": {
                    "custom": "",
                    "value": [
                        "knockdown"
                    ]
                },
                "baseItem": null,
                "bonus": {
                    "total": 40,
                    "value": 40
                },
                "brokenThreshold": {
                    "value": 0
                },
                "bulkCapacity": {
                    "value": ""
                },
                "collapsed": {
                    "value": false
                },
                "containerId": {
                    "value": ""
                },
                "damage": {
                    "damageType": "bludgeoning",
                    "die": "4d8+19"
                },
                "damageRolls": {
                    "0": {
                        "damage": "4d8+19",
                        "damageType": "bludgeoning"
                    },
                    "1": {
                        "damage": "1d6",
                        "damageType": "chaotic"
                    }
                },
                "description": {
                    "value": ""
                },
                "equipped": {
                    "value": false
                },
                "equippedBulk": {
                    "value": ""
                },
                "hardness": {
                    "value": 0
                },
                "hp": {
                    "value": 0
                },
                "identification": {
                    "misidentified": {},
                    "status": "identified",
                    "unidentified": {
                        "data": {
                            "description": {
                                "value": ""
                            }
                        },
                        "img": "",
                        "name": ""
                    }
                },
                "invested": {
                    "value": false
                },
                "maxHp": {
                    "value": 0
                },
                "negateBulk": {
                    "value": "0"
                },
                "preciousMaterial": {
                    "value": ""
                },
                "preciousMaterialGrade": {
                    "value": ""
                },
                "price": {
                    "value": 0
                },
                "quantity": {
                    "value": 1
                },
                "rules": [],
                "size": {
                    "value": "med"
                },
                "slug": null,
                "source": {
                    "value": ""
                },
                "stackGroup": {
                    "value": ""
                },
                "traits": {
                    "custom": "",
                    "rarity": {
                        "value": "common"
                    },
                    "value": [
                        "adamantine",
                        "chaotic",
                        "magical",
                        "reach-20"
                    ]
                },
                "weaponType": {
                    "value": "melee"
                },
                "weight": {
                    "value": 0
                }
            },
            "effects": [],
            "flags": {},
            "folder": null,
            "img": "systems/pf2e/icons/default-icons/melee.svg",
            "name": "Foot",
            "permission": {
                "default": 0
            },
            "sort": 300000,
            "type": "melee"
        },
        {
            "_id": "Dh4LCrV41VJjACPD",
            "data": {
                "attack": {
                    "value": ""
                },
                "attackEffects": {
                    "value": []
                },
                "baseItem": null,
                "bonus": {
                    "total": 29,
                    "value": 29
                },
                "brokenThreshold": {
                    "value": 0
                },
                "bulkCapacity": {
                    "value": ""
                },
                "collapsed": {
                    "value": false
                },
                "containerId": {
                    "value": ""
                },
                "damage": {
                    "damageType": "fire",
                    "die": "6d8+12"
                },
                "damageRolls": {
                    "0": {
                        "damage": "6d8+12",
                        "damageType": "fire"
                    },
                    "1": {
                        "damage": "1d6",
                        "damageType": "chaotic"
                    }
                },
                "description": {
                    "value": ""
                },
                "equipped": {
                    "value": false
                },
                "equippedBulk": {
                    "value": ""
                },
                "hardness": {
                    "value": 0
                },
                "hp": {
                    "value": 0
                },
                "identification": {
                    "misidentified": {},
                    "status": "identified",
                    "unidentified": {
                        "data": {
                            "description": {
                                "value": ""
                            }
                        },
                        "img": "",
                        "name": ""
                    }
                },
                "invested": {
                    "value": false
                },
                "maxHp": {
                    "value": 0
                },
                "negateBulk": {
                    "value": "0"
                },
                "preciousMaterial": {
                    "value": ""
                },
                "preciousMaterialGrade": {
                    "value": ""
                },
                "price": {
                    "value": 0
                },
                "quantity": {
                    "value": 1
                },
                "rules": [],
                "size": {
                    "value": "med"
                },
                "slug": null,
                "source": {
                    "value": ""
                },
                "stackGroup": {
                    "value": ""
                },
                "traits": {
                    "custom": "",
                    "rarity": {
                        "value": "common"
                    },
                    "value": [
                        "chaotic",
                        "magical",
                        "range-increment-60"
                    ]
                },
                "weaponType": {
                    "value": "ranged"
                },
                "weight": {
                    "value": 0
                }
            },
            "effects": [],
            "flags": {},
            "folder": null,
            "img": "systems/pf2e/icons/default-icons/melee.svg",
            "name": "Arcane Cannon",
            "permission": {
                "default": 0
            },
            "sort": 400000,
            "type": "melee"
        },
        {
            "_id": "LveVTPzs4hEN09k6",
            "data": {
                "actionCategory": {
                    "value": "interaction"
                },
                "actionType": {
                    "value": "passive"
                },
                "actions": {
                    "value": ""
                },
                "description": {
                    "chat": "",
                    "unidentified": "",
                    "value": "<p>A monster with darkvision can see perfectly well in areas of darkness and dim light, though such vision is in black and white only. Some forms of magical darkness, such as a 4th-level @Compendium[pf2e.spells-srd.Darkness]{Darkness} spell, block normal darkvision. A monster with @Compendium[pf2e.bestiary-ability-glossary-srd.Greater Darkvision]{Greater Darkvision}, however, can see through even these forms of magical darkness.</p>"
                },
                "requirements": {
                    "value": ""
                },
                "rules": [],
                "slug": "darkvision",
                "source": {
                    "value": ""
                },
                "traits": {
                    "custom": "",
                    "rarity": {
                        "value": "common"
                    },
                    "value": []
                },
                "trigger": {
                    "value": ""
                },
                "weapon": {
                    "value": ""
                }
            },
            "effects": [],
            "flags": {
                "core": {
                    "sourceId": "Compendium.pf2e.bestiary-ability-glossary-srd.qCCLZhnp2HhP3Ex6"
                }
            },
            "folder": null,
            "img": "systems/pf2e/icons/default-icons/action.svg",
            "name": "Darkvision",
            "permission": {
                "default": 0
            },
            "sort": 500000,
            "type": "action"
        },
        {
            "_id": "1HjWqCIXUjmknlZE",
            "data": {
                "actionCategory": {
                    "value": "offensive"
                },
                "actionType": {
                    "value": "passive"
                },
                "actions": {
                    "value": ""
                },
                "description": {
                    "value": "<p>Chaos Gulgamodh’s body— including the appendages it uses to make melee Strikes—is made of adamantine.</p>"
                },
                "requirements": {
                    "value": ""
                },
                "rules": [],
                "slug": null,
                "source": {
                    "value": ""
                },
                "traits": {
                    "custom": "",
                    "rarity": {
                        "value": "common"
                    },
                    "value": []
                },
                "trigger": {
                    "value": ""
                },
                "weapon": {
                    "value": ""
                }
            },
            "effects": [],
            "flags": {},
            "folder": null,
            "img": "systems/pf2e/icons/actions/Passive.webp",
            "name": "Adamantine Strikes",
            "permission": {
                "default": 0
            },
            "sort": 600000,
            "type": "action"
        },
        {
            "_id": "268BBCle1rCc1g1d",
            "data": {
                "actionCategory": {
                    "value": "offensive"
                },
                "actionType": {
                    "value": "action"
                },
                "actions": {
                    "value": "2"
                },
                "description": {
                    "value": "<p>Chaos Gulgamodh unleashes a salvo of explosive blasts in a 30-foot cone. Creatures in the area take [[/r 10d10+20 #fire]] fire damage (<span data-pf2-saving-throw=\"reflex\" data-pf2-traits=\"damaging-effect\" data-pf2-label=\"Cannon Fusillade DC\" data-pf2-dc=\"43\" data-pf2-show-dc=\"gm\">basic Reflex</span> save).</p>\n<div data-visibility=\"gm\">\n<p>On a failed save, a creature is subjected to a @RollTable[cBHMpmeIhoBdUyQT]{Warpwave} effect. On a critically failed save, a creature is @Compendium[pf2e.conditionitems.Stunned]{Stunned 1}.</p>\n<p>Chaos Gulgamodh can't use again for [[/br 1d4 #rounds]] rounds.</p>\n</div>"
                },
                "requirements": {
                    "value": ""
                },
                "rules": [],
                "slug": null,
                "source": {
                    "value": ""
                },
                "traits": {
                    "custom": "",
                    "rarity": {
                        "value": "common"
                    },
                    "value": []
                },
                "trigger": {
                    "value": ""
                },
                "weapon": {
                    "value": ""
                }
            },
            "effects": [],
            "flags": {},
            "folder": null,
            "img": "systems/pf2e/icons/actions/TwoActions.webp",
            "name": "Cannon Fusillade",
            "permission": {
                "default": 0
            },
            "sort": 700000,
            "type": "action"
        },
        {
            "_id": "FsASThbyptq4QfWi",
            "data": {
                "actionCategory": {
                    "value": "offensive"
                },
                "actionType": {
                    "value": "action"
                },
                "actions": {
                    "value": "3"
                },
                "description": {
                    "chat": "",
                    "unidentified": "",
                    "value": "<p>Huge or smaller, foot, <span data-pf2-saving-throw=\"reflex\" data-pf2-traits=\"damaging-effect\" data-pf2-label=\"Trample DC\" data-pf2-dc=\"43\" data-pf2-show-dc=\"gm\">basic Reflex</span></p>\n<hr />\n<p>The monster Strides up to double its Speed and can move through the spaces of creatures of the listed size, Trampling each creature whose space it enters. The monster can attempt to Trample the same creature only once in a single use of Trample. The monster deals the damage of the listed Strike, but trampled creatures can attempt a basic Reflex save at the listed DC (no damage on a critical success, half damage on a success, double damage on a critical failure).</p>"
                },
                "requirements": {
                    "value": ""
                },
                "rules": [],
                "slug": "trample",
                "source": {
                    "value": ""
                },
                "traits": {
                    "custom": "",
                    "rarity": {
                        "value": "common"
                    },
                    "value": []
                },
                "trigger": {
                    "value": ""
                },
                "weapon": {
                    "value": ""
                }
            },
            "effects": [],
            "flags": {
                "core": {
                    "sourceId": "Compendium.pf2e.bestiary-ability-glossary-srd.UNah0bxXxkcZjxO3"
                }
            },
            "folder": null,
            "img": "systems/pf2e/icons/actions/ThreeActions.webp",
            "name": "Trample",
            "permission": {
                "default": 0
            },
            "sort": 800000,
            "type": "action"
        },
        {
            "_id": "VSaPPvdgJDTYrZHJ",
            "data": {
                "actionCategory": {
                    "value": "offensive"
                },
                "actionType": {
                    "value": "action"
                },
                "actions": {
                    "value": "1"
                },
                "description": {
                    "chat": "",
                    "unidentified": "",
                    "value": "<p><strong>Requirements</strong> The monster's last action was a success with a Strike that lists Knockdown in its damage entry.</p>\n<p><strong>Effect</strong> The monster knocks the target @Compendium[pf2e.conditionitems.Prone]{Prone}.</p>"
                },
                "requirements": {
                    "value": ""
                },
                "rules": [],
                "slug": "knockdown",
                "source": {
                    "value": ""
                },
                "traits": {
                    "custom": "",
                    "rarity": {
                        "value": "common"
                    },
                    "value": []
                },
                "trigger": {
                    "value": ""
                },
                "weapon": {
                    "value": ""
                }
            },
            "effects": [],
            "flags": {
                "core": {
                    "sourceId": "Compendium.pf2e.bestiary-ability-glossary-srd.BCLvAx4Pz4MLa2pu"
                }
            },
            "folder": null,
            "img": "systems/pf2e/icons/actions/OneAction.webp",
            "name": "Knockdown",
            "permission": {
                "default": 0
            },
            "sort": 900000,
            "type": "action"
        },
        {
            "_id": "rd3OhTbRKyxAIFmj",
            "data": {
                "description": {
                    "value": ""
                },
                "item": {
                    "value": 0
                },
                "mod": {
                    "value": 40
                },
                "proficient": {
                    "value": 0
                },
                "rules": [],
                "slug": null,
                "source": {
                    "value": ""
                },
                "traits": {
                    "custom": "",
                    "rarity": {
                        "value": "common"
                    },
                    "value": []
                }
            },
            "effects": [],
            "flags": {},
            "folder": null,
            "img": "systems/pf2e/icons/default-icons/lore.svg",
            "name": "Athletics",
            "permission": {
                "default": 0
            },
            "sort": 1000000,
            "type": "lore"
        }
    ],
    "name": "Chaos Gulgamodh",
    "permission": {
        "default": 0
    },
    "token": {
        "actorId": "3KFnlVsMz3vr3r2W",
        "actorLink": false,
        "alpha": 1,
        "bar1": {
            "attribute": null
        },
        "bar2": {
            "attribute": null
        },
        "brightLight": 0,
        "brightSight": 0,
        "dimLight": 0,
        "dimSight": 0,
        "displayBars": 0,
        "displayName": 0,
        "disposition": -1,
        "flags": {},
        "height": 4,
        "img": "systems/pf2e/icons/default-icons/npc.svg",
        "lightAlpha": 1,
        "lightAngle": 0,
        "lightAnimation": {
            "intensity": 5,
            "speed": 5
        },
        "lockRotation": false,
        "mirrorX": false,
        "mirrorY": false,
        "name": "Chaos Gulgamodh",
        "randomImg": false,
        "rotation": 0,
        "scale": 1,
        "sightAngle": 0,
        "tint": null,
        "vision": false,
        "width": 4
    },
    "type": "npc"
}
