{
    "_id": "ApEn56YEz9xavgug",
    "data": {
        "attributes": {
            "ac": {
                "value": 28
            },
            "hardness": 14,
            "hasHealth": true,
            "hp": {
                "details": "; <strong>Bar Hardness</strong>15, <strong>Bar HP</strong> 40 (BT 20)",
                "max": 50,
                "temp": 0,
                "tempmax": 0,
                "value": 50
            },
            "stealth": {
                "details": "(expert)",
                "value": 17
            }
        },
        "creatureType": "",
        "details": {
            "description": "A magical magnet hidden behind a panel in the corner of the room pulls not metal but living creatures toward it, heedless of any obstacles in the way.",
            "disable": "<p>DC 29 Thievery (expert) to deactivate the panel, or @Compendium[pf2e.spells-srd.Dispel Magic]{Dispel Magic};(4th level; counteract DC 22) to counteract the panel's magic</p>",
            "isComplex": true,
            "level": 7,
            "reset": "The trap deactivates and resets 1 minute after there are no creatures touching the iron bars.",
            "routine": "<p>(1 action) The trap pulls up to four creatures that have already triggered its Magnetize the Living ability toward one of the far corners of the room, possibly pressing them into the iron bars. If all the iron bars between an affected creature and the magnetic panel remain intact, the creature takes [[/r 2d10+10 #bludgeoning]] bludgeoning damage with a <span data-pf2-saving-throw=\"fortitude\" data-pf2-dc=\"25\" data-pf2-label=\"Life Magnet DC\" data-pf2-show-dc=\"gm\">DC 25 basic Fortitude</span> save and is restrained on a failure (Escape DC 23).</p>\n<p><span data-visibility=\"gm\">If an iron bar has been broken, the creature takes [[/r 1d10+5 #bludgeoning]] bludgeoning damage instead, and if two consecutive bars have been broken the creature takes no damage (but might still be restrained on a failed save).</span></p>"
        },
        "recallKnowledgeText": "",
        "saves": {
            "fortitude": {
                "rank": 0,
                "saveDetail": "",
                "value": 20
            },
            "reflex": {
                "rank": 0,
                "saveDetail": "",
                "value": 18
            },
            "will": {
                "rank": 0,
                "saveDetail": "",
                "value": 0
            }
        },
        "schema": {
            "version": {
                "value": ""
            }
        },
        "source": {
            "value": ""
        },
        "statusEffects": [],
        "traits": {
            "ci": [],
            "di": {
                "custom": "",
                "selected": {},
                "value": [
                    "precision",
                    "critical-hits",
                    "object-immunities"
                ]
            },
            "dr": [],
            "dv": [],
            "rarity": {
                "value": "common"
            },
            "size": {
                "value": "med"
            },
            "traits": {
                "custom": "",
                "value": [
                    "magical",
                    "trap"
                ]
            }
        }
    },
    "effects": [],
    "flags": {},
    "folder": null,
    "img": "systems/pf2e/icons/default-icons/hazard.svg",
    "items": [
        {
            "_id": "Dm6lDovIDGIcISuP",
            "data": {
                "actionCategory": {
                    "value": "offensive"
                },
                "actionType": {
                    "value": "reaction"
                },
                "actions": {
                    "value": ""
                },
                "description": {
                    "chat": "",
                    "unidentified": "",
                    "value": "<p><strong>Trigger</strong> A creature touches any of the iron bars in this area or touches a creature already affected by the trap;</p>\n<p><strong>Effect</strong> The magical panel hidden in the far corner of the chamber (either the western or the eastern corner, depending on which side of the room the creature was closest to when it triggered the trap) \"magnetizes\" the triggering creature and violently pulls it toward the corner, automatically dealing [[/r 2d10+10 #bludgeoning]] bludgeoning damage to the creature.</p>\n<p>The trap then rolls initiative if it hasn't already done so.</p>"
                },
                "requirements": {
                    "value": ""
                },
                "rules": [],
                "slug": null,
                "source": {
                    "value": ""
                },
                "traits": {
                    "custom": "",
                    "rarity": {
                        "value": "common"
                    },
                    "value": []
                },
                "trigger": {
                    "value": ""
                },
                "usage": {
                    "value": "held-in-one-hand"
                },
                "weapon": {
                    "value": ""
                }
            },
            "effects": [],
            "flags": {},
            "folder": null,
            "img": "systems/pf2e/icons/actions/Reaction.webp",
            "name": "Magnetize the Living",
            "permission": {
                "default": 0
            },
            "sort": 100000,
            "type": "action"
        }
    ],
    "name": "Life Magnet",
    "permission": {
        "default": 0
    },
    "token": {
        "actorId": "ApEn56YEz9xavgug",
        "actorLink": false,
        "alpha": 1,
        "bar1": {
            "attribute": null
        },
        "bar2": {
            "attribute": null
        },
        "brightLight": 0,
        "brightSight": 0,
        "dimLight": 0,
        "dimSight": 0,
        "displayBars": 20,
        "displayName": 20,
        "disposition": 0,
        "flags": {},
        "height": 1,
        "img": "systems/pf2e/icons/default-icons/hazard.svg",
        "lightAlpha": 1,
        "lightAngle": 0,
        "lightAnimation": {
            "intensity": 5,
            "speed": 5
        },
        "lockRotation": false,
        "mirrorX": false,
        "mirrorY": false,
        "name": "Life Magnet",
        "randomImg": false,
        "rotation": 0,
        "scale": 1,
        "sightAngle": 0,
        "tint": null,
        "vision": false,
        "width": 1
    },
    "type": "hazard"
}
