{
    "_id": "QHcBauLnHzfwkDBK",
    "data": {
        "attributes": {
            "ac": {
                "value": 10
            },
            "hardness": 0,
            "hasHealth": false,
            "hp": {
                "details": "",
                "max": 0,
                "temp": 0,
                "tempmax": 0,
                "value": 0
            },
            "stealth": {
                "details": "<p>(trained)</p>",
                "value": 12
            }
        },
        "creatureType": "",
        "details": {
            "description": "<p>An invisible cloud of magical sensors detects living creatures in the room and summons fire elementals to slay the creatures.</p>",
            "disable": "<p>DC 22 Acrobatics (trained) to approach without triggering the trap, followed by DC 22 Thievery (trained) to erase the rune or @Compendium[pf2e.spells-srd.Dispel Magic]{Dispel Magic} (3rd level; counteract DC 20) to counteract the rune</p>",
            "isComplex": true,
            "level": 5,
            "reset": "The trap resets each day at dawn.",
            "routine": ""
        },
        "recallKnowledgeText": "",
        "saves": {
            "fortitude": {
                "rank": 0,
                "saveDetail": "",
                "value": 0
            },
            "reflex": {
                "rank": 0,
                "saveDetail": "",
                "value": 0
            },
            "will": {
                "rank": 0,
                "saveDetail": "",
                "value": 0
            }
        },
        "schema": {
            "version": {
                "value": ""
            }
        },
        "source": {
            "value": ""
        },
        "statusEffects": [],
        "traits": {
            "ci": [],
            "di": {
                "custom": "",
                "selected": {},
                "value": []
            },
            "dr": [],
            "dv": [],
            "rarity": {
                "value": "common"
            },
            "size": {
                "value": "med"
            },
            "traits": {
                "custom": "",
                "value": [
                    "magical",
                    "trap"
                ]
            }
        }
    },
    "effects": [],
    "flags": {},
    "folder": null,
    "img": "systems/pf2e/icons/default-icons/hazard.svg",
    "items": [
        {
            "_id": "oXzm9KqLtbgKvm14",
            "data": {
                "actionCategory": {
                    "value": ""
                },
                "actionType": {
                    "value": "reaction"
                },
                "actions": {
                    "value": ""
                },
                "description": {
                    "chat": "",
                    "unidentified": "",
                    "value": "<p><strong>Trigger</strong> A living creature enters the room;</p>\n<p><strong>Effect</strong> Two rounds after a creature enters the room, the room's door slams shut and locks (two DC 20 Thievery checks to pick), and two @Compendium[pf2e.pathfinder-bestiary.Cinder Rat]{Cinder Rat} fire elementals emerge from the floor.</p>\n<p>The elementals roll initiative and remain for [[/br 3d6 #rounds]] rounds, after which the spell ends and the creatures disappear. The elementals also disappear if someone disables the trap before the duration expires.</p>\n<p>The summoned elementals can use 3 actions each round and can use reactions, unlike most summoned creatures.</p>"
                },
                "requirements": {
                    "value": ""
                },
                "rules": [],
                "slug": null,
                "source": {
                    "value": ""
                },
                "traits": {
                    "custom": "",
                    "rarity": {
                        "value": "common"
                    },
                    "value": [
                        "arcane",
                        "conjuration",
                        "summon"
                    ]
                },
                "trigger": {
                    "value": ""
                },
                "usage": {
                    "value": "held-in-one-hand"
                },
                "weapon": {
                    "value": ""
                }
            },
            "effects": [],
            "flags": {},
            "folder": null,
            "img": "systems/pf2e/icons/actions/Reaction.webp",
            "name": "Summon Elementals",
            "permission": {
                "default": 0
            },
            "sort": 100000,
            "type": "action"
        }
    ],
    "name": "Summoning Rune (Cinder Rat)",
    "permission": {
        "default": 0
    },
    "token": {
        "actorId": "QHcBauLnHzfwkDBK",
        "actorLink": false,
        "alpha": 1,
        "bar1": {
            "attribute": null
        },
        "bar2": {
            "attribute": null
        },
        "brightLight": 0,
        "brightSight": 0,
        "dimLight": 0,
        "dimSight": 0,
        "displayBars": 20,
        "displayName": 20,
        "disposition": 0,
        "flags": {},
        "height": 1,
        "img": "systems/pf2e/icons/default-icons/hazard.svg",
        "lightAlpha": 1,
        "lightAngle": 0,
        "lightAnimation": {
            "intensity": 5,
            "speed": 5
        },
        "lockRotation": false,
        "mirrorX": false,
        "mirrorY": false,
        "name": "Summoning Rune (Cinder Rat)",
        "randomImg": false,
        "rotation": 0,
        "scale": 1,
        "sightAngle": 0,
        "tint": null,
        "vision": false,
        "width": 1
    },
    "type": "hazard"
}
