{
    "_id": "FiVYuIPTBzPzNP4E",
    "data": {
        "actionCategory": {
            "value": ""
        },
        "actionType": {
            "value": "passive"
        },
        "actions": {
            "value": ""
        },
        "description": {
            "chat": "",
            "unidentified": "",
            "value": "<p>Your skill with light and medium armor improves, increasing your ability to dodge blows. Your proficiency ranks for medium armor, light armor and unarmored defense increase to master.</p>"
        },
        "featType": {
            "value": "classfeature"
        },
        "level": {
            "value": 19
        },
        "location": "",
        "prerequisites": {
            "value": []
        },
        "rules": [],
        "source": {
            "value": ""
        },
        "traits": {
            "custom": "",
            "rarity": {
                "value": "common"
            },
            "value": [
                "alchemist"
            ]
        }
    },
    "effects": [
        {
            "_id": "oUtUcD8Q2nkfiT1n",
            "changes": [
                {
                    "key": "data.martial.unarmored.rank",
                    "mode": 4,
                    "value": "3"
                },
                {
                    "key": "data.martial.light.rank",
                    "mode": 4,
                    "value": "3"
                },
                {
                    "key": "data.martial.medium.rank",
                    "mode": 4,
                    "value": "3"
                }
            ],
            "disabled": false,
            "duration": {
                "startTime": null
            },
            "flags": {},
            "icon": "systems/pf2e/icons/features/classes/light-armor-master.webp",
            "label": "Alchemist Armor Mastery (Level 19)",
            "origin": "",
            "tint": null,
            "transfer": true
        }
    ],
    "flags": {},
    "folder": null,
    "img": "systems/pf2e/icons/features/classes/light-armor-master.webp",
    "name": "Alchemist Armor Mastery (Level 19)",
    "permission": {
        "default": 0
    },
    "type": "feat"
}
