{
    "_id": "gjOGOR30Czpnx3tM",
    "data": {
        "actionCategory": {
            "value": ""
        },
        "actionType": {
            "value": "passive"
        },
        "actions": {
            "value": ""
        },
        "description": {
            "chat": "",
            "unidentified": "",
            "value": "<p>Warlike forces fill you with physical might and tactical knowledge, aiming to have you uphold the glory of combat, fight to improve the world, prepare against the necessity of conflict, or endure the inevitability of war. You might draw upon deities such as Gorum, Iomedae, Rovagug, the Horseman of War Szuriel, the Queen of the Night Eiseth, the Vudrani god Diomazul, and others, or you might find power in the unending conflict between the armies of Heaven and Hell, the Elemental Planes, the Outer Gods, or even the collective spirits of those who fought in wars over the ages.</p>\n<p><strong>Mystery Benefit</strong></p>\n<p>You are no stranger to the trappings of warfare. You are trained in medium and heavy armor. At 13th level, if you gain the light armor expertise class feature, you also gain expert proficiency in these armors.</p>\n<p>Choose one weapon group that embodies your mystery. You are trained in all martial weapons of that group. At 11th level, if you gain the weapon expertise class feature, you also gain expert proficiency for martial weapons in your chosen group, and you become trained in advanced weapons in that group.</p>\n<p><strong>Trained Skill</strong> Athletics</p>\n<p><strong>Granted Cantrip</strong> @Compendium[pf2e.spells-srd.Shield]{Shield}</p>\n<p><strong>Revelation Spells</strong></p>\n<ul>\n<li>Initial @Compendium[pf2e.spells-srd.Call to Arms]{Call to Arms};</li>\n<li>Advanced @Compendium[pf2e.spells-srd.Battlefield Persistence]{Battlefield Persistence};</li>\n<li>Greater @Compendium[pf2e.spells-srd.Heroic Feat]{Heroic Feat}</li>\n</ul>\n<p><strong>Related Domains</strong> might, zeal</p>\n<h3>Curse of the Hero's Burden</h3>\n<p>You thrive while adrenaline flows and your life depends on your might alone, but holding the collective battle prowess of the ages within you leaves your body weakened after a fight. You smell faintly of steel and blood no matter how you try to remove or mask the scent, you appear more muscular than you actually are, and you hear the faint clash and clamor of battle in the distance at all times.</p>\n<h4>Minor Curse</h4>\n<p>Your body languishes when you aren't bringing harm to your foes. You take a -2 status penalty to AC and saving throws, but each time you make a Strike, you can suspend these penalties until the start of your next turn.</p>\n<p>@Compendium[pf2e.feature-effects.Effect: Minor Battle Curse]{Effect: Minor Battle Curse}</p>\n<h4>Moderate Curse</h4>\n<p>The strain of conflict wears upon your body, even though you gain vitality from it. Making a Strike reduces the penalty from your minor curse to -1 rather than suspending it entirely. You gain a +2 status bonus to weapon and unarmed damage rolls. You also gain fast healing equal to half your level while in a non-trivial combat encounter.</p>\n<p>@Compendium[pf2e.feature-effects.Effect: Moderate Battle Curse]{Effect: Moderate Battle Curse}</p>\n<h4>Major Curse (11th)</h4>\n<p>Your body proves capable of truly heroic feats, but doing so interferes with your mental focus. Your moderate curse's fast healing is equal to your level, and its damage bonus is +6. You gain a +1 status bonus to weapon and unarmed attack rolls, but you are @Compendium[pf2e.conditionitems.Stupefied]{Stupefied 2}.</p>\n<p>@Compendium[pf2e.feature-effects.Effect: Major Battle Curse]{Effect: Major Battle Curse}</p>"
        },
        "featType": {
            "value": "classfeature"
        },
        "level": {
            "value": 1
        },
        "location": "",
        "prerequisites": {
            "value": []
        },
        "rules": [],
        "source": {
            "value": ""
        },
        "traits": {
            "custom": "",
            "rarity": {
                "value": "common"
            },
            "value": [
                "oracle"
            ]
        }
    },
    "effects": [
        {
            "_id": "QA3zugTpNjb8WW41",
            "changes": [
                {
                    "key": "data.skills.ath.rank",
                    "mode": 4,
                    "value": "1"
                },
                {
                    "key": "data.martial.medium.rank",
                    "mode": 4,
                    "value": "1"
                },
                {
                    "key": "data.martial.heavy.rank",
                    "mode": 4,
                    "value": "1"
                }
            ],
            "disabled": false,
            "duration": {
                "startTime": null
            },
            "flags": {},
            "icon": "systems/pf2e/icons/features/classes/battle-mystery.webp",
            "label": "Battle Mystery",
            "origin": "",
            "tint": null,
            "transfer": true
        }
    ],
    "flags": {},
    "folder": null,
    "img": "systems/pf2e/icons/features/classes/battle-mystery.webp",
    "name": "Battle Mystery",
    "permission": {
        "default": 0
    },
    "type": "feat"
}
