{
    "_id": "qMZiTugiLCEmkg8h",
    "data": {
        "actionCategory": {
            "value": ""
        },
        "actionType": {
            "value": "passive"
        },
        "actions": {
            "value": ""
        },
        "description": {
            "chat": "",
            "unidentified": "",
            "value": "<p>Through your patron, you gain glimpses of the future and insight into the ever-woven tapestry of time.</p>\n<p><strong>Spell List</strong> occult</p>\n<p><strong>Patron Skill</strong> Occultism</p>\n<p><strong>Hex Cantrip</strong> @Compendium[pf2e.spells-srd.Nudge Fate]{Nudge Fate}</p>\n<p><strong>Granted Spell</strong> @Compendium[pf2e.spells-srd.True Strike]{True Strike}</p>"
        },
        "featType": {
            "value": "classfeature"
        },
        "level": {
            "value": 1
        },
        "location": "",
        "prerequisites": {
            "value": []
        },
        "rules": [],
        "source": {
            "value": ""
        },
        "traits": {
            "custom": "",
            "rarity": {
                "value": "common"
            },
            "value": [
                "witch"
            ]
        }
    },
    "effects": [
        {
            "_id": "SW18OBIj50XLeB2B",
            "changes": [
                {
                    "key": "data.skills.occ.rank",
                    "mode": 4,
                    "value": "1"
                }
            ],
            "disabled": false,
            "duration": {
                "startTime": null
            },
            "flags": {},
            "icon": "systems/pf2e/icons/features/classes/fate.webp",
            "label": "Fate Patron",
            "origin": "",
            "tint": null,
            "transfer": true
        }
    ],
    "flags": {},
    "folder": null,
    "img": "systems/pf2e/icons/features/classes/fate.webp",
    "name": "Fate Patron",
    "permission": {
        "default": 0
    },
    "type": "feat"
}
