{
    "_id": "4IfYHrQMosJNM8hv",
    "data": {
        "actionCategory": {
            "value": ""
        },
        "actionType": {
            "value": "passive"
        },
        "actions": {
            "value": ""
        },
        "description": {
            "chat": "",
            "unidentified": "",
            "value": "<p>Your patron represents a grand ideal or goal, granting you magic to further their mission and bring others to the cause.</p>\n<p><strong>Spell List</strong> divine</p>\n<p><strong>Patron Skill</strong> Religion</p>\n<p><strong>Hex Cantrip</strong> @Compendium[pf2e.spells-srd.Stoke the Heart]{Stoke the Heart}</p>\n<p><strong>Granted Spell</strong> @Compendium[pf2e.spells-srd.Command]{Command}</p>"
        },
        "featType": {
            "value": "classfeature"
        },
        "level": {
            "value": 1
        },
        "location": "",
        "prerequisites": {
            "value": []
        },
        "rules": [],
        "source": {
            "value": ""
        },
        "traits": {
            "custom": "",
            "rarity": {
                "value": "common"
            },
            "value": [
                "witch"
            ]
        }
    },
    "effects": [
        {
            "_id": "uzlGbQx75VvVw80S",
            "changes": [
                {
                    "key": "data.skills.rel.rank",
                    "mode": 4,
                    "value": "1"
                }
            ],
            "disabled": false,
            "duration": {
                "startTime": null
            },
            "flags": {},
            "icon": "systems/pf2e/icons/features/classes/fervor.webp",
            "label": "Fervor Patron",
            "origin": "",
            "tint": null,
            "transfer": true
        }
    ],
    "flags": {},
    "folder": null,
    "img": "systems/pf2e/icons/features/classes/fervor.webp",
    "name": "Fervor Patron",
    "permission": {
        "default": 0
    },
    "type": "feat"
}
