{
    "_id": "4lGhbEjlEoGP4scl",
    "data": {
        "actionCategory": {
            "value": ""
        },
        "actionType": {
            "value": "passive"
        },
        "actions": {
            "value": ""
        },
        "description": {
            "chat": "",
            "unidentified": "",
            "value": "<p>You are friendly, clever, and full of humor, always knowing just what to say in any situation. Your witticisms leave foes unprepared for the skill and speed of your attacks.</p>\n<p>You are trained in Diplomacy and gain the @Compendium[pf2e.feats-srd.Bon Mot]{Bon Mot} skill feat. You gain @Compendium[pf2e.classfeatures.Panache]{Panache} during an encounter whenever you succeed at a Bon Mot against a foe.</p>"
        },
        "featType": {
            "value": "classfeature"
        },
        "level": {
            "value": 1
        },
        "location": "",
        "prerequisites": {
            "value": []
        },
        "rules": [
            {
                "key": "PF2E.RuleElement.FlatModifier",
                "predicate": {
                    "all": [
                        "panache"
                    ],
                    "any": [
                        "action:bon-mot"
                    ]
                },
                "selector": "diplomacy",
                "type": "circumstance",
                "value": 1
            }
        ],
        "source": {
            "value": ""
        },
        "traits": {
            "custom": "",
            "rarity": {
                "value": "common"
            },
            "value": [
                "swashbuckler"
            ]
        }
    },
    "effects": [
        {
            "_id": "qimKABhZLCDKt5yH",
            "changes": [
                {
                    "key": "data.skills.dip.rank",
                    "mode": 4,
                    "value": "1"
                }
            ],
            "disabled": false,
            "duration": {
                "startTime": null
            },
            "flags": {},
            "icon": "systems/pf2e/icons/features/classes/wit-style.webp",
            "label": "Wit Style",
            "origin": "",
            "tint": null,
            "transfer": true
        }
    ],
    "flags": {},
    "folder": null,
    "img": "systems/pf2e/icons/features/classes/wit-style.webp",
    "name": "Wit Style",
    "permission": {
        "default": 0
    },
    "type": "feat"
}
