{
    "_id": "fyuZlKJ4N0zScltj",
    "data": {
        "description": {
            "value": "<p>An aura of a whirling storm whips up in a 10-foot emanation around you and in your space. The aura puts out small non-magical fires 1 round after they're lit or brought into your aura. The whirling winds impose a -2 circumstance penalty on ranged attack rolls using physical ammunition that target you or originate from you.</p>\n<p>Electrical energy builds up within your storm, turning you into a lightning rod; you gain weakness 5 (or half your level, whichever is greater) to electricity, but torrential rain grants you an equal amount of fire resistance. Electricity spells or effects that have additional effects for a creature wearing or holding metal treat you as though you were wearing metal.</p>\n<hr />\n<p><em>Note: The penalty to ranged attack rolls that you make is applied automatically. You need to apply the remaining effects manually.</em></p>"
        },
        "duration": {
            "expiry": "turn-start",
            "sustained": false,
            "unit": "unlimited",
            "value": -1
        },
        "level": {
            "value": 1
        },
        "rules": [
            {
                "key": "PF2E.RuleElement.TokenEffectIcon"
            },
            {
                "key": "PF2E.RuleElement.FlatModifier",
                "label": "Moderate Tempest Curse (ranged physical attacks)",
                "predicate": {
                    "all": [
                        "ranged"
                    ]
                },
                "selector": "attack",
                "type": "circumstance",
                "value": -2
            }
        ],
        "source": {
            "value": ""
        },
        "start": {
            "initiative": null,
            "value": 0
        },
        "target": null,
        "traits": {
            "custom": "",
            "rarity": {
                "value": "common"
            },
            "value": []
        }
    },
    "effects": [],
    "flags": {},
    "img": "systems/pf2e/icons/features/classes/tempest-mystery.webp",
    "name": "Effect: Moderate Tempest Curse",
    "permission": {
        "default": 0
    },
    "type": "effect"
}
