{
    "_id": "mpGCMTldMVa0pWYs",
    "data": {
        "ability": {
            "value": ""
        },
        "area": {
            "areaType": "emanation",
            "value": 10
        },
        "areasize": {
            "value": "10-foot emanation centered on the touched creature"
        },
        "category": {
            "value": "spell"
        },
        "components": {
            "material": true,
            "somatic": true,
            "verbal": true
        },
        "cost": {
            "value": ""
        },
        "damage": {
            "applyMod": false,
            "value": ""
        },
        "damageType": {
            "value": ""
        },
        "description": {
            "chat": "",
            "unidentified": "",
            "value": "<p>You ward a creature and those nearby against a specified alignment. Choose chaotic, evil, good, or lawful; this spell gains the opposing trait. Creatures in the area gain a +1 status bonus to AC against attacks by creatures of the chosen alignment and to saves against effects from such creatures. This bonus increases to +3 against effects from such creatures that directly control the target and attacks made by summoned creatures of the chosen alignment. Summoned creatures of the chosen alignment can't willingly enter the area without succeeding at a Will save; repeated attempts use the first save result.</p>\n<hr />\n<p><strong>Heightened (4th)</strong> The duration increases to 1 hour.</p>"
        },
        "duration": {
            "value": "1 minute"
        },
        "hasCounteractCheck": {
            "value": false
        },
        "level": {
            "value": 3
        },
        "location": {
            "value": ""
        },
        "materials": {
            "value": ""
        },
        "prepared": {
            "value": ""
        },
        "primarycheck": {
            "value": ""
        },
        "range": {
            "value": "touch"
        },
        "rules": [],
        "save": {
            "basic": "",
            "value": ""
        },
        "scaling": {
            "formula": "",
            "mode": "none"
        },
        "school": {
            "value": "abjuration"
        },
        "secondarycasters": {
            "value": ""
        },
        "secondarycheck": {
            "value": ""
        },
        "source": {
            "value": ""
        },
        "spellType": {
            "value": "utility"
        },
        "sustained": {
            "value": false
        },
        "target": {
            "value": ""
        },
        "time": {
            "value": "3"
        },
        "traditions": {
            "value": [
                "divine",
                "occult"
            ]
        },
        "traits": {
            "custom": "",
            "rarity": {
                "value": "uncommon"
            },
            "value": [
                "uncommon",
                "abjuration"
            ]
        }
    },
    "effects": [],
    "flags": {},
    "folder": null,
    "img": "systems/pf2e/icons/spells/circle-of-protection.webp",
    "name": "Circle of Protection",
    "permission": {
        "default": 0
    },
    "type": "spell"
}
