{
    "_id": "UmXhuKrYZR3W16mQ",
    "data": {
        "ability": {
            "value": ""
        },
        "area": {
            "areaType": "",
            "value": ""
        },
        "areasize": {
            "value": ""
        },
        "category": {
            "value": "focus"
        },
        "components": {
            "material": false,
            "somatic": true,
            "verbal": false
        },
        "cost": {
            "value": ""
        },
        "damage": {
            "applyMod": false,
            "value": ""
        },
        "damageType": {
            "value": ""
        },
        "description": {
            "chat": "",
            "unidentified": "",
            "value": "<p>You call upon your patron's power to better uncover secrets.</p>\n<p>When you Cast the Spell, the target can @Compendium[pf2e.actionspf2e.Recall Knowledge (Lore)]{Recall Knowledge}, @Compendium[pf2e.actionspf2e.Seek]{Seek}, or @Compendium[pf2e.actionspf2e.Sense Motive]{Sense Motive}. The target gains a +1 status bonus to the skill or Perception used for the roll, and this bonus remains as long as you @Compendium[pf2e.actionspf2e.Sustain a Spell]{Sustain the Spell}.</p>\n<p>The target is temporarily immune to discern secrets for 1 minute.</p>\n<hr />\n<p><strong>Heightened (5th)</strong> You can target two creatures instead of one.</p>\n<p>@Compendium[pf2e.spell-effects.Spell Effect: Discern Secrets (Recall Knowledge)]{Spell Effect: Discern Secrets (Recall Knowledge)}</p>\n<p>@Compendium[pf2e.spell-effects.Spell Effect: Discern Secrets (Seek)]{Spell Effect: Discern Secrets (Seek)}</p>\n<p>@Compendium[pf2e.spell-effects.Spell Effect: Discern Secrets (Sense Motive)]{Spell Effect: Discern Secrets (Sense Motive)}</p>"
        },
        "duration": {
            "value": "Sustained up to 1 minute"
        },
        "hasCounteractCheck": {
            "value": false
        },
        "level": {
            "value": 1
        },
        "location": {
            "value": "gj8uSdGt5Fbk1fGz"
        },
        "materials": {
            "value": ""
        },
        "prepared": {
            "value": ""
        },
        "primarycheck": {
            "value": ""
        },
        "range": {
            "value": "30 feet"
        },
        "rules": [],
        "save": {
            "basic": "",
            "value": ""
        },
        "scaling": {
            "formula": "",
            "mode": "none"
        },
        "school": {
            "value": "divination"
        },
        "secondarycasters": {
            "value": ""
        },
        "secondarycheck": {
            "value": ""
        },
        "source": {
            "value": ""
        },
        "spellType": {
            "value": "utility"
        },
        "sustained": {
            "value": false
        },
        "target": {
            "value": "1 creature"
        },
        "time": {
            "value": "1"
        },
        "traditions": {
            "value": []
        },
        "traits": {
            "custom": "",
            "rarity": {
                "value": "uncommon"
            },
            "selected": {
                "cantrip": "Cantrip",
                "custom": "Hex",
                "divination": "Divination",
                "witch": "Witch"
            },
            "value": [
                "cantrip",
                "divination",
                "witch",
                "hex"
            ]
        }
    },
    "effects": [],
    "flags": {},
    "folder": null,
    "img": "systems/pf2e/icons/spells/discern-secrets.webp",
    "name": "Discern Secrets",
    "permission": {
        "default": 0
    },
    "type": "spell"
}
