{
    "_id": "jupppBeFqhe6LMIb",
    "data": {
        "ability": {
            "value": ""
        },
        "area": {
            "areaType": "cone",
            "value": "30"
        },
        "areasize": {
            "value": "30-foot cone"
        },
        "category": {
            "value": "focus"
        },
        "components": {
            "material": false,
            "somatic": true,
            "verbal": true
        },
        "cost": {
            "value": ""
        },
        "damage": {
            "applyMod": false,
            "value": "5d6"
        },
        "damageType": {
            "value": "poison"
        },
        "description": {
            "chat": "",
            "unidentified": "",
            "value": "<p>You spew energy from your mouth, dealing [[/r 5d6 #poison]] poison damage in a 30-foot cone. Affected creatures can make a basic Fortitude save.</p>\n<hr />\n<p><strong>Heightened (+1)</strong> The damage increases by [[/r 2d6]].</p>"
        },
        "duration": {
            "value": ""
        },
        "hasCounteractCheck": {
            "value": false
        },
        "level": {
            "value": 3
        },
        "location": {
            "value": ""
        },
        "materials": {
            "value": ""
        },
        "prepared": {
            "value": ""
        },
        "primarycheck": {
            "value": ""
        },
        "range": {
            "value": ""
        },
        "rules": [],
        "save": {
            "basic": "basic",
            "value": "fortitude"
        },
        "scaling": {
            "formula": "2d6",
            "mode": "level1"
        },
        "school": {
            "value": "evocation"
        },
        "secondarycasters": {
            "value": ""
        },
        "secondarycheck": {
            "value": ""
        },
        "source": {
            "value": ""
        },
        "spellType": {
            "value": "save"
        },
        "sustained": {
            "value": false
        },
        "target": {
            "value": ""
        },
        "time": {
            "value": "2"
        },
        "traditions": {
            "value": []
        },
        "traits": {
            "custom": "",
            "rarity": {
                "value": "uncommon"
            },
            "value": [
                "uncommon",
                "evocation",
                "sorcerer"
            ]
        }
    },
    "effects": [],
    "flags": {},
    "folder": null,
    "img": "systems/pf2e/icons/spells/dragon-breath.webp",
    "name": "Dragon Breath (Green)",
    "permission": {
        "default": 0
    },
    "type": "spell"
}
