{
    "_id": "UJmKPm1FC6pf6txP",
    "data": {
        "ability": {
            "value": ""
        },
        "area": {
            "value": ""
        },
        "areasize": {
            "value": ""
        },
        "category": {
            "value": "spell"
        },
        "components": {
            "material": true,
            "somatic": true,
            "verbal": true
        },
        "cost": {
            "value": ""
        },
        "damage": {
            "applyMod": false,
            "value": ""
        },
        "damageType": {
            "value": ""
        },
        "description": {
            "chat": "",
            "unidentified": "",
            "value": "<p>You infuse magical energy into your target, opening up their mind to the pathways of magic and granting them the ability to use magic to affect the world around them.</p>\n<p>Choose a 1st-level spell you prepared today or that's in your repertoire, of the same tradition you used to cast halcyon infusion. The spell must be one that has a listed range. If the target is at least 3rd level, you can choose a 2nd-level spell instead of a 1st-level spell; and if the target is at least 5th level, you can choose a 3rd-level spell. The target can Cast the Spell once per day as an innate spell of the tradition you used to cast halcyon infusion. If they are untrained in the appropriate magical tradition, their spell attack bonus is 2 + their level + their highest mental ability modifier, and their spell DC is 12 + their level + their highest mental ability modifier.</p>\n<p>Unlike most abilities that can only be used once per day, the target refreshes their use of the granted innate spell each day only after you make your daily preparations and choose to extend halcyon infusion's duration by either refraining from preparing a spell in the slot (if you're a prepared spellcaster) or expending another spell slot (if you're a spontaneous spellcaster).</p>\n<hr />\n<p><strong>Heightened (8th)</strong> If the target is at least 7th level, you can choose a 4th-level spell.</p>\n<p><strong>Heightened (10th)</strong> As 8th, and if the target is at least 9th level, you can choose a 5th-level spell.</p>"
        },
        "duration": {
            "value": "until your next daily preparations"
        },
        "hasCounteractCheck": {
            "value": false
        },
        "level": {
            "value": 6
        },
        "location": {
            "value": "5anotCcAECWaOlcZ"
        },
        "materials": {
            "value": ""
        },
        "prepared": {
            "value": ""
        },
        "primarycheck": {
            "value": ""
        },
        "range": {
            "value": "touch"
        },
        "rules": [],
        "save": {
            "basic": "",
            "value": ""
        },
        "scaling": {
            "formula": "",
            "mode": "none"
        },
        "school": {
            "value": "divination"
        },
        "secondarycasters": {
            "value": ""
        },
        "secondarycheck": {
            "value": ""
        },
        "source": {
            "value": ""
        },
        "spellType": {
            "value": "attack"
        },
        "sustained": {
            "value": false
        },
        "target": {
            "value": "one willing creature of lower level than you"
        },
        "time": {
            "value": "10 minutes"
        },
        "traditions": {
            "custom": "",
            "value": [
                "arcane",
                "primal"
            ]
        },
        "traits": {
            "custom": "",
            "rarity": {
                "value": "rare"
            },
            "selected": {
                "divination": "Divination",
                "mental": "Mental"
            },
            "value": [
                "divination",
                "mental"
            ]
        }
    },
    "effects": [],
    "flags": {},
    "folder": null,
    "img": "systems/pf2e/icons/spells/halcyon-infusion.webp",
    "name": "Halcyon Infusion",
    "permission": {
        "default": 0
    },
    "type": "spell"
}
