{
    "_id": "jrBa9deU2ULFWvSl",
    "data": {
        "ability": {
            "value": ""
        },
        "area": {
            "areaType": "",
            "value": null
        },
        "areasize": {
            "value": "4 40-foot bursts"
        },
        "category": {
            "value": "spell"
        },
        "components": {
            "material": false,
            "somatic": true,
            "verbal": true
        },
        "cost": {
            "value": ""
        },
        "damage": {
            "applyMod": false,
            "value": "6d10"
        },
        "damageType": {
            "value": "bludgeoning"
        },
        "description": {
            "chat": "",
            "unidentified": "",
            "value": "<p>You call down four meteors that explode in a fiery blast. Each meteor deals 6d10 bludgeoning damage to any creatures in the 10-foot burst at the center of its area of effect before exploding, dealing 14d6 fire damage to any creatures in its 40-foot burst. The meteors' central 10-foot bursts can't overlap, and a creature takes the same amount of fire damage no matter how many overlapping explosions it's caught in. The saving throw applies to both the bludgeoning and the fire damage.</p>\n<hr />\n<p><strong>Heightened (+1)</strong> The bludgeoning damage increases by 1d10, and the fire damage increases by 2d6.</p>"
        },
        "duration": {
            "value": ""
        },
        "hasCounteractCheck": {
            "value": false
        },
        "level": {
            "value": 9
        },
        "location": {
            "value": ""
        },
        "materials": {
            "value": ""
        },
        "prepared": {
            "value": ""
        },
        "primarycheck": {
            "value": ""
        },
        "range": {
            "value": "500 feet"
        },
        "rules": [],
        "save": {
            "basic": "basic",
            "value": "reflex"
        },
        "scaling": {
            "formula": "1d10",
            "mode": "level1"
        },
        "school": {
            "value": "evocation"
        },
        "secondarycasters": {
            "value": ""
        },
        "secondarycheck": {
            "value": ""
        },
        "source": {
            "value": ""
        },
        "spellType": {
            "value": "save"
        },
        "sustained": {
            "value": false
        },
        "target": {
            "value": ""
        },
        "time": {
            "value": "2"
        },
        "traditions": {
            "value": [
                "arcane",
                "primal"
            ]
        },
        "traits": {
            "custom": "",
            "rarity": {
                "value": "common"
            },
            "value": [
                "evocation",
                "fire"
            ]
        }
    },
    "effects": [],
    "flags": {},
    "folder": null,
    "img": "systems/pf2e/icons/spells/meteor-swarm.webp",
    "name": "Meteor Swarm",
    "permission": {
        "default": 0
    },
    "type": "spell"
}
