{
    "_id": "MTNlvZ0A9xY5sOg1",
    "data": {
        "ability": {
            "value": ""
        },
        "area": {
            "value": ""
        },
        "areasize": {
            "value": ""
        },
        "category": {
            "value": "ritual"
        },
        "components": {
            "material": false,
            "somatic": false,
            "verbal": false
        },
        "cost": {
            "value": "rare oils to anoint the body worth a total value  of the target's level (minimum 1) × 25 gp;"
        },
        "damage": {
            "applyMod": false,
            "value": ""
        },
        "damageType": {
            "value": ""
        },
        "description": {
            "chat": "",
            "unidentified": "",
            "value": "<p>You call upon gods, spirits, and stranger beings to bar a creature's spirit from ever returning. A spirit that doesn't wish to be so constrained can attempt a Will save to resist this ritual; on a critical success, it fools you into believing the ritual succeeded. This ritual has no effect on a target who is undead or whose soul is otherwise not in the afterlife.</p>\n<hr />\n<p><strong>Critical Success</strong> You sequester the subject's spirit to the afterlife. Attempts to communicate with the dead creature, return it to life, turn it into an undead, or otherwise disturb its afterlife fail unless the effect's counteract level is at least 2 higher than that of rest eternal or originates from an artifact or a deity. Successfully returning the creature to life ends the restrictions placed by rest eternal.</p>\n<p><strong>Success</strong> As critical success, but effects to interact with the spirit fail unless the effect's counteract level is higher than that of rest eternal or originates from an artifact or a deity.</p>\n<p><strong>Failure</strong> The ritual has no effect.</p>\n<p><strong>Critical Failure</strong> The ritual fails, and the spirits you appealed to are angered by your meddling. All casters become @Compendium[pf2e.conditionitems.Doomed]{Doomed 1} for 1 week.</p>"
        },
        "duration": {
            "value": ""
        },
        "hasCounteractCheck": {
            "value": false
        },
        "level": {
            "value": 4
        },
        "location": {
            "value": ""
        },
        "materials": {
            "value": ""
        },
        "prepared": {
            "value": ""
        },
        "primarycheck": {
            "value": "Religion (expert)"
        },
        "range": {
            "value": "20 feet"
        },
        "rules": [],
        "save": {
            "basic": "",
            "value": ""
        },
        "scaling": {
            "formula": "",
            "mode": "none"
        },
        "school": {
            "value": "necromancy"
        },
        "secondarycasters": {
            "value": "2"
        },
        "secondarycheck": {
            "value": "Occultism, Religion"
        },
        "source": {
            "value": ""
        },
        "spellType": {
            "value": "utility"
        },
        "sustained": {
            "value": false
        },
        "target": {
            "value": "1 dead creature"
        },
        "time": {
            "value": "1 day"
        },
        "traditions": {
            "value": []
        },
        "traits": {
            "custom": "",
            "rarity": {
                "value": "uncommon"
            },
            "value": [
                "necromancy"
            ]
        }
    },
    "effects": [],
    "flags": {},
    "folder": null,
    "img": "systems/pf2e/icons/spells/rest-eternal.webp",
    "name": "Rest Eternal",
    "permission": {
        "default": 0
    },
    "type": "spell"
}
