{
    "_id": "IFuEzfmmWyNwVbhY",
    "data": {
        "ability": {
            "value": ""
        },
        "area": {
            "value": ""
        },
        "areasize": {
            "value": "10-foot-wide, 10-foot-tall, 60-foot-long section of terrain"
        },
        "category": {
            "value": "spell"
        },
        "components": {
            "material": true,
            "somatic": true,
            "verbal": true
        },
        "cost": {
            "value": ""
        },
        "damage": {
            "applyMod": false,
            "value": ""
        },
        "damageType": {
            "value": ""
        },
        "description": {
            "chat": "",
            "unidentified": "",
            "value": "<p>You repel dangers from all around you, making passage through the chosen area safe for a brief amount of time. Anyone passing through the area gains the following benefits against harmful effects of the terrain and environment, including environmental damage, hazardous terrain, and hazards in the area. The spell grants a +2 status bonus to AC and saves against such effects, and resistance 5 to all damage from such effects. Furthermore, the spell prevents anything in the area that's prone to collapse, such as a rickety bridge or an unstable ceiling, from collapsing, except under extreme strain that would collapse a normal structure of its type.</p>\n<p><em>Safe passage</em> protects only against harm, not inconvenience, and it doesn't reduce difficult terrain, remove the @Compendium[pf2e.conditionitems.Concealed]{Concealed} condition caused by precipitation, or the like, nor does it protect against creatures within the spell's area.</p>\n<hr />\n<p><strong>Heightened (5th)</strong> The granted resistance increases to 10, and the area can be 120 feet long.</p>\n<p><strong>Heightened (8th)</strong> The granted resistance increases to 15, and the area can be 500 feet long.</p>"
        },
        "duration": {
            "value": "sustained up to 1 minute"
        },
        "hasCounteractCheck": {
            "value": false
        },
        "level": {
            "value": 3
        },
        "location": {
            "value": ""
        },
        "materials": {
            "value": ""
        },
        "prepared": {
            "value": false
        },
        "primarycheck": {
            "value": ""
        },
        "range": {
            "value": "touch"
        },
        "rules": [],
        "save": {
            "basic": "",
            "value": ""
        },
        "scaling": {
            "formula": "",
            "mode": "none"
        },
        "school": {
            "value": "abjuration"
        },
        "secondarycasters": {
            "value": ""
        },
        "secondarycheck": {
            "value": ""
        },
        "source": {
            "value": ""
        },
        "spellType": {
            "value": "utility"
        },
        "sustained": {
            "value": false
        },
        "target": {
            "value": ""
        },
        "time": {
            "value": "3"
        },
        "traditions": {
            "value": [
                "arcane",
                "divine",
                "primal"
            ]
        },
        "traits": {
            "custom": "",
            "rarity": {
                "value": "common"
            },
            "value": [
                "abjuration"
            ]
        }
    },
    "effects": [],
    "flags": {},
    "folder": null,
    "img": "systems/pf2e/icons/spells/safe-passage.webp",
    "name": "Safe Passage",
    "permission": {
        "default": 0
    },
    "type": "spell"
}
