{
    "_id": "0JigNJDRwevZOyjI",
    "data": {
        "ability": {
            "value": ""
        },
        "area": {
            "areaType": "",
            "value": null
        },
        "areasize": {
            "value": ""
        },
        "category": {
            "value": "focus"
        },
        "components": {
            "material": false,
            "somatic": true,
            "verbal": true
        },
        "cost": {
            "value": ""
        },
        "damage": {
            "applyMod": false,
            "value": "7d8"
        },
        "damageType": {
            "value": "healing"
        },
        "description": {
            "chat": "",
            "unidentified": "",
            "value": "<p><span>You draw upon your muse to soothe your allies. Choose one of the following three effects: </span></p>\n<ul>\n<li>The spell attempts to counteract fear effects on the targets.</li>\n<li>The spell attempts to counteract effects imposing paralysis on the targets.</li>\n<li>The spell restores 7d8 Hit Points to the targets.</li>\n</ul>\n<hr />\n<p><strong>Heightened (+1)</strong> When used to heal, soothing ballad restores 1d8 more Hit Points.</p>"
        },
        "duration": {
            "value": ""
        },
        "hasCounteractCheck": {
            "value": true
        },
        "level": {
            "value": 7
        },
        "location": {
            "value": ""
        },
        "materials": {
            "value": ""
        },
        "prepared": {
            "value": ""
        },
        "primarycheck": {
            "value": ""
        },
        "range": {
            "value": "30 feet"
        },
        "rules": [],
        "save": {
            "basic": "",
            "value": ""
        },
        "scaling": {
            "formula": "1d8",
            "mode": "level1"
        },
        "school": {
            "value": "enchantment"
        },
        "secondarycasters": {
            "value": ""
        },
        "secondarycheck": {
            "value": ""
        },
        "source": {
            "value": ""
        },
        "spellType": {
            "value": "heal"
        },
        "sustained": {
            "value": false
        },
        "target": {
            "value": "you and up to 9 allies"
        },
        "time": {
            "value": "2"
        },
        "traditions": {
            "value": []
        },
        "traits": {
            "custom": "",
            "rarity": {
                "value": "uncommon"
            },
            "value": [
                "bard",
                "composition",
                "emotion",
                "enchantment",
                "healing",
                "mental"
            ]
        }
    },
    "effects": [],
    "flags": {},
    "folder": null,
    "img": "systems/pf2e/icons/spells/soothing-ballad.webp",
    "name": "Soothing Ballad",
    "permission": {
        "default": 0
    },
    "type": "spell"
}
