{
    "_id": "iQD8OhhkwhvD8Blw",
    "data": {
        "ability": {
            "value": ""
        },
        "area": {
            "areaType": "",
            "value": null
        },
        "areasize": {
            "value": "5-foot burst or more"
        },
        "category": {
            "value": "focus"
        },
        "components": {
            "material": false,
            "somatic": true,
            "verbal": true
        },
        "cost": {
            "value": ""
        },
        "damage": {
            "applyMod": false,
            "value": "1d6"
        },
        "damageType": {
            "value": "poison"
        },
        "description": {
            "chat": "",
            "unidentified": "",
            "value": "<p>Ground in the area turns swampy and fetid. The area is difficult terrain. The sludge at the bottom of the morass animates into diminutive sludge beasts that have a demonic appearance. These don't function as normal creatures, but they swarm over creatures in the swamp and exude a noxious stench. The swamp deals 1d6 poison damage; creatures that end their turn in the area must attempt a basic Fortitude save. You can increase the number of actions it takes to Cast the Spell. For each additional action, increase the burst's radius by 5 feet.</p>\n<hr />\n<p><strong>Heightened (+2)</strong> The damage increases by 1d6, and the initial radius increases by 5 feet.</p>"
        },
        "duration": {
            "value": "1 minute"
        },
        "hasCounteractCheck": {
            "value": false
        },
        "level": {
            "value": 3
        },
        "location": {
            "value": ""
        },
        "materials": {
            "value": ""
        },
        "prepared": {
            "value": ""
        },
        "primarycheck": {
            "value": ""
        },
        "range": {
            "value": "120 feet"
        },
        "rules": [],
        "save": {
            "basic": "",
            "value": ""
        },
        "scaling": {
            "formula": "1d6",
            "mode": "level2"
        },
        "school": {
            "value": "conjuration"
        },
        "secondarycasters": {
            "value": ""
        },
        "secondarycheck": {
            "value": ""
        },
        "source": {
            "value": ""
        },
        "spellType": {
            "value": "save"
        },
        "sustained": {
            "value": false
        },
        "target": {
            "value": ""
        },
        "time": {
            "value": "1 to 3"
        },
        "traditions": {
            "value": []
        },
        "traits": {
            "custom": "",
            "rarity": {
                "value": "uncommon"
            },
            "value": [
                "conjuration",
                "olfactory",
                "sorcerer"
            ]
        }
    },
    "effects": [],
    "flags": {},
    "folder": null,
    "img": "systems/pf2e/icons/spells/swamp-of-sloth.webp",
    "name": "Swamp of Sloth",
    "permission": {
        "default": 0
    },
    "type": "spell"
}
