{
    "_id": "i8PBZsnoCrK7IWph",
    "data": {
        "ability": {
            "value": ""
        },
        "area": {
            "areaType": "",
            "value": null
        },
        "areasize": {
            "value": ""
        },
        "category": {
            "value": "focus"
        },
        "components": {
            "material": false,
            "somatic": true,
            "verbal": false
        },
        "cost": {
            "value": ""
        },
        "damage": {
            "applyMod": false,
            "value": ""
        },
        "damageType": {
            "value": ""
        },
        "description": {
            "chat": "",
            "unidentified": "",
            "value": "<p>Your arms turn into long, pliable tentacles, increasing your reach when you're delivering touch range spells and making unarmed Strikes with your arms (such as fist and claw Strikes) to 10 feet. This doesn't change the reach of your melee weapon attacks. During the duration, whenever you Cast a Spell, you can add an additional action to that spell's casting to temporarily extend your reach to 20 feet to deliver that spell.</p>\n<hr />\n<p><strong>Heightened (+2)</strong> When you add an additional action to a spell to temporarily extend your reach, your reach increases by an additional 10 feet to deliver that spell.</p>"
        },
        "duration": {
            "value": "1 minute"
        },
        "hasCounteractCheck": {
            "value": false
        },
        "level": {
            "value": 1
        },
        "location": {
            "value": ""
        },
        "materials": {
            "value": ""
        },
        "prepared": {
            "value": ""
        },
        "primarycheck": {
            "value": ""
        },
        "range": {
            "value": ""
        },
        "rules": [],
        "save": {
            "basic": "",
            "value": ""
        },
        "scaling": {
            "formula": "",
            "mode": "none"
        },
        "school": {
            "value": "transmutation"
        },
        "secondarycasters": {
            "value": ""
        },
        "secondarycheck": {
            "value": ""
        },
        "source": {
            "value": ""
        },
        "spellType": {
            "value": "utility"
        },
        "sustained": {
            "value": false
        },
        "target": {
            "value": ""
        },
        "time": {
            "value": "1"
        },
        "traditions": {
            "value": []
        },
        "traits": {
            "custom": "",
            "rarity": {
                "value": "uncommon"
            },
            "value": [
                "morph",
                "sorcerer",
                "transmutation"
            ]
        }
    },
    "effects": [],
    "flags": {},
    "folder": null,
    "img": "systems/pf2e/icons/spells/tentacular-limbs.webp",
    "name": "Tentacular Limbs",
    "permission": {
        "default": 0
    },
    "type": "spell"
}
