{
    "_id": "ytboJsyZEbE1MLeV",
    "data": {
        "ability": {
            "value": ""
        },
        "area": {
            "areaType": "cone",
            "value": 15
        },
        "areasize": {
            "value": "15-foot cone"
        },
        "category": {
            "value": "focus"
        },
        "components": {
            "material": false,
            "somatic": false,
            "verbal": true
        },
        "cost": {
            "value": ""
        },
        "damage": {
            "applyMod": false,
            "value": "3d6"
        },
        "damageType": {
            "value": ""
        },
        "description": {
            "chat": "",
            "unidentified": "",
            "value": "<p>You unleash a mighty wave from your hand that buffets back your foes. Each creature in the area must attempt a Fortitude saving throw. If a creature pushed by <em>unbreaking wave advance</em> would be pushed into a solid barrier or another creature, it stops at that point and takes 3d6 damage.</p>\n<hr />\n<p><span><strong>Success</strong> The creature is unaffected.</span></p>\n<p><span><strong>Failure</strong> The creature is pushed 10 feet.</span></p>\n<p><span><strong>Critical Failure</strong> The creature is pushed 20 feet.</span></p>\n<hr />\n<p><strong>Heightened (+1)</strong> The damage for pushing a creature into a solid barrier increases by 1d6.</p>"
        },
        "duration": {
            "value": ""
        },
        "hasCounteractCheck": {
            "value": false
        },
        "level": {
            "value": 3
        },
        "location": {
            "value": ""
        },
        "materials": {
            "value": ""
        },
        "prepared": {
            "value": ""
        },
        "primarycheck": {
            "value": ""
        },
        "range": {
            "value": ""
        },
        "rules": [],
        "save": {
            "basic": "",
            "value": "fortitude"
        },
        "scaling": {
            "formula": "1d6",
            "mode": "level1"
        },
        "school": {
            "value": "evocation"
        },
        "secondarycasters": {
            "value": ""
        },
        "secondarycheck": {
            "value": ""
        },
        "source": {
            "value": ""
        },
        "spellType": {
            "value": "save"
        },
        "sustained": {
            "value": false
        },
        "target": {
            "value": ""
        },
        "time": {
            "value": "1"
        },
        "traditions": {
            "custom": "",
            "value": []
        },
        "traits": {
            "custom": "",
            "rarity": {
                "value": "uncommon"
            },
            "value": [
                "uncommon",
                "water",
                "evocation"
            ]
        }
    },
    "effects": [],
    "flags": {},
    "folder": null,
    "img": "systems/pf2e/icons/spells/unbreaking-wave-advance.webp",
    "name": "Unbreaking Wave Advance",
    "permission": {
        "default": 0
    },
    "type": "spell"
}
