{
    "_id": "YiIOsc8T6E2iDxgh",
    "data": {
        "ability": {
            "value": ""
        },
        "area": {
            "value": ""
        },
        "areasize": {
            "value": ""
        },
        "category": {
            "value": "spell"
        },
        "components": {
            "material": false,
            "somatic": true,
            "verbal": true
        },
        "cost": {
            "value": ""
        },
        "damage": {
            "applyMod": false,
            "value": ""
        },
        "damageType": {
            "value": ""
        },
        "description": {
            "value": "<p>You lash a target with tendrils of shadow that steal some of its substance, making it quasi-real. As long as it is quasi-real, its Strikes deal half damage, it can't critically succeed at any skill check, and creatures attempting saving throws against its spells and effects get a result one degree of success better than they rolled. The target must attempt a Will saving throw.</p>\n<hr />\n<p><strong>Critical Success</strong> The target is unaffected.</p>\n<p><strong>Success</strong> The target is quasi-real until the end of its next turn.</p>\n<p><strong>Failure</strong> The target is quasi-real for 1 minute. At the end of each of its turns, it can attempt another Will save, ending the spell on a success.</p>\n<p><strong>Critical Failure</strong> The target is quasi-real for an unlimited duration.</p>"
        },
        "duration": {
            "value": "varies"
        },
        "hasCounteractCheck": {
            "value": false
        },
        "level": {
            "value": 8
        },
        "location": {
            "value": "Vz29XsR9yz4BEMgr"
        },
        "materials": {
            "value": ""
        },
        "prepared": {
            "value": ""
        },
        "primarycheck": {
            "value": ""
        },
        "range": {
            "value": "500 feet"
        },
        "rules": [],
        "save": {
            "basic": "",
            "value": "will"
        },
        "scaling": {
            "formula": "",
            "mode": "none"
        },
        "school": {
            "value": "illusion"
        },
        "secondarycasters": {
            "value": ""
        },
        "secondarycheck": {
            "value": ""
        },
        "source": {
            "value": ""
        },
        "spellType": {
            "value": "save"
        },
        "sustained": {
            "value": false
        },
        "target": {
            "value": "1 creature"
        },
        "time": {
            "value": "2"
        },
        "traditions": {
            "custom": "",
            "value": [
                "arcane",
                "occult"
            ]
        },
        "traits": {
            "custom": "",
            "rarity": {
                "value": "uncommon"
            },
            "value": [
                "illusion",
                "incapacitation",
                "shadow"
            ]
        }
    },
    "effects": [],
    "flags": {},
    "folder": null,
    "img": "systems/pf2e/icons/spells/undermine-reality.webp",
    "name": "Undermine Reality",
    "permission": {
        "default": 0
    },
    "type": "spell"
}
