{
    "_id": "AzGJN1wwLFaLJIeo",
    "data": {
        "actionCategory": {
            "value": ""
        },
        "actionType": {
            "value": "passive"
        },
        "actions": {
            "value": ""
        },
        "description": {
            "chat": "",
            "unidentified": "",
            "value": "<p>Your reptilian biology allows you to hold your breath for a long time. You gain the @Compendium[pf2e.feats-srd.Breath Control]{Breath Control} general feat as a bonus feat.</p>"
        },
        "featType": {
            "value": "ancestryfeature"
        },
        "level": {
            "value": 1
        },
        "location": "",
        "prerequisites": {
            "value": []
        },
        "rules": [],
        "source": {
            "value": ""
        },
        "traits": {
            "custom": "",
            "rarity": {
                "value": "common"
            },
            "selected": {
                "lizardfolk": "Lizardfolk"
            },
            "value": [
                "lizardfolk"
            ]
        }
    },
    "effects": [],
    "flags": {},
    "folder": null,
    "img": "systems/pf2e/icons/features/ancestry//aquatic-adaptation.webp",
    "name": "Aquatic Adaptation",
    "permission": {
        "default": 0
    },
    "type": "feat"
}
