{
    "_id": "OoUqJJB77VfWbWRM",
    "data": {
        "actionCategory": {
            "value": ""
        },
        "actionType": {
            "value": "passive"
        },
        "actions": {
            "value": ""
        },
        "description": {
            "chat": "",
            "unidentified": "",
            "value": "<p>Your toes are adapted for gripping and climbing.</p>\n<p>You gain the @Compendium[pf2e.feats-srd.Combat Climber]{Combat Climber} feat as a bonus feat, and as long as you aren't wearing footwear, you can use the sticky pads on your feet to climb, leaving your hands free.</p>\n<p>Additionally, if you roll a success on an Athletics check to climb, you get a critical success instead.</p>"
        },
        "featType": {
            "value": "heritage"
        },
        "level": {
            "value": 1
        },
        "location": "",
        "prerequisites": {
            "value": []
        },
        "rules": [
            {
                "key": "PF2E.RuleElement.Note",
                "predicate": {
                    "all": [
                        "action:climb"
                    ]
                },
                "selector": "athletics",
                "text": "<p class='compact-text'><strong>{item|name}</strong> When you roll a success to Climb, you get a critical success instead.</p>"
            }
        ],
        "source": {
            "value": ""
        },
        "traits": {
            "custom": "",
            "rarity": {
                "value": "common"
            },
            "value": [
                "lizardfolk"
            ]
        }
    },
    "effects": [],
    "flags": {},
    "folder": null,
    "img": "systems/pf2e/icons/features/ancestry/cliifscale-lizardfolk.webp",
    "name": "Cliffscale Lizardfolk",
    "permission": {
        "default": 0
    },
    "type": "feat"
}
