{
    "_id": "1wVDYY9Wue0G5R9Q",
    "data": {
        "actionCategory": {
            "value": ""
        },
        "actionType": {
            "value": "passive"
        },
        "actions": {
            "value": ""
        },
        "description": {
            "chat": "",
            "unidentified": "",
            "value": "<p>Your ears are finely tuned, able to detect even the slightest whispers of sound.</p>\n<p>As long as you can hear normally, you can use the @Compendium[pf2e.actionspf2e.Seek]{Seek} action to sense @Compendium[pf2e.conditionitems.Undetected]{Undetected} creatures in a 60-foot cone instead of a 30-foot cone.</p>\n<p>You also gain a +2 circumstance bonus to locate undetected creatures that you could hear within 30 feet with a seek action.</p>"
        },
        "featType": {
            "value": "heritage"
        },
        "level": {
            "value": 1
        },
        "location": "",
        "prerequisites": {
            "value": []
        },
        "rules": [
            {
                "key": "PF2E.RuleElement.FlatModifier",
                "label": "Whisper Elf (locate audible undetected within range)",
                "predicate": {
                    "all": [
                        "target:undetected",
                        "target:within-30-feet",
                        "target:audible"
                    ]
                },
                "selector": "perception",
                "type": "circumstance",
                "value": 2
            }
        ],
        "source": {
            "value": ""
        },
        "traits": {
            "custom": "",
            "rarity": {
                "value": "common"
            },
            "value": [
                "elf"
            ]
        }
    },
    "effects": [],
    "flags": {},
    "folder": null,
    "img": "systems/pf2e/icons/features/ancestry/whisper-elf.webp",
    "name": "Whisper Elf",
    "permission": {
        "default": 0
    },
    "type": "feat"
}
