{
    "_id": "ePZOmPbGXzrEaXXs",
    "data": {
        "actionCategory": {
            "value": ""
        },
        "actionType": {
            "value": "reaction"
        },
        "actions": {
            "value": ""
        },
        "description": {
            "chat": "",
            "unidentified": "",
            "value": "<p><strong>[Advanced]</strong></p>\n<p><strong>Effect</strong>: You are the rightful master of the infernal keep known as Diggen's Rest. Once per adventure, you can use the following reaction.</p>\n<p><span style=\"text-decoration: underline;\">Infernal Detonations</span></p>\n<p><strong>Action</strong>: Reaction</p>\n<p><strong>Trigger</strong>: A creature within 30 feet of you targets you or an ally with an attack.</p>\n<p><strong>Effect</strong>: The creature takes fire damage equal to 1d6 + your level (basic Reflex save). The DC of the Reflex save is equal to your spell DC or your class DC, whichever is higher.</p>"
        },
        "featType": {
            "value": "pfsboon"
        },
        "level": {
            "value": 0
        },
        "prerequisites": {
            "value": []
        },
        "rules": [],
        "source": {
            "value": ""
        },
        "traits": {
            "custom": "",
            "rarity": {
                "value": "common"
            },
            "selected": {},
            "value": []
        }
    },
    "effects": [],
    "flags": {},
    "img": "systems/pf2e/icons/default-icons/mystery-man.webp",
    "name": "S1-11 - Devil's Keep",
    "permission": {
        "default": 0
    },
    "type": "feat"
}
