{
    "_id": "8rDbWcWmQL0N5FFG",
    "data": {
        "description": {
            "value": "<p>Granted by @Compendium[pf2e.feats-srd.Azarketi Purification]{Azarketi Purification}</p>"
        },
        "duration": {
            "expiry": "turn-start",
            "sustained": false,
            "unit": "minutes",
            "value": 1
        },
        "level": {
            "value": 9
        },
        "rules": [
            {
                "key": "PF2E.RuleElement.FlatModifier",
                "label": "Azarketi Purification (vs. ongoing saves against poisons already in your body)",
                "predicate": {
                    "all": [
                        "poison"
                    ]
                },
                "selector": "saving-throw",
                "type": "status",
                "value": 2
            }
        ],
        "source": {
            "value": ""
        },
        "start": {
            "initiative": null,
            "value": 0
        },
        "target": null,
        "tokenIcon": {
            "show": false
        },
        "traits": {
            "custom": "",
            "rarity": {
                "value": "common"
            },
            "value": []
        }
    },
    "effects": [],
    "flags": {},
    "folder": null,
    "img": "systems/pf2e/icons/spells/purify-food-and-drink.webp",
    "name": "Effect: Azarketi Purification",
    "permission": {
        "default": 0
    },
    "type": "effect"
}
