{
    "_id": "I4Ozf6mTnd3X0Oax",
    "data": {
        "description": {
            "value": "<p>Granted if you critically succeed with @Compendium[pf2e.feats-srd.Predictable!]{Predictable!}.</p>"
        },
        "duration": {
            "expiry": "turn-start",
            "sustained": false,
            "unit": "rounds",
            "value": 1
        },
        "level": {
            "value": 1
        },
        "rules": [
            {
                "key": "PF2E.RuleElement.FlatModifier",
                "predicate": {
                    "all": [
                        "predicatable"
                    ]
                },
                "roll-options": [
                    "all"
                ],
                "selector": "ac",
                "type": "circumstance",
                "value": 2
            },
            {
                "key": "PF2E.RuleElement.FlatModifier",
                "predicate": {
                    "all": [
                        "predicatable"
                    ]
                },
                "roll-options": [
                    "all"
                ],
                "selector": "reflex",
                "type": "circumstance",
                "value": 2
            },
            {
                "key": "PF2E.RuleElement.ToggleProperty",
                "label": "Defending against target of Predictable!",
                "property": "flags.pf2e.rollOptions.all.predicable"
            }
        ],
        "source": {
            "value": ""
        },
        "start": {
            "initiative": null,
            "value": 0
        },
        "target": null,
        "tokenIcon": {
            "show": true
        },
        "traits": {
            "custom": "",
            "rarity": {
                "value": "common"
            },
            "value": []
        }
    },
    "effects": [],
    "flags": {},
    "folder": null,
    "img": "systems/pf2e/icons/equipment/shields/precious-material-shields/orichalcum-buckler.webp",
    "name": "Effect: Predictable! (Critical Success)",
    "permission": {
        "default": 0
    },
    "type": "effect"
}
