{
    "_id": "loJBcC34yhpVwfio",
    "data": {
        "attributes": {
            "ac": {
                "value": 0
            },
            "hardness": 0,
            "hasHealth": true,
            "hp": {
                "details": "",
                "max": 10,
                "temp": 0,
                "value": 10
            },
            "stealth": {
                "details": "<p>(trained) to hear the scratching beneath the floorboards</p>",
                "value": 13
            }
        },
        "creatureType": "",
        "details": {
            "description": "<p>Illusory hands tear from the floorboards, clawing at their victim's legs and leaving real wounds. </p>",
            "disable": "<p>Religion DC 20 (trained) to exorcize the spirits</p>",
            "isComplex": false,
            "level": 4,
            "reset": "<p>The underlying spirits remain, resetting the haunt every midnight, until the true story of what happened here becomes public.</p>",
            "routine": ""
        },
        "recallKnowledgeText": "",
        "saves": {
            "fortitude": {
                "rank": 0,
                "saveDetail": "",
                "value": null
            },
            "reflex": {
                "rank": 0,
                "saveDetail": "",
                "value": null
            },
            "will": {
                "rank": 0,
                "saveDetail": "",
                "value": null
            }
        },
        "schema": {
            "version": {
                "value": ""
            }
        },
        "source": {
            "value": ""
        },
        "statusEffects": [],
        "traits": {
            "ci": [],
            "di": {
                "custom": "",
                "selected": {},
                "value": []
            },
            "dr": [],
            "dv": [],
            "rarity": {
                "value": "common"
            },
            "size": {
                "value": "med"
            },
            "traits": {
                "custom": "",
                "value": [
                    "haunt"
                ]
            }
        }
    },
    "effects": [],
    "flags": {},
    "folder": null,
    "img": "systems/pf2e/icons/default-icons/hazard.svg",
    "items": [
        {
            "_id": "vGwlY8H7EONqROr1",
            "data": {
                "actionCategory": {
                    "value": "offensive"
                },
                "actionType": {
                    "value": "reaction"
                },
                "actions": {
                    "value": ""
                },
                "description": {
                    "value": "<p><strong>Trigger</strong> A creature passes through area <strong>C2</strong> for the second time in 24 hours.</p>\n<p><strong>Effect</strong> Phantasmal rotting hands burst out from the floor under the target, tearing into their legs. The hands' appearance varies based on the reason for the haunting (see the table below).</p>\n<p>The hands deal [[/r 4d6+10 #slashing]] slashing damage and [[/r 4d6 #persistent bleed]] @Compendium[pf2e.conditionitems.Persistent Damage]{Persistent Bleed Damage} (<span data-pf2-saving-throw=\"will\" data-pf2-traits=\"divine,illusion,mental\" data-pf2-label=\"Rending Hands DC\" data-pf2-dc=\"21\" data-pf2-show-dc=\"gm\">basic Will</span> save). If a creature takes any damage from the haunt, the claws leave rending wounds on the target's legs, reducing their land Speed by 10 feet (minimum 5 feet) until the target is restored to its maximum HP.</p>\n<table class=\"pf2-table\">\n<thead>\n<tr>\n<th>Owners</th>\n<th>Haunt Manifestations</th>\n</tr>\n</thead>\n<tbody>\n<tr>\n<td>Archdevil Worshippers</td>\n<td>Scent of brimstone and sound of chanting in Infernal (a PC who understands Infernal or succeeds at a DC 10 Religion, Hell Lore, or Mephistopheles Lore check recognizes the chanting as a prayer to Mephistopheles)</td>\n</tr>\n<tr>\n<td>Soulbound Dollmakers</td>\n<td>Flesh flaking off the rotting hands reveals smooth porcelain underneath (a PC who succeeds at a DC 10 Crafting or Occultism check recognizes the craftsmanship as that of soulbound dolls)</td>\n</tr>\n<tr>\n<td>Alchemical Experimenters</td>\n<td>A chemical scent overpowers the rot, and precise surgical cuts can be seen on the arms (a PC who succeeds at a DC 10 Crafting or Medicine check realizes both are medical but unnecessary)</td>\n</tr>\n<tr>\n<td>Slavers</td>\n<td>The hands still wear heavy manacles around the wrists</td>\n</tr>\n<tr>\n<td>Crime Lords</td>\n<td>The hands are tattooed and some are cleanly missing fingers (a PC who succeeds at a DC 10 Society or Underworld Lore check recognizes these as marks of gangs active before the earthquake)</td>\n</tr>\n<tr>\n<td>Misguided Pharasmins</td>\n<td>A scent of incense lingers as the haunt vanishes (a PC who succeeds at a DC 10 Religion or Pharasma Lore check recognizes the scent from Pharasmin funerals)</td>\n</tr>\n</tbody>\n</table>"
                },
                "requirements": {
                    "value": ""
                },
                "rules": [],
                "slug": null,
                "source": {
                    "value": ""
                },
                "traits": {
                    "custom": "",
                    "rarity": {
                        "value": "common"
                    },
                    "value": [
                        "mental",
                        "divine",
                        "illusion"
                    ]
                },
                "trigger": {
                    "value": ""
                },
                "weapon": {
                    "value": ""
                }
            },
            "effects": [],
            "flags": {},
            "folder": null,
            "img": "systems/pf2e/icons/actions/Reaction.webp",
            "name": "Rending Hands",
            "permission": {
                "default": 0
            },
            "sort": 100000,
            "type": "action"
        }
    ],
    "name": "Rending Hands",
    "permission": {
        "default": 0
    },
    "token": {
        "actorId": "loJBcC34yhpVwfio",
        "actorLink": false,
        "alpha": 1,
        "bar1": {
            "attribute": null
        },
        "bar2": {
            "attribute": null
        },
        "brightLight": 0,
        "brightSight": 0,
        "dimLight": 0,
        "dimSight": 0,
        "displayBars": 20,
        "displayName": 20,
        "disposition": 0,
        "flags": {},
        "height": 1,
        "img": "systems/pf2e/icons/default-icons/hazard.svg",
        "lightAlpha": 1,
        "lightAngle": 0,
        "lightAnimation": {
            "intensity": 5,
            "speed": 5
        },
        "lockRotation": false,
        "mirrorX": false,
        "mirrorY": false,
        "name": "Rending Hands",
        "randomImg": false,
        "rotation": 0,
        "scale": 1,
        "sightAngle": 0,
        "tint": null,
        "vision": false,
        "width": 1
    },
    "type": "hazard"
}
